singlecycle/SiliCore_Qualifying_code/testoutdump.vcd
$date
	Thu Nov 07 10:29:46 2024
$end
$version
	Icarus Verilog
$end
$timescale
	1s
$end
$scope module testbench $end
$var wire 32 ! regs5 [31:0] $end
$var wire 32 " regs4 [31:0] $end
$var wire 32 # regs3 [31:0] $end
$var wire 32 $ regs2 [31:0] $end
$var wire 32 % regs1 [31:0] $end
$var wire 32 & regs0 [31:0] $end
$var wire 32 ' cycles_consumed [31:0] $end
$var wire 1 ( clkout $end
$var wire 6 ) PC [5:0] $end
$var reg 1 * clk $end
$var reg 1 + rst $end
$scope module cpu $end
$var wire 1 ( clk $end
$var wire 1 * input_clk $end
$var wire 1 + rst $end
$var wire 1 , zero $end
$var wire 32 - writeData [31:0] $end
$var wire 32 . wire_instruction [31:0] $end
$var wire 32 / shamt [31:0] $end
$var wire 5 0 rt [4:0] $end
$var wire 5 1 rs [4:0] $end
$var wire 32 2 regs5 [31:0] $end
$var wire 32 3 regs4 [31:0] $end
$var wire 32 4 regs3 [31:0] $end
$var wire 32 5 regs2 [31:0] $end
$var wire 32 6 regs1 [31:0] $end
$var wire 32 7 regs0 [31:0] $end
$var wire 32 8 readData2 [31:0] $end
$var wire 32 9 readData1_w [31:0] $end
$var wire 32 : readData1 [31:0] $end
$var wire 5 ; rd [4:0] $end
$var wire 6 < opcode [5:0] $end
$var wire 6 = nextPC [5:0] $end
$var wire 32 > memoryReadData [31:0] $end
$var wire 32 ? instruction [31:0] $end
$var wire 32 @ immediate [31:0] $end
$var wire 16 A imm [15:0] $end
$var wire 1 B hlt $end
$var wire 6 C funct [5:0] $end
$var wire 32 D extImm [31:0] $end
$var wire 32 E address [31:0] $end
$var wire 6 F adderResult [5:0] $end
$var wire 5 G WriteRegister [4:0] $end
$var wire 1 H RegWriteEn $end
$var wire 1 I RegDst $end
$var wire 1 J PCsrc $end
$var wire 6 K PCPlus1 [5:0] $end
$var wire 6 L PC [5:0] $end
$var wire 1 M MemtoReg $end
$var wire 1 N MemWriteEn $end
$var wire 1 O MemReadEn $end
$var wire 32 P ALUin2 [31:0] $end
$var wire 1 Q ALUSrc $end
$var wire 32 R ALUResult [31:0] $end
$var wire 4 S ALUOp [3:0] $end
$var parameter 6 T RType $end
$var parameter 6 U add $end
$var parameter 6 V addi $end
$var parameter 6 W addu $end
$var parameter 6 X and_ $end
$var parameter 6 Y andi $end
$var parameter 6 Z beq $end
$var parameter 6 [ bne $end
$var parameter 6 \ hlt_inst $end
$var parameter 6 ] j $end
$var parameter 6 ^ jal $end
$var parameter 6 _ jr $end
$var parameter 6 ` lw $end
$var parameter 6 a nop $end
$var parameter 6 b nor_ $end
$var parameter 6 c or_ $end
$var parameter 6 d ori $end
$var parameter 6 e sgt $end
$var parameter 6 f sll $end
$var parameter 6 g slt $end
$var parameter 6 h slti $end
$var parameter 6 i srl $end
$var parameter 6 j sub $end
$var parameter 6 k subu $end
$var parameter 6 l sw $end
$var parameter 6 m xor_ $end
$var parameter 6 n xori $end
$var reg 32 o cycles_consumed [31:0] $end
$scope module ALUMux $end
$var wire 32 p in2 [31:0] $end
$var wire 1 Q s $end
$var wire 32 q out [31:0] $end
$var wire 32 r in1 [31:0] $end
$var parameter 32 s size $end
$upscope $end
$scope module CU $end
$var wire 6 t funct [5:0] $end
$var wire 6 u opcode [5:0] $end
$var wire 1 + rst $end
$var parameter 6 v RType $end
$var parameter 6 w add $end
$var parameter 6 x addi $end
$var parameter 6 y addu $end
$var parameter 6 z and_ $end
$var parameter 6 { andi $end
$var parameter 6 | beq $end
$var parameter 6 } bne $end
$var parameter 6 ~ hlt_inst $end
$var parameter 6 !" j $end
$var parameter 6 "" jal $end
$var parameter 6 #" jr $end
$var parameter 6 $" lw $end
$var parameter 6 %" nop $end
$var parameter 6 &" nor_ $end
$var parameter 6 '" or_ $end
$var parameter 6 (" ori $end
$var parameter 6 )" sgt $end
$var parameter 6 *" sll $end
$var parameter 6 +" slt $end
$var parameter 6 ," slti $end
$var parameter 6 -" srl $end
$var parameter 6 ." sub $end
$var parameter 6 /" subu $end
$var parameter 6 0" sw $end
$var parameter 6 1" xor_ $end
$var parameter 6 2" xori $end
$var reg 4 3" ALUOp [3:0] $end
$var reg 1 Q ALUSrc $end
$var reg 1 O MemReadEn $end
$var reg 1 N MemWriteEn $end
$var reg 1 M MemtoReg $end
$var reg 1 I RegDst $end
$var reg 1 H RegWriteEn $end
$var reg 1 B hlt $end
$upscope $end
$scope module PCMux $end
$var wire 6 4" in1 [5:0] $end
$var wire 6 5" in2 [5:0] $end
$var wire 1 J s $end
$var wire 6 6" out [5:0] $end
$var parameter 32 7" size $end
$upscope $end
$scope module RF $end
$var wire 1 ( clk $end
$var wire 32 8" readData1 [31:0] $end
$var wire 32 9" readData2 [31:0] $end
$var wire 5 :" readRegister1 [4:0] $end
$var wire 5 ;" readRegister2 [4:0] $end
$var wire 32 <" regs0 [31:0] $end
$var wire 32 =" regs1 [31:0] $end
$var wire 32 >" regs2 [31:0] $end
$var wire 32 ?" regs3 [31:0] $end
$var wire 32 @" regs4 [31:0] $end
$var wire 32 A" regs5 [31:0] $end
$var wire 1 + rst $end
$var wire 1 H we $end
$var wire 5 B" writeRegister [4:0] $end
$var wire 32 C" writeData [31:0] $end
$var integer 32 D" i [31:0] $end
$scope begin Write_on_register_file_block $end
$var integer 32 E" i [31:0] $end
$upscope $end
$upscope $end
$scope module RFMux $end
$var wire 5 F" in1 [4:0] $end
$var wire 5 G" in2 [4:0] $end
$var wire 1 I s $end
$var wire 5 H" out [4:0] $end
$var parameter 32 I" size $end
$upscope $end
$scope module WBMux $end
$var wire 1 M s $end
$var wire 32 J" out [31:0] $end
$var wire 32 K" in2 [31:0] $end
$var wire 32 L" in1 [31:0] $end
$var parameter 32 M" size $end
$upscope $end
$scope module alu $end
$var wire 4 N" opSel [3:0] $end
$var wire 32 O" operand1 [31:0] $end
$var wire 32 P" operand2 [31:0] $end
$var wire 1 , zero $end
$var parameter 4 Q" ADD $end
$var parameter 4 R" AND $end
$var parameter 4 S" NOR $end
$var parameter 4 T" OR $end
$var parameter 4 U" SGT $end
$var parameter 4 V" SLL $end
$var parameter 4 W" SLT $end
$var parameter 4 X" SRL $end
$var parameter 4 Y" SUB $end
$var parameter 4 Z" XOR $end
$var parameter 32 [" data_width $end
$var parameter 32 \" sel_width $end
$var reg 32 ]" result [31:0] $end
$upscope $end
$scope module branchcontroller $end
$var wire 6 ^" funct [5:0] $end
$var wire 6 _" opcode [5:0] $end
$var wire 32 `" operand1 [31:0] $end
$var wire 32 a" operand2 [31:0] $end
$var wire 1 + rst $end
$var parameter 6 b" RType $end
$var parameter 6 c" add $end
$var parameter 6 d" addi $end
$var parameter 6 e" addu $end
$var parameter 6 f" and_ $end
$var parameter 6 g" andi $end
$var parameter 6 h" beq $end
$var parameter 6 i" bne $end
$var parameter 6 j" hlt_inst $end
$var parameter 6 k" j $end
$var parameter 6 l" jal $end
$var parameter 6 m" jr $end
$var parameter 6 n" lw $end
$var parameter 6 o" nop $end
$var parameter 6 p" nor_ $end
$var parameter 6 q" or_ $end
$var parameter 6 r" ori $end
$var parameter 6 s" sgt $end
$var parameter 6 t" sll $end
$var parameter 6 u" slt $end
$var parameter 6 v" slti $end
$var parameter 6 w" srl $end
$var parameter 6 x" sub $end
$var parameter 6 y" subu $end
$var parameter 6 z" sw $end
$var parameter 6 {" xor_ $end
$var parameter 6 |" xori $end
$var reg 1 J PCsrc $end
$upscope $end
$scope module dataMemory $end
$var wire 8 }" address [7:0] $end
$var wire 1 ( clock $end
$var wire 32 ~" data [31:0] $end
$var wire 1 O rden $end
$var wire 1 N wren $end
$var reg 32 !# q [31:0] $end
$var integer 32 "# i [31:0] $end
$upscope $end
$scope module instructionMemory $end
$var wire 32 ## q [31:0] $end
$var wire 6 $# address [5:0] $end
$upscope $end
$scope module pc $end
$var wire 6 %# PCin [5:0] $end
$var wire 1 ( clk $end
$var wire 1 + rst $end
$var parameter 32 &# initialaddr $end
$var reg 6 '# PCout [5:0] $end
$upscope $end
$upscope $end
$upscope $end
$enddefinitions $end
$comment Show the parameter values. $end
$dumpall
b11111111111111111111111111111111 &#
b1110 |"
b100110 {"
b101011 z"
b100011 y"
b100010 x"
b10 w"
b101010 v"
b101010 u"
b0 t"
b101011 s"
b1101 r"
b100101 q"
b100111 p"
b0 o"
b100011 n"
b1000 m"
b11 l"
b10 k"
b111111 j"
b101 i"
b100 h"
b1100 g"
b100100 f"
b100001 e"
b1000 d"
b100000 c"
b0 b"
b100 \"
b100000 ["
b100 Z"
b1 Y"
b1001 X"
b110 W"
b1000 V"
b111 U"
b11 T"
b101 S"
b10 R"
b0 Q"
b100000 M"
b101 I"
b110 7"
b1110 2"
b100110 1"
b101011 0"
b100011 /"
b100010 ."
b10 -"
b101010 ,"
b101010 +"
b0 *"
b101011 )"
b1101 ("
b100101 '"
b100111 &"
b0 %"
b100011 $"
b1000 #"
b11 ""
b10 !"
b111111 ~
b101 }
b100 |
b1100 {
b100100 z
b100001 y
b1000 x
b100000 w
b0 v
b100000 s
b1110 n
b100110 m
b101011 l
b100011 k
b100010 j
b10 i
b101010 h
b101010 g
b0 f
b101011 e
b1101 d
b100101 c
b100111 b
b0 a
b100011 `
b1000 _
b11 ^
b10 ]
b111111 \
b101 [
b100 Z
b1100 Y
b100100 X
b100001 W
b1000 V
b100000 U
b0 T
$end
#0
$dumpvars
b111111 '#
b0 %#
b111111 $#
bx ##
bx "#
bx !#
b0 ~"
b0 }"
b0 a"
b0 `"
b0 _"
b0 ^"
b0 ]"
b0 P"
b0 O"
b0 N"
b0 L"
bx K"
b0 J"
b0 H"
b0 G"
b0 F"
b100000 E"
bx D"
b0 C"
b0 B"
b0 A"
b0 @"
b0 ?"
b0 >"
b0 ="
b0 <"
b0 ;"
b0 :"
b0 9"
b0 8"
b0 6"
b111111 5"
b0 4"
b0 3"
b0 u
b0 t
b0 r
b0 q
b0 p
b0 o
b0 S
b0 R
0Q
b0 P
0O
0N
0M
b111111 L
b0 K
0J
0I
0H
b0 G
b111111 F
b0 E
b0 D
b0 C
0B
b0 A
b0 @
b0 ?
bx >
b0 =
b0 <
b0 ;
b0 :
b0 9
b0 8
b0 7
b0 6
b0 5
b0 4
b0 3
b0 2
b0 1
b0 0
b0 /
bx .
b0 -
1,
0+
1*
b111111 )
1(
b0 '
b0 &
b0 %
b0 $
b0 #
b0 "
b0 !
$end
#1
0(
0*
#2
b100000 E"
1(
1*
#3
0(
0*
#4
b1 =
b1 6"
b1 %#
b100000000000010000000001100100 .
b100000000000010000000001100100 ##
b1 K
b1 4"
b0 )
b0 L
b0 $#
b0 '#
b1 '
b1 o
b1100100 -
b1100100 C"
b1100100 J"
b1100100 }"
1(
0,
b1100100 R
b1100100 L"
b1100100 ]"
b0 S
b0 3"
b0 N"
1Q
1H
0I
1*
b100100 F
b100100 5"
b0 9
b0 O"
b1100100 @
b1100100 p
b10000000001100100 E
b1 /
b1100100 D
b1100100 P
b1100100 q
b1100100 P"
b1100100 a"
b1 G
b1 B"
b1 H"
b0 ;
b0 G"
b100100 C
b100100 t
b100100 ^"
b1100100 A
b0 8
b0 r
b0 9"
b0 ~"
b1 0
b1 ;"
b1 F"
b0 :
b0 8"
b0 `"
b0 1
b0 :"
b1000 <
b1000 u
b1000 _"
b100000000000010000000001100100 ?
1+
#5
0(
0*
#6
b1 -
b1 C"
b1 J"
b1 }"
b1 R
b1 L"
b1 ]"
b1 P
b1 q
b1 P"
b1 a"
1N
b1 @
b1 p
b10000000000000001 E
b0 /
b1 D
0H
1Q
b10 F
b10 5"
b1 C
b1 t
b1 ^"
b1 A
b101011 <
b101011 u
b101011 _"
b10101100000000010000000000000001 ?
b10 =
b10 6"
b10 %#
b1100100 8
b1100100 r
b1100100 9"
b1100100 ~"
b1100100 &
b1100100 7
b1100100 <"
b10 '
b10 o
b10101100000000010000000000000001 .
b10101100000000010000000000000001 ##
b10 K
b10 4"
b1 )
b1 L
b1 $#
b1 '#
1(
1*
#7
0(
0*
#8
b11011111 -
b11011111 C"
b11011111 J"
b11011111 }"
b11011111 R
b11011111 L"
b11011111 ]"
1H
b1111011 @
b1111011 p
b1100100 9
b1100100 O"
b1111011 P
b1111011 q
b1111011 P"
b1111011 a"
b1000000000000001111011 E
b1 /
b1111011 D
b0 G
b0 B"
b0 H"
0N
1Q
b111101 F
b111101 5"
b111011 C
b111011 t
b111011 ^"
b1111011 A
b0 8
b0 r
b0 9"
b0 ~"
b0 0
b0 ;"
b0 F"
b1100100 :
b1100100 8"
b1100100 `"
b1 1
b1 :"
b1000 <
b1000 u
b1000 _"
b100000001000000000000001111011 ?
b11 =
b11 6"
b11 %#
b100000001000000000000001111011 .
b100000001000000000000001111011 ##
b11 K
b11 4"
b10 )
b10 L
b10 $#
b10 '#
b11 '
b11 o
1(
1*
#9
0(
0*
#10
b11111111111111111111111111111110 -
b11111111111111111111111111111110 C"
b11111111111111111111111111111110 J"
b11111110 }"
0,
b11111111111111111111111111111110 R
b11111111111111111111111111111110 L"
b11111111111111111111111111111110 ]"
b11111111111111111111111111111110 P
b11111111111111111111111111111110 q
b11111111111111111111111111111110 P"
b11111111111111111111111111111110 a"
b11111111111111111111111111111110 @
b11111111111111111111111111111110 p
b0 9
b0 O"
b101111111111111110 E
1H
1Q
b11111 /
b11111111111111111111111111111110 D
b10 G
b10 B"
b10 H"
b11111 ;
b11111 G"
b1 F
b1 5"
b111110 C
b111110 t
b111110 ^"
b1111111111111110 A
b10 0
b10 ;"
b10 F"
b0 :
b0 8"
b0 `"
b0 1
b0 :"
b100000000000101111111111111110 ?
b100 =
b100 6"
b100 %#
b0 8
b0 r
b0 9"
b0 ~"
b100 '
b100 o
b100000000000101111111111111110 .
b100000000000101111111111111110 ##
b100 K
b100 4"
b11 )
b11 L
b11 $#
b11 '#
1(
1*
#11
0(
0*
#12
1,
b10 P
b10 q
b10 P"
b10 a"
b0 -
b0 C"
b0 J"
b0 }"
b0 R
b0 L"
b0 ]"
1N
b10 @
b10 p
b11111111111111111111111111111110 9
b11111111111111111111111111111110 O"
b10000100000000000000010 E
b0 /
b10 D
b0 ;
b0 G"
0H
1Q
b110 F
b110 5"
b10 C
b10 t
b10 ^"
b10 A
b11111111111111111111111111111110 :
b11111111111111111111111111111110 8"
b11111111111111111111111111111110 `"
b10 1
b10 :"
b101011 <
b101011 u
b101011 _"
b10101100010000100000000000000010 ?
b101 =
b101 6"
b101 %#
b11111111111111111111111111111110 8
b11111111111111111111111111111110 r
b11111111111111111111111111111110 9"
b11111111111111111111111111111110 ~"
b11111111111111111111111111111110 %
b11111111111111111111111111111110 6
b11111111111111111111111111111110 ="
b10101100010000100000000000000010 .
b10101100010000100000000000000010 ##
b101 K
b101 4"
b100 )
b100 L
b100 $#
b100 '#
b101 '
b101 o
1(
1*
#13
0(
0*
#14
b11 G
b11 B"
b11 H"
b1100010 -
b1100010 C"
b1100010 J"
b1100010 }"
0,
b1100010 R
b1100010 L"
b1100010 ]"
1H
1I
b1100100 9
b1100100 O"
b11111111111111111111111111111110 P
b11111111111111111111111111111110 q
b11111111111111111111111111111110 P"
b11111111111111111111111111111110 a"
b1100000100000 @
b1100000100000 p
b1000100001100000100000 E
b1100000100000 D
b11 ;
b11 G"
0N
0Q
b100101 F
b100101 5"
b100000 C
b100000 t
b100000 ^"
b1100000100000 A
b1100100 :
b1100100 8"
b1100100 `"
b1 1
b1 :"
b0 <
b0 u
b0 _"
b1000100001100000100000 ?
b110 =
b110 6"
b110 %#
b110 '
b110 o
b1000100001100000100000 .
b1000100001100000100000 ##
b110 K
b110 4"
b101 )
b101 L
b101 $#
b101 '#
1(
1*
#15
0(
0*
#16
b10 -
b10 C"
b10 J"
b10 }"
b10 R
b10 L"
b10 ]"
1Q
1N
b11111111111111111111111110100000 @
b11111111111111111111111110100000 p
b1100010 9
b1100010 O"
b11000111111111110100000 E
b11110 /
b11111111111111111111111110100000 D
b11111111111111111111111110100000 P
b11111111111111111111111110100000 q
b11111111111111111111111110100000 P"
b11111111111111111111111110100000 a"
b11111 ;
b11111 G"
0I
0H
b100110 F
b100110 5"
b1111111110100000 A
b1100010 8
b1100010 r
b1100010 9"
b1100010 ~"
b11 0
b11 ;"
b11 F"
b1100010 :
b1100010 8"
b1100010 `"
b11 1
b11 :"
b101011 <
b101011 u
b101011 _"
b10101100011000111111111110100000 ?
b111 =
b111 6"
b111 %#
b1100010 $
b1100010 5
b1100010 >"
b10101100011000111111111110100000 .
b10101100011000111111111110100000 ##
b111 K
b111 4"
b110 )
b110 L
b110 $#
b110 '#
b111 '
b111 o
1(
1*
#17
0(
0*
#18
b1100010 -
b1100010 C"
b1100010 J"
b1100010 }"
b1100010 R
b1100010 L"
b1100010 ]"
1H
1I
b100000 @
b100000 p
b1100100 9
b1100100 O"
b11111111111111111111111111111110 P
b11111111111111111111111111111110 q
b11111111111111111111111111111110 P"
b11111111111111111111111111111110 a"
b1000100000000000100000 E
b0 /
b100000 D
b0 G
b0 B"
b0 H"
b0 ;
b0 G"
0N
0Q
b100111 F
b100111 5"
b100000 A
b11111111111111111111111111111110 8
b11111111111111111111111111111110 r
b11111111111111111111111111111110 9"
b11111111111111111111111111111110 ~"
b10 0
b10 ;"
b10 F"
b1100100 :
b1100100 8"
b1100100 `"
b1 1
b1 :"
b0 <
b0 u
b0 _"
b1000100000000000100000 ?
b1000 =
b1000 6"
b1000 %#
b1000 '
b1000 o
b1000100000000000100000 .
b1000100000000000100000 ##
b1000 K
b1000 4"
b111 )
b111 L
b111 $#
b111 '#
1(
1*
#19
0(
0*
#20
b1100100 -
b1100100 C"
b1100100 J"
b1100100 }"
b1100100 R
b1100100 L"
b1100100 ]"
b1 S
b1 3"
b1 N"
b10000000100010 @
b10000000100010 p
b1100010 9
b1100010 O"
b100 G
b100 B"
b100 H"
b11000100010000000100010 E
1I
1H
b10000000100010 D
b100 ;
b100 G"
b101010 F
b101010 5"
b100010 C
b100010 t
b100010 ^"
b10000000100010 A
b1100010 :
b1100010 8"
b1100010 `"
b11 1
b11 :"
b11000100010000000100010 ?
b1001 =
b1001 6"
b1001 %#
b11000100010000000100010 .
b11000100010000000100010 ##
b1001 K
b1001 4"
b1000 )
b1000 L
b1000 $#
b1000 '#
b1001 '
b1001 o
1(
1*
#21
0(
0*
#22
b1100110 -
b1100110 C"
b1100110 J"
b1100110 }"
b1100110 R
b1100110 L"
b1100110 ]"
b1100100 9
b1100100 O"
b100000100010000000100010 E
b101011 F
b101011 5"
b1100100 :
b1100100 8"
b1100100 `"
b100 1
b100 :"
b100000100010000000100010 ?
b1010 =
b1010 6"
b1010 %#
b1100100 #
b1100100 4
b1100100 ?"
b1010 '
b1010 o
b100000100010000000100010 .
b100000100010000000100010 ##
b1010 K
b1010 4"
b1001 )
b1001 L
b1001 $#
b1001 '#
1(
1*
#23
0(
0*
#24
b11 -
b11 C"
b11 J"
b11 }"
b11 R
b11 L"
b11 ]"
1Q
1N
b11 @
b11 p
b1000000000000000011 E
b11 D
b11 P
b11 q
b11 P"
b11 a"
b0 ;
b0 G"
0I
0H
b0 S
b0 3"
b0 N"
b1101 F
b1101 5"
b0 9
b0 O"
b11 C
b11 t
b11 ^"
b11 A
b1100110 8
b1100110 r
b1100110 9"
b1100110 ~"
b100 0
b100 ;"
b100 F"
b0 1
b0 :"
b101011 <
b101011 u
b101011 _"
b10101100000001000000000000000011 ?
b1011 =
b1011 6"
b1011 %#
b0 :
b0 8"
b0 `"
b1100110 #
b1100110 4
b1100110 ?"
b10101100000001000000000000000011 .
b10101100000001000000000000000011 ##
b1011 K
b1011 4"
b1010 )
b1010 L
b1010 $#
b1010 '#
b1011 '
b1011 o
1(
1*
#25
0(
0*
#26
b1100100 -
b1100100 C"
b1100100 J"
b1100100 }"
b1100100 R
b1100100 L"
b1100100 ]"
b1 S
b1 3"
b1 N"
1H
1I
b10100000100011 @
b10100000100011 p
b1100010 9
b1100010 O"
b11111111111111111111111111111110 P
b11111111111111111111111111111110 q
b11111111111111111111111111111110 P"
b11111111111111111111111111111110 a"
b11000100010100000100011 E
b10100000100011 D
b101 G
b101 B"
b101 H"
b101 ;
b101 G"
0N
0Q
b101110 F
b101110 5"
b100011 C
b100011 t
b100011 ^"
b10100000100011 A
b11111111111111111111111111111110 8
b11111111111111111111111111111110 r
b11111111111111111111111111111110 9"
b11111111111111111111111111111110 ~"
b10 0
b10 ;"
b10 F"
b1100010 :
b1100010 8"
b1100010 `"
b11 1
b11 :"
b0 <
b0 u
b0 _"
b11000100010100000100011 ?
b1100 =
b1100 6"
b1100 %#
b1100 '
b1100 o
b11000100010100000100011 .
b11000100010100000100011 ##
b1100 K
b1100 4"
b1011 )
b1011 L
b1011 $#
b1011 '#
1(
1*
#27
0(
0*
#28
b1100010 -
b1100010 C"
b1100010 J"
b1100010 }"
b1100010 R
b1100010 L"
b1100010 ]"
b11000000100001 @
b11000000100001 p
b1100100 9
b1100100 O"
b110 G
b110 B"
b110 H"
b1000100011000000100001 E
1I
1H
b0 S
b0 3"
b0 N"
b11000000100001 D
b110 ;
b110 G"
b101101 F
b101101 5"
b100001 C
b100001 t
b100001 ^"
b11000000100001 A
b1100100 :
b1100100 8"
b1100100 `"
b1 1
b1 :"
b1000100011000000100001 ?
b1101 =
b1101 6"
b1101 %#
b1100100 "
b1100100 3
b1100100 @"
b1000100011000000100001 .
b1000100011000000100001 ##
b1101 K
b1101 4"
b1100 )
b1100 L
b1100 $#
b1100 '#
b1101 '
b1101 o
1(
1*
#29
0(
0*
#30
b1100100 -
b1100100 C"
b1100100 J"
b1100100 }"
b1100100 R
b1100100 L"
b1100100 ]"
b1 S
b1 3"
b1 N"
b110 G
b110 B"
b110 H"
b11000000100010 @
b11000000100010 p
b1100010 9
b1100010 O"
b110000100011000000100010 E
1I
1H
b11000000100010 D
b101111 F
b101111 5"
b100010 C
b100010 t
b100010 ^"
b11000000100010 A
b1100010 :
b1100010 8"
b1100010 `"
b110 1
b110 :"
b110000100011000000100010 ?
b1110 =
b1110 6"
b1110 %#
b1100010 !
b1100010 2
b1100010 A"
b1110 '
b1110 o
b110000100011000000100010 .
b110000100011000000100010 ##
b1110 K
b1110 4"
b1101 )
b1101 L
b1101 $#
b1101 '#
1(
1*
#31
0(
0*
#32
b1011011001110110 -
b1011011001110110 C"
b1011011001110110 J"
b1110110 }"
0,
b1011011001110110 R
b1011011001110110 L"
b1011011001110110 ]"
1Q
b1011011001110110 @
b1011011001110110 p
b111 G
b111 B"
b111 H"
b1111011011001110110 E
b11001 /
b1011011001110110 D
b1011011001110110 P
b1011011001110110 q
b1011011001110110 P"
b1011011001110110 a"
b10110 ;
b10110 G"
0I
1H
b11 S
b11 3"
b11 N"
b100 F
b100 5"
b0 9
b0 O"
b110110 C
b110110 t
b110110 ^"
b1011011001110110 A
b0 8
b0 r
b0 9"
b0 ~"
b111 0
b111 ;"
b111 F"
b0 1
b0 :"
b1101 <
b1101 u
b1101 _"
b110100000001111011011001110110 ?
b1111 =
b1111 6"
b1111 %#
b0 :
b0 8"
b0 `"
b1100100 !
b1100100 2
b1100100 A"
b110100000001111011011001110110 .
b110100000001111011011001110110 ##
b1111 K
b1111 4"
b1110 )
b1110 L
b1110 $#
b1110 '#
b1111 '
b1111 o
1(
1*
#33
0(
0*
#34
b100 -
b100 C"
b100 J"
b100 }"
b100 R
b100 L"
b100 ]"
b100 P
b100 q
b100 P"
b100 a"
1N
b100 @
b100 p
b1110000000000000100 E
b0 /
b100 D
b0 ;
b0 G"
0H
1Q
b0 S
b0 3"
b0 N"
b10011 F
b10011 5"
b100 C
b100 t
b100 ^"
b100 A
b101011 <
b101011 u
b101011 _"
b10101100000001110000000000000100 ?
b10000 =
b10000 6"
b10000 %#
b1011011001110110 8
b1011011001110110 r
b1011011001110110 9"
b1011011001110110 ~"
b10000 '
b10000 o
b10101100000001110000000000000100 .
b10101100000001110000000000000100 ##
b10000 K
b10000 4"
b1111 )
b1111 L
b1111 $#
b1111 '#
1(
1*
#35
0(
0*
#36
b1100010 -
b1100010 C"
b1100010 J"
b1100010 }"
b1100010 R
b1100010 L"
b1100010 ]"
b10 S
b10 3"
b10 N"
1H
1I
b100000000100100 @
b100000000100100 p
b1011011001110110 9
b1011011001110110 O"
b1100010 P
b1100010 q
b1100010 P"
b1100010 a"
b111000110100000000100100 E
b100000000100100 D
b1000 G
b1000 B"
b1000 H"
b1000 ;
b1000 G"
0N
0Q
b110100 F
b110100 5"
b100100 C
b100100 t
b100100 ^"
b100000000100100 A
b1100010 8
b1100010 r
b1100010 9"
b1100010 ~"
b11 0
b11 ;"
b11 F"
b1011011001110110 :
b1011011001110110 8"
b1011011001110110 `"
b111 1
b111 :"
b0 <
b0 u
b0 _"
b111000110100000000100100 ?
b10001 =
b10001 6"
b10001 %#
b111000110100000000100100 .
b111000110100000000100100 ##
b10001 K
b10001 4"
b10000 )
b10000 L
b10000 $#
b10000 '#
b10001 '
b10001 o
1(
1*
#37
0(
0*
#38
b100000 -
b100000 C"
b100000 J"
b100000 }"
0,
b100000 R
b100000 L"
b100000 ]"
1Q
b100000 @
b100000 p
b1100010 9
b1100010 O"
b1001 G
b1001 B"
b1001 H"
b1000010010000000000100000 E
b100000 D
b100000 P
b100000 q
b100000 P"
b100000 a"
b0 ;
b0 G"
0I
1H
b10 S
b10 3"
b10 N"
b110001 F
b110001 5"
b100000 C
b100000 t
b100000 ^"
b100000 A
b0 8
b0 r
b0 9"
b0 ~"
b1001 0
b1001 ;"
b1001 F"
b1100010 :
b1100010 8"
b1100010 `"
b1000 1
b1000 :"
b1100 <
b1100 u
b1100 _"
b110001000010010000000000100000 ?
b10010 =
b10010 6"
b10010 %#
b10010 '
b10010 o
b110001000010010000000000100000 .
b110001000010010000000000100000 ##
b10010 K
b10010 4"
b10001 )
b10001 L
b10001 $#
b10001 '#
1(
1*
#39
0(
0*
#40
b1010 G
b1010 B"
b1010 H"
b1000010 -
b1000010 C"
b1000010 J"
b1000010 }"
b1000010 R
b1000010 L"
b1000010 ]"
1I
b101000000100110 @
b101000000100110 p
b1000010010101000000100110 E
b101000000100110 D
b1010 ;
b1010 G"
1H
0Q
b100 S
b100 3"
b100 N"
b111000 F
b111000 5"
b100110 C
b100110 t
b100110 ^"
b101000000100110 A
b0 <
b0 u
b0 _"
b1000010010101000000100110 ?
b10011 =
b10011 6"
b10011 %#
b100000 8
b100000 r
b100000 9"
b100000 ~"
b1000010010101000000100110 .
b1000010010101000000100110 ##
b10011 K
b10011 4"
b10010 )
b10010 L
b10010 $#
b10010 '#
b10011 '
b10011 o
1(
1*
#41
0(
0*
#42
b1111111110111101 -
b1111111110111101 C"
b1111111110111101 J"
b10111101 }"
b1111111110111101 R
b1111111110111101 L"
b1111111110111101 ]"
1Q
b1111111111111111 @
b1111111111111111 p
b1000010 9
b1000010 O"
b1011 G
b1011 B"
b1011 H"
b1010010111111111111111111 E
b11111 /
b1111111111111111 D
b1111111111111111 P
b1111111111111111 q
b1111111111111111 P"
b1111111111111111 a"
b11111 ;
b11111 G"
0I
1H
b100 S
b100 3"
b100 N"
b10010 F
b10010 5"
b111111 C
b111111 t
b111111 ^"
b1111111111111111 A
b0 8
b0 r
b0 9"
b0 ~"
b1011 0
b1011 ;"
b1011 F"
b1000010 :
b1000010 8"
b1000010 `"
b1010 1
b1010 :"
b1110 <
b1110 u
b1110 _"
b111001010010111111111111111111 ?
b10100 =
b10100 6"
b10100 %#
b10100 '
b10100 o
b111001010010111111111111111111 .
b111001010010111111111111111111 ##
b10100 K
b10100 4"
b10011 )
b10011 L
b10011 $#
b10011 '#
1(
1*
#43
0(
0*
#44
b1111111111111111 -
b1111111111111111 C"
b1111111111111111 J"
b11111111 }"
b1111111111111111 R
b1111111111111111 L"
b1111111111111111 ]"
b1000010 @
b1000010 p
b1111111110111101 9
b1111111110111101 O"
b1000010 P
b1000010 q
b1000010 P"
b1000010 a"
b1011011000000000001000010 E
b1 /
b1000010 D
b1100 G
b1100 B"
b1100 H"
b0 ;
b0 G"
1H
1Q
b11 S
b11 3"
b11 N"
b10110 F
b10110 5"
b10 C
b10 t
b10 ^"
b1000010 A
b1100 0
b1100 ;"
b1100 F"
b1111111110111101 :
b1111111110111101 8"
b1111111110111101 `"
b1011 1
b1011 :"
b1101 <
b1101 u
b1101 _"
b110101011011000000000001000010 ?
b10101 =
b10101 6"
b10101 %#
b0 8
b0 r
b0 9"
b0 ~"
b110101011011000000000001000010 .
b110101011011000000000001000010 ##
b10101 K
b10101 4"
b10100 )
b10100 L
b10100 $#
b10100 '#
b10101 '
b10101 o
1(
1*
#45
0(
0*
#46
b1111111111111111 -
b1111111111111111 C"
b1111111111111111 J"
b11111111 }"
b1111111111111111 R
b1111111111111111 L"
b1111111111111111 ]"
b1000010 P
b1000010 q
b1000010 P"
b1000010 a"
b1011011010000000001000010 E
b1101 G
b1101 B"
b1101 H"
1H
1Q
b100 S
b100 3"
b100 N"
b10111 F
b10111 5"
b1101 0
b1101 ;"
b1101 F"
b1110 <
b1110 u
b1110 _"
b111001011011010000000001000010 ?
b10110 =
b10110 6"
b10110 %#
b0 8
b0 r
b0 9"
b0 ~"
b10110 '
b10110 o
b111001011011010000000001000010 .
b111001011011010000000001000010 ##
b10110 K
b10110 4"
b10101 )
b10101 L
b10101 $#
b10101 '#
1(
1*
#47
0(
0*
