singlecycle/SiliCore_Qualifying_code/testoutdump.vcd
$date
	Fri Oct 25 19:33:13 2024
$end
$version
	Icarus Verilog
$end
$timescale
	1s
$end
$scope module testbench $end
$var wire 32 ! regs5 [31:0] $end
$var wire 32 " regs4 [31:0] $end
$var wire 32 # regs3 [31:0] $end
$var wire 32 $ regs2 [31:0] $end
$var wire 32 % regs1 [31:0] $end
$var wire 32 & regs0 [31:0] $end
$var wire 32 ' cycles_consumed [31:0] $end
$var wire 1 ( clkout $end
$var wire 6 ) PC [5:0] $end
$var reg 1 * clk $end
$var reg 1 + rst $end
$scope module cpu $end
$var wire 1 , clk $end
$var wire 1 ( clkout $end
$var wire 1 * input_clk $end
$var wire 1 + rst $end
$var wire 1 - zero $end
$var wire 32 . writeData [31:0] $end
$var wire 5 / rt [4:0] $end
$var wire 5 0 rs [4:0] $end
$var wire 32 1 regs5 [31:0] $end
$var wire 32 2 regs4 [31:0] $end
$var wire 32 3 regs3 [31:0] $end
$var wire 32 4 regs2 [31:0] $end
$var wire 32 5 regs1 [31:0] $end
$var wire 32 6 regs0 [31:0] $end
$var wire 32 7 readData2 [31:0] $end
$var wire 32 8 readData1 [31:0] $end
$var wire 5 9 rd [4:0] $end
$var wire 6 : opCode [5:0] $end
$var wire 6 ; nextPC [5:0] $end
$var wire 32 < memoryReadData [31:0] $end
$var wire 32 = instruction [31:0] $end
$var wire 16 > imm [15:0] $end
$var wire 1 ? hlt $end
$var wire 6 @ funct [5:0] $end
$var wire 32 A extImm [31:0] $end
$var wire 6 B adderResult [5:0] $end
$var wire 5 C WriteRegister [4:0] $end
$var wire 1 D RegWriteEn $end
$var wire 1 E RegDst $end
$var wire 1 F PCsrc $end
$var wire 6 G PCPlus1 [5:0] $end
$var wire 6 H PC [5:0] $end
$var wire 1 I MemtoReg $end
$var wire 1 J MemWriteEn $end
$var wire 1 K MemReadEn $end
$var wire 1 L Branch $end
$var wire 32 M ALUin2 [31:0] $end
$var wire 1 N ALUSrc $end
$var wire 32 O ALUResult [31:0] $end
$var wire 3 P ALUOp [2:0] $end
$var reg 32 Q cycles_consumed [31:0] $end
$scope module ALUMux $end
$var wire 1 N s $end
$var wire 32 R out [31:0] $end
$var wire 32 S in2 [31:0] $end
$var wire 32 T in1 [31:0] $end
$var parameter 32 U size $end
$upscope $end
$scope module CU $end
$var wire 6 V funct [5:0] $end
$var wire 6 W opCode [5:0] $end
$var wire 1 + rst $end
$var parameter 6 X _RType $end
$var parameter 6 Y _add_ $end
$var parameter 6 Z _addi $end
$var parameter 6 [ _and_ $end
$var parameter 6 \ _beq $end
$var parameter 6 ] _lw $end
$var parameter 6 ^ _or_ $end
$var parameter 6 _ _slt_ $end
$var parameter 6 ` _sub_ $end
$var parameter 6 a _sw $end
$var parameter 6 b hlt_inst $end
$var reg 3 c ALUOp [2:0] $end
$var reg 1 N ALUSrc $end
$var reg 1 L Branch $end
$var reg 1 K MemReadEn $end
$var reg 1 J MemWriteEn $end
$var reg 1 I MemtoReg $end
$var reg 1 E RegDst $end
$var reg 1 D RegWriteEn $end
$var reg 1 ? hlt $end
$upscope $end
$scope module PCAdder $end
$var wire 6 d in2 [5:0] $end
$var wire 6 e out [5:0] $end
$var wire 6 f in1 [5:0] $end
$var parameter 32 g size $end
$upscope $end
$scope module PCMux $end
$var wire 6 h in1 [5:0] $end
$var wire 1 F s $end
$var wire 6 i out [5:0] $end
$var wire 6 j in2 [5:0] $end
$var parameter 32 k size $end
$upscope $end
$scope module RF $end
$var wire 1 , clk $end
$var wire 32 l readData1 [31:0] $end
$var wire 32 m readData2 [31:0] $end
$var wire 5 n readRegister1 [4:0] $end
$var wire 5 o readRegister2 [4:0] $end
$var wire 32 p regs0 [31:0] $end
$var wire 32 q regs1 [31:0] $end
$var wire 32 r regs2 [31:0] $end
$var wire 32 s regs3 [31:0] $end
$var wire 32 t regs4 [31:0] $end
$var wire 32 u regs5 [31:0] $end
$var wire 1 + rst $end
$var wire 1 D we $end
$var wire 5 v writeRegister [4:0] $end
$var wire 32 w writeData [31:0] $end
$var integer 32 x i [31:0] $end
$scope begin Write_on_register_file_block $end
$var integer 32 y i [31:0] $end
$upscope $end
$upscope $end
$scope module RFMux $end
$var wire 5 z in1 [4:0] $end
$var wire 5 { in2 [4:0] $end
$var wire 1 E s $end
$var wire 5 | out [4:0] $end
$var parameter 32 } size $end
$upscope $end
$scope module SignExtend $end
$var wire 16 ~ in [15:0] $end
$var wire 32 !" out [31:0] $end
$upscope $end
$scope module WBMux $end
$var wire 1 I s $end
$var wire 32 "" out [31:0] $end
$var wire 32 #" in2 [31:0] $end
$var wire 32 $" in1 [31:0] $end
$var parameter 32 %" size $end
$upscope $end
$scope module alu $end
$var wire 3 &" opSel [2:0] $end
$var wire 32 '" operand1 [31:0] $end
$var wire 32 (" operand2 [31:0] $end
$var parameter 3 )" _ADD $end
$var parameter 3 *" _AND $end
$var parameter 3 +" _OR $end
$var parameter 3 ," _SLT $end
$var parameter 3 -" _SUB $end
$var parameter 32 ." data_width $end
$var parameter 32 /" sel_width $end
$var reg 32 0" result [31:0] $end
$var reg 1 - zero $end
$upscope $end
$scope module branchAdder $end
$var wire 6 1" in2 [5:0] $end
$var wire 6 2" out [5:0] $end
$var wire 6 3" in1 [5:0] $end
$var parameter 32 4" size $end
$upscope $end
$scope module branchAnd $end
$var wire 1 - in1 $end
$var wire 1 L in2 $end
$var wire 1 F out $end
$upscope $end
$scope module dataMemory $end
$var wire 8 5" address [7:0] $end
$var wire 1 6" clock $end
$var wire 32 7" data [31:0] $end
$var wire 1 K rden $end
$var wire 1 J wren $end
$var reg 32 8" q [31:0] $end
$var integer 32 9" i [31:0] $end
$upscope $end
$scope module instructionMemory $end
$var wire 6 :" address [5:0] $end
$var wire 1 , clock $end
$var wire 32 ;" q [31:0] $end
$var reg 6 <" internal_address [5:0] $end
$upscope $end
$scope module pc $end
$var wire 6 =" PCin [5:0] $end
$var wire 1 , clk $end
$var wire 1 + rst $end
$var reg 6 >" PCout [5:0] $end
$upscope $end
$upscope $end
$upscope $end
$enddefinitions $end
$comment Show the parameter values. $end
$dumpall
b110 4"
b11 /"
b100000 ."
b1 -"
b100 ,"
b11 +"
b10 *"
b0 )"
b100000 %"
b101 }
b110 k
b110 g
b111111 b
b101011 a
b100010 `
b101010 _
b100101 ^
b100011 ]
b100 \
b100100 [
b1000 Z
b100000 Y
b0 X
b100000 U
$end
#0
$dumpvars
b111111 >"
b0 ="
bx <"
bx ;"
b0 :"
bx 9"
bx 8"
bx 7"
16"
bx 5"
b111111 3"
bx 2"
bx 1"
bx 0"
bx ("
bx '"
b0 &"
bx $"
bx #"
bx ""
bx !"
bx ~
bx |
bx {
bx z
b100000 y
bx x
bx w
bx v
b0 u
b0 t
b0 s
b0 r
b0 q
b0 p
bx o
bx n
bx m
bx l
bx j
b0 i
b0 h
b111111 f
b0 e
b1 d
b0 c
bx W
bx V
bx T
bx S
bx R
b0 Q
b0 P
bx O
0N
bx M
0L
0K
0J
0I
b111111 H
b0 G
0F
0E
0D
bx C
bx B
bx A
bx @
0?
bx >
bx =
bx <
b0 ;
bx :
bx 9
bx 8
bx 7
b0 6
b0 5
b0 4
b0 3
b0 2
b0 1
bx 0
bx /
bx .
x-
0,
0+
0*
b111111 )
0(
b0 '
b0 &
b0 %
b0 $
b0 #
b0 "
b0 !
$end
#4
1+
#5
1N
1D
b1001 .
b1001 w
b1001 ""
b1001 5"
0-
b1001 O
b1001 $"
b1001 0"
b1001 B
b1001 j
b1001 2"
b1001 1"
b1001 M
b1001 R
b1001 ("
b1 C
b1 v
b1 |
b1 ;
b1 i
b1 :"
b1 ="
b1001 @
b1001 V
b1001 A
b1001 S
b1001 !"
b1001 >
b1001 ~
b0 7
b0 T
b0 m
b0 7"
b1 /
b1 o
b1 z
b0 8
b0 l
b0 '"
b0 0
b0 n
b0 9
b0 {
b1000 :
b1000 W
b1 '
b1 Q
b1 G
b1 e
b1 h
b0 )
b0 H
b0 f
b0 3"
b0 >"
b100000000000010000000000001001 =
b100000000000010000000000001001 ;"
b0 <"
06"
1(
1,
1*
#10
16"
0(
0,
0*
#15
1N
1D
b1 .
b1 w
b1 ""
b1 5"
b1 O
b1 $"
b1 0"
b1 1"
b1 M
b1 R
b1 ("
b10 C
b10 v
b10 |
b10 ;
b10 i
b10 :"
b10 ="
b1 @
b1 V
b1 A
b1 S
b1 !"
b1 >
b1 ~
b10 /
b10 o
b10 z
b10 0
b10 n
b0 7
b0 T
b0 m
b0 7"
b1001 &
b1001 6
b1001 p
b10 B
b10 j
b10 2"
b10 G
b10 e
b10 h
b1 )
b1 H
b1 f
b1 3"
b1 >"
b10 '
b10 Q
b100000010000100000000000000001 =
b100000010000100000000000000001 ;"
b1 <"
06"
1(
1,
1*
#20
16"
0(
0,
0*
#25
b1 P
b1 c
b1 &"
1L
0N
0D
b11111111111111111111111111111000 .
b11111111111111111111111111111000 w
b11111111111111111111111111111000 ""
b11111000 5"
b10 1"
b1001 M
b1001 R
b1001 ("
b1 C
b1 v
b1 |
b11111111111111111111111111111000 O
b11111111111111111111111111111000 $"
b11111111111111111111111111111000 0"
b11 ;
b11 i
b11 :"
b11 ="
b10 @
b10 V
b10 A
b10 S
b10 !"
b10 >
b10 ~
b1 /
b1 o
b1 z
b100 :
b100 W
b1 8
b1 l
b1 '"
b1001 7
b1001 T
b1001 m
b1001 7"
b1 %
b1 5
b1 q
b11 '
b11 Q
b100 B
b100 j
b100 2"
b11 G
b11 e
b11 h
b10 )
b10 H
b10 f
b10 3"
b10 >"
b10000010000010000000000000010 =
b10000010000010000000000000010 ;"
b10 <"
06"
1(
1,
1*
#30
16"
0(
0,
0*
#35
b1 P
b1 c
b1 &"
1L
1F
b0 .
b0 w
b0 ""
b0 5"
1-
b111110 1"
b0 O
b0 $"
b0 0"
b1 ;
b1 i
b1 :"
b1 ="
b111110 @
b111110 V
b11111111111111111111111111111110 A
b11111111111111111111111111111110 S
b11111111111111111111111111111110 !"
b1111111111111110 >
b1111111111111110 ~
b1001 8
b1001 l
b1001 '"
b1 0
b1 n
b11111 9
b11111 {
b1 B
b1 j
b1 2"
b100 G
b100 e
b100 h
b11 )
b11 H
b11 f
b11 3"
b11 >"
b100 '
b100 Q
b10000001000011111111111111110 =
b10000001000011111111111111110 ;"
b11 <"
06"
1(
1,
1*
#40
16"
0(
0,
0*
#45
1N
1D
b0 P
b0 c
b0 &"
0L
0F
b10 .
b10 w
b10 ""
b10 5"
0-
b1 1"
b1 M
b1 R
b1 ("
b10 C
b10 v
b10 |
b10 O
b10 $"
b10 0"
b10 ;
b10 i
b10 :"
b10 ="
b1 @
b1 V
b1 A
b1 S
b1 !"
b1 >
b1 ~
b1 7
b1 T
b1 m
b1 7"
b10 /
b10 o
b10 z
b1 8
b1 l
b1 '"
b10 0
b10 n
b0 9
b0 {
b1000 :
b1000 W
b101 '
b101 Q
b10 B
b10 j
b10 2"
b10 G
b10 e
b10 h
b1 )
b1 H
b1 f
b1 3"
b1 >"
b100000010000100000000000000001 =
b100000010000100000000000000001 ;"
b1 <"
06"
1(
1,
1*
#50
16"
0(
0,
0*
#55
0F
0-
b1 P
b1 c
b1 &"
1L
0N
0D
b11111111111111111111111111111001 .
b11111111111111111111111111111001 w
b11111111111111111111111111111001 ""
b11111001 5"
b10 1"
b1001 M
b1001 R
b1001 ("
b1 C
b1 v
b1 |
b11111111111111111111111111111001 O
b11111111111111111111111111111001 $"
b11111111111111111111111111111001 0"
b11 ;
b11 i
b11 :"
b11 ="
b10 @
b10 V
b10 A
b10 S
b10 !"
b10 >
b10 ~
b1 /
b1 o
b1 z
b100 :
b100 W
b10 8
b10 l
b10 '"
b1001 7
b1001 T
b1001 m
b1001 7"
b10 %
b10 5
b10 q
b100 B
b100 j
b100 2"
b11 G
b11 e
b11 h
b10 )
b10 H
b10 f
b10 3"
b10 >"
b110 '
b110 Q
b10000010000010000000000000010 =
b10000010000010000000000000010 ;"
b10 <"
06"
1(
1,
1*
#60
16"
0(
0,
0*
#65
b1 P
b1 c
b1 &"
1L
1F
b0 .
b0 w
b0 ""
b0 5"
1-
b111110 1"
b0 O
b0 $"
b0 0"
b1 ;
b1 i
b1 :"
b1 ="
b111110 @
b111110 V
b11111111111111111111111111111110 A
b11111111111111111111111111111110 S
b11111111111111111111111111111110 !"
b1111111111111110 >
b1111111111111110 ~
b1001 8
b1001 l
b1001 '"
b1 0
b1 n
b11111 9
b11111 {
b111 '
b111 Q
b1 B
b1 j
b1 2"
b100 G
b100 e
b100 h
b11 )
b11 H
b11 f
b11 3"
b11 >"
b10000001000011111111111111110 =
b10000001000011111111111111110 ;"
b11 <"
06"
1(
1,
1*
#70
16"
0(
0,
0*
#75
1N
1D
b0 P
b0 c
b0 &"
0L
0F
b11 .
b11 w
b11 ""
b11 5"
0-
b1 1"
b1 M
b1 R
b1 ("
b10 C
b10 v
b10 |
b11 O
b11 $"
b11 0"
b10 ;
b10 i
b10 :"
b10 ="
b1 @
b1 V
b1 A
b1 S
b1 !"
b1 >
b1 ~
b10 7
b10 T
b10 m
b10 7"
b10 /
b10 o
b10 z
b10 8
b10 l
b10 '"
b10 0
b10 n
b0 9
b0 {
b1000 :
b1000 W
b10 B
b10 j
b10 2"
b10 G
b10 e
b10 h
b1 )
b1 H
b1 f
b1 3"
b1 >"
b1000 '
b1000 Q
b100000010000100000000000000001 =
b100000010000100000000000000001 ;"
b1 <"
06"
1(
1,
1*
#80
16"
0(
0,
0*
#85
b1 P
b1 c
b1 &"
1L
0N
0D
b11111111111111111111111111111010 .
b11111111111111111111111111111010 w
b11111111111111111111111111111010 ""
b11111010 5"
b10 1"
b1001 M
b1001 R
b1001 ("
b1 C
b1 v
b1 |
b11111111111111111111111111111010 O
b11111111111111111111111111111010 $"
b11111111111111111111111111111010 0"
b11 ;
b11 i
b11 :"
b11 ="
b10 @
b10 V
b10 A
b10 S
b10 !"
b10 >
b10 ~
b1 /
b1 o
b1 z
b100 :
b100 W
b11 8
b11 l
b11 '"
b1001 7
b1001 T
b1001 m
b1001 7"
b11 %
b11 5
b11 q
b1001 '
b1001 Q
b100 B
b100 j
b100 2"
b11 G
b11 e
b11 h
b10 )
b10 H
b10 f
b10 3"
b10 >"
b10000010000010000000000000010 =
b10000010000010000000000000010 ;"
b10 <"
06"
1(
1,
1*
#90
16"
0(
0,
0*
#95
b1 P
b1 c
b1 &"
1L
1F
b0 .
b0 w
b0 ""
b0 5"
1-
b111110 1"
b0 O
b0 $"
b0 0"
b1 ;
b1 i
b1 :"
b1 ="
b111110 @
b111110 V
b11111111111111111111111111111110 A
b11111111111111111111111111111110 S
b11111111111111111111111111111110 !"
b1111111111111110 >
b1111111111111110 ~
b1001 8
b1001 l
b1001 '"
b1 0
b1 n
b11111 9
b11111 {
b1 B
b1 j
b1 2"
b100 G
b100 e
b100 h
b11 )
b11 H
b11 f
b11 3"
b11 >"
b1010 '
b1010 Q
b10000001000011111111111111110 =
b10000001000011111111111111110 ;"
b11 <"
06"
1(
1,
1*
#100
16"
0(
0,
0*
#105
1N
1D
b0 P
b0 c
b0 &"
0L
0F
b100 .
b100 w
b100 ""
b100 5"
0-
b1 1"
b1 M
b1 R
b1 ("
b10 C
b10 v
b10 |
b100 O
b100 $"
b100 0"
b10 ;
b10 i
b10 :"
b10 ="
b1 @
b1 V
b1 A
b1 S
b1 !"
b1 >
b1 ~
b11 7
b11 T
b11 m
b11 7"
b10 /
b10 o
b10 z
b11 8
b11 l
b11 '"
b10 0
b10 n
b0 9
b0 {
b1000 :
b1000 W
b1011 '
b1011 Q
b10 B
b10 j
b10 2"
b10 G
b10 e
b10 h
b1 )
b1 H
b1 f
b1 3"
b1 >"
b100000010000100000000000000001 =
b100000010000100000000000000001 ;"
b1 <"
06"
1(
1,
1*
#110
16"
0(
0,
0*
#115
b1 P
b1 c
b1 &"
1L
0N
0D
b11111111111111111111111111111011 .
b11111111111111111111111111111011 w
b11111111111111111111111111111011 ""
b11111011 5"
b10 1"
b1001 M
b1001 R
b1001 ("
b1 C
b1 v
b1 |
b11111111111111111111111111111011 O
b11111111111111111111111111111011 $"
b11111111111111111111111111111011 0"
b11 ;
b11 i
b11 :"
b11 ="
b10 @
b10 V
b10 A
b10 S
b10 !"
b10 >
b10 ~
b1 /
b1 o
b1 z
b100 :
b100 W
b100 8
b100 l
b100 '"
b1001 7
b1001 T
b1001 m
b1001 7"
b100 %
b100 5
b100 q
b100 B
b100 j
b100 2"
b11 G
b11 e
b11 h
b10 )
b10 H
b10 f
b10 3"
b10 >"
b1100 '
b1100 Q
b10000010000010000000000000010 =
b10000010000010000000000000010 ;"
b10 <"
06"
1(
1,
1*
#120
16"
0(
0,
0*
#125
b1 P
b1 c
b1 &"
1L
1F
b0 .
b0 w
b0 ""
b0 5"
1-
b111110 1"
b0 O
b0 $"
b0 0"
b1 ;
b1 i
b1 :"
b1 ="
b111110 @
b111110 V
b11111111111111111111111111111110 A
b11111111111111111111111111111110 S
b11111111111111111111111111111110 !"
b1111111111111110 >
b1111111111111110 ~
b1001 8
b1001 l
b1001 '"
b1 0
b1 n
b11111 9
b11111 {
b1101 '
b1101 Q
b1 B
b1 j
b1 2"
b100 G
b100 e
b100 h
b11 )
b11 H
b11 f
b11 3"
b11 >"
b10000001000011111111111111110 =
b10000001000011111111111111110 ;"
b11 <"
06"
1(
1,
1*
#130
16"
0(
0,
0*
#135
1N
1D
b0 P
b0 c
b0 &"
0L
0F
b101 .
b101 w
b101 ""
b101 5"
0-
b1 1"
b1 M
b1 R
b1 ("
b10 C
b10 v
b10 |
b101 O
b101 $"
b101 0"
b10 ;
b10 i
b10 :"
b10 ="
b1 @
b1 V
b1 A
b1 S
b1 !"
b1 >
b1 ~
b100 7
b100 T
b100 m
b100 7"
b10 /
b10 o
b10 z
b100 8
b100 l
b100 '"
b10 0
b10 n
b0 9
b0 {
b1000 :
b1000 W
b10 B
b10 j
b10 2"
b10 G
b10 e
b10 h
b1 )
b1 H
b1 f
b1 3"
b1 >"
b1110 '
b1110 Q
b100000010000100000000000000001 =
b100000010000100000000000000001 ;"
b1 <"
06"
1(
1,
1*
#140
16"
0(
0,
0*
#145
b1 P
b1 c
b1 &"
1L
0N
0D
b11111111111111111111111111111100 .
b11111111111111111111111111111100 w
b11111111111111111111111111111100 ""
b11111100 5"
b10 1"
b1001 M
b1001 R
b1001 ("
b1 C
b1 v
b1 |
b11111111111111111111111111111100 O
b11111111111111111111111111111100 $"
b11111111111111111111111111111100 0"
b11 ;
b11 i
b11 :"
b11 ="
b10 @
b10 V
b10 A
b10 S
b10 !"
b10 >
b10 ~
b1 /
b1 o
b1 z
b100 :
b100 W
b101 8
b101 l
b101 '"
b1001 7
b1001 T
b1001 m
b1001 7"
b101 %
b101 5
b101 q
b1111 '
b1111 Q
b100 B
b100 j
b100 2"
b11 G
b11 e
b11 h
b10 )
b10 H
b10 f
b10 3"
b10 >"
b10000010000010000000000000010 =
b10000010000010000000000000010 ;"
b10 <"
06"
1(
1,
1*
#150
16"
0(
0,
0*
#155
b1 P
b1 c
b1 &"
1L
1F
b0 .
b0 w
b0 ""
b0 5"
1-
b111110 1"
b0 O
b0 $"
b0 0"
b1 ;
b1 i
b1 :"
b1 ="
b111110 @
b111110 V
b11111111111111111111111111111110 A
b11111111111111111111111111111110 S
b11111111111111111111111111111110 !"
b1111111111111110 >
b1111111111111110 ~
b1001 8
b1001 l
b1001 '"
b1 0
b1 n
b11111 9
b11111 {
b1 B
b1 j
b1 2"
b100 G
b100 e
b100 h
b11 )
b11 H
b11 f
b11 3"
b11 >"
b10000 '
b10000 Q
b10000001000011111111111111110 =
b10000001000011111111111111110 ;"
b11 <"
06"
1(
1,
1*
#160
16"
0(
0,
0*
#165
1N
1D
b0 P
b0 c
b0 &"
0L
0F
b110 .
b110 w
b110 ""
b110 5"
0-
b1 1"
b1 M
b1 R
b1 ("
b10 C
b10 v
b10 |
b110 O
b110 $"
b110 0"
b10 ;
b10 i
b10 :"
b10 ="
b1 @
b1 V
b1 A
b1 S
b1 !"
b1 >
b1 ~
b101 7
b101 T
b101 m
b101 7"
b10 /
b10 o
b10 z
b101 8
b101 l
b101 '"
b10 0
b10 n
b0 9
b0 {
b1000 :
b1000 W
b10001 '
b10001 Q
b10 B
b10 j
b10 2"
b10 G
b10 e
b10 h
b1 )
b1 H
b1 f
b1 3"
b1 >"
b100000010000100000000000000001 =
b100000010000100000000000000001 ;"
b1 <"
06"
1(
1,
1*
#170
16"
0(
0,
0*
#175
b1 P
b1 c
b1 &"
1L
0N
0D
b11111111111111111111111111111101 .
b11111111111111111111111111111101 w
b11111111111111111111111111111101 ""
b11111101 5"
b10 1"
b1001 M
b1001 R
b1001 ("
b1 C
b1 v
b1 |
b11111111111111111111111111111101 O
b11111111111111111111111111111101 $"
b11111111111111111111111111111101 0"
b11 ;
b11 i
b11 :"
b11 ="
b10 @
b10 V
b10 A
b10 S
b10 !"
b10 >
b10 ~
b1 /
b1 o
b1 z
b100 :
b100 W
b110 8
b110 l
b110 '"
b1001 7
b1001 T
b1001 m
b1001 7"
b110 %
b110 5
b110 q
b100 B
b100 j
b100 2"
b11 G
b11 e
b11 h
b10 )
b10 H
b10 f
b10 3"
b10 >"
b10010 '
b10010 Q
b10000010000010000000000000010 =
b10000010000010000000000000010 ;"
b10 <"
06"
1(
1,
1*
#180
16"
0(
0,
0*
#185
b1 P
b1 c
b1 &"
1L
1F
b0 .
b0 w
b0 ""
b0 5"
1-
b111110 1"
b0 O
b0 $"
b0 0"
b1 ;
b1 i
b1 :"
b1 ="
b111110 @
b111110 V
b11111111111111111111111111111110 A
b11111111111111111111111111111110 S
b11111111111111111111111111111110 !"
b1111111111111110 >
b1111111111111110 ~
b1001 8
b1001 l
b1001 '"
b1 0
b1 n
b11111 9
b11111 {
b10011 '
b10011 Q
b1 B
b1 j
b1 2"
b100 G
b100 e
b100 h
b11 )
b11 H
b11 f
b11 3"
b11 >"
b10000001000011111111111111110 =
b10000001000011111111111111110 ;"
b11 <"
06"
1(
1,
1*
#190
16"
0(
0,
0*
#195
1N
1D
b0 P
b0 c
b0 &"
0L
0F
b111 .
b111 w
b111 ""
b111 5"
0-
b1 1"
b1 M
b1 R
b1 ("
b10 C
b10 v
b10 |
b111 O
b111 $"
b111 0"
b10 ;
b10 i
b10 :"
b10 ="
b1 @
b1 V
b1 A
b1 S
b1 !"
b1 >
b1 ~
b110 7
b110 T
b110 m
b110 7"
b10 /
b10 o
b10 z
b110 8
b110 l
b110 '"
b10 0
b10 n
b0 9
b0 {
b1000 :
b1000 W
b10 B
b10 j
b10 2"
b10 G
b10 e
b10 h
b1 )
b1 H
b1 f
b1 3"
b1 >"
b10100 '
b10100 Q
b100000010000100000000000000001 =
b100000010000100000000000000001 ;"
b1 <"
06"
1(
1,
1*
#200
16"
0(
0,
0*
#205
b1 P
b1 c
b1 &"
1L
0N
0D
b11111111111111111111111111111110 .
b11111111111111111111111111111110 w
b11111111111111111111111111111110 ""
b11111110 5"
b10 1"
b1001 M
b1001 R
b1001 ("
b1 C
b1 v
b1 |
b11111111111111111111111111111110 O
b11111111111111111111111111111110 $"
b11111111111111111111111111111110 0"
b11 ;
b11 i
b11 :"
b11 ="
b10 @
b10 V
b10 A
b10 S
b10 !"
b10 >
b10 ~
b1 /
b1 o
b1 z
b100 :
b100 W
b111 8
b111 l
b111 '"
b1001 7
b1001 T
b1001 m
b1001 7"
b111 %
b111 5
b111 q
b10101 '
b10101 Q
b100 B
b100 j
b100 2"
b11 G
b11 e
b11 h
b10 )
b10 H
b10 f
b10 3"
b10 >"
b10000010000010000000000000010 =
b10000010000010000000000000010 ;"
b10 <"
06"
1(
1,
1*
#210
16"
0(
0,
0*
#215
b1 P
b1 c
b1 &"
1L
1F
b0 .
b0 w
b0 ""
b0 5"
1-
b111110 1"
b0 O
b0 $"
b0 0"
b1 ;
b1 i
b1 :"
b1 ="
b111110 @
b111110 V
b11111111111111111111111111111110 A
b11111111111111111111111111111110 S
b11111111111111111111111111111110 !"
b1111111111111110 >
b1111111111111110 ~
b1001 8
b1001 l
b1001 '"
b1 0
b1 n
b11111 9
b11111 {
b1 B
b1 j
b1 2"
b100 G
b100 e
b100 h
b11 )
b11 H
b11 f
b11 3"
b11 >"
b10110 '
b10110 Q
b10000001000011111111111111110 =
b10000001000011111111111111110 ;"
b11 <"
06"
1(
1,
1*
#220
16"
0(
0,
0*
#225
1N
1D
b0 P
b0 c
b0 &"
0L
0F
b1000 .
b1000 w
b1000 ""
b1000 5"
0-
b1 1"
b1 M
b1 R
b1 ("
b10 C
b10 v
b10 |
b1000 O
b1000 $"
b1000 0"
b10 ;
b10 i
b10 :"
b10 ="
b1 @
b1 V
b1 A
b1 S
b1 !"
b1 >
b1 ~
b111 7
b111 T
b111 m
b111 7"
b10 /
b10 o
b10 z
b111 8
b111 l
b111 '"
b10 0
b10 n
b0 9
b0 {
b1000 :
b1000 W
b10111 '
b10111 Q
b10 B
b10 j
b10 2"
b10 G
b10 e
b10 h
b1 )
b1 H
b1 f
b1 3"
b1 >"
b100000010000100000000000000001 =
b100000010000100000000000000001 ;"
b1 <"
06"
1(
1,
1*
#230
16"
0(
0,
0*
#235
b1 P
b1 c
b1 &"
1L
0N
0D
b11111111111111111111111111111111 .
b11111111111111111111111111111111 w
b11111111111111111111111111111111 ""
b11111111 5"
b10 1"
b1001 M
b1001 R
b1001 ("
b1 C
b1 v
b1 |
b11111111111111111111111111111111 O
b11111111111111111111111111111111 $"
b11111111111111111111111111111111 0"
b11 ;
b11 i
b11 :"
b11 ="
b10 @
b10 V
b10 A
b10 S
b10 !"
b10 >
b10 ~
b1 /
b1 o
b1 z
b100 :
b100 W
b1000 8
b1000 l
b1000 '"
b1001 7
b1001 T
b1001 m
b1001 7"
b1000 %
b1000 5
b1000 q
b100 B
b100 j
b100 2"
b11 G
b11 e
b11 h
b10 )
b10 H
b10 f
b10 3"
b10 >"
b11000 '
b11000 Q
b10000010000010000000000000010 =
b10000010000010000000000000010 ;"
b10 <"
06"
1(
1,
1*
#240
16"
0(
0,
0*
#245
b1 P
b1 c
b1 &"
1L
1F
b0 .
b0 w
b0 ""
b0 5"
1-
b111110 1"
b0 O
b0 $"
b0 0"
b1 ;
b1 i
b1 :"
b1 ="
b111110 @
b111110 V
b11111111111111111111111111111110 A
b11111111111111111111111111111110 S
b11111111111111111111111111111110 !"
b1111111111111110 >
b1111111111111110 ~
b1001 8
b1001 l
b1001 '"
b1 0
b1 n
b11111 9
b11111 {
b11001 '
b11001 Q
b1 B
b1 j
b1 2"
b100 G
b100 e
b100 h
b11 )
b11 H
b11 f
b11 3"
b11 >"
b10000001000011111111111111110 =
b10000001000011111111111111110 ;"
b11 <"
06"
1(
1,
1*
#250
16"
0(
0,
0*
#255
1N
1D
b0 P
b0 c
b0 &"
0L
0F
b1001 .
b1001 w
b1001 ""
b1001 5"
0-
b1 1"
b1 M
b1 R
b1 ("
b10 C
b10 v
b10 |
b1001 O
b1001 $"
b1001 0"
b10 ;
b10 i
b10 :"
b10 ="
b1 @
b1 V
b1 A
b1 S
b1 !"
b1 >
b1 ~
b1000 7
b1000 T
b1000 m
b1000 7"
b10 /
b10 o
b10 z
b1000 8
b1000 l
b1000 '"
b10 0
b10 n
b0 9
b0 {
b1000 :
b1000 W
b10 B
b10 j
b10 2"
b10 G
b10 e
b10 h
b1 )
b1 H
b1 f
b1 3"
b1 >"
b11010 '
b11010 Q
b100000010000100000000000000001 =
b100000010000100000000000000001 ;"
b1 <"
06"
1(
1,
1*
#260
16"
0(
0,
0*
#265
1F
1-
b1 P
b1 c
b1 &"
1L
0N
0D
b0 .
b0 w
b0 ""
b0 5"
b10 1"
b1001 M
b1001 R
b1001 ("
b1 C
b1 v
b1 |
b0 O
b0 $"
b0 0"
b100 ;
b100 i
b100 :"
b100 ="
b10 @
b10 V
b10 A
b10 S
b10 !"
b10 >
b10 ~
b1 /
b1 o
b1 z
b100 :
b100 W
b1001 8
b1001 l
b1001 '"
b1001 7
b1001 T
b1001 m
b1001 7"
b1001 %
b1001 5
b1001 q
b11011 '
b11011 Q
b100 B
b100 j
b100 2"
b11 G
b11 e
b11 h
b10 )
b10 H
b10 f
b10 3"
b10 >"
b10000010000010000000000000010 =
b10000010000010000000000000010 ;"
b10 <"
06"
1(
1,
1*
#270
16"
0(
0,
0*
#275
1?
b0 P
b0 c
b0 &"
0L
0F
b0 .
b0 w
b0 ""
b0 5"
1-
b0 1"
b0 M
b0 R
b0 ("
b0 C
b0 v
b0 |
b0 O
b0 $"
b0 0"
b101 ;
b101 i
b101 :"
b101 ="
b0 @
b0 V
b0 A
b0 S
b0 !"
b0 >
b0 ~
b0 7
b0 T
b0 m
b0 7"
b0 /
b0 o
b0 z
b0 8
b0 l
b0 '"
b0 0
b0 n
b111111 :
b111111 W
b100 B
b100 j
b100 2"
b101 G
b101 e
b101 h
b100 )
b100 H
b100 f
b100 3"
b100 >"
b11100 '
b11100 Q
b11111100000000000000000000000000 =
b11111100000000000000000000000000 ;"
b100 <"
06"
1(
1,
1*
