singlecycle/SiliCore_Qualifying_code/testoutdump.vcd
$date
	Fri Nov 08 01:38:55 2024
$end
$version
	Icarus Verilog
$end
$timescale
	1s
$end
$scope module testbench $end
$var wire 32 ! regs5 [31:0] $end
$var wire 32 " regs4 [31:0] $end
$var wire 32 # regs3 [31:0] $end
$var wire 32 $ regs2 [31:0] $end
$var wire 32 % regs1 [31:0] $end
$var wire 32 & regs0 [31:0] $end
$var wire 32 ' cycles_consumed [31:0] $end
$var wire 1 ( clkout $end
$var wire 32 ) PC [31:0] $end
$var reg 1 * clk $end
$var reg 1 + rst $end
$scope module cpu $end
$var wire 1 ( clk $end
$var wire 1 * input_clk $end
$var wire 1 + rst $end
$var wire 1 , zero $end
$var wire 32 - writeData [31:0] $end
$var wire 32 . wire_instruction [31:0] $end
$var wire 32 / shamt [31:0] $end
$var wire 5 0 rt [4:0] $end
$var wire 5 1 rs [4:0] $end
$var wire 32 2 regs5 [31:0] $end
$var wire 32 3 regs4 [31:0] $end
$var wire 32 4 regs3 [31:0] $end
$var wire 32 5 regs2 [31:0] $end
$var wire 32 6 regs1 [31:0] $end
$var wire 32 7 regs0 [31:0] $end
$var wire 32 8 readData2 [31:0] $end
$var wire 32 9 readData1_w [31:0] $end
$var wire 32 : readData1 [31:0] $end
$var wire 5 ; rd [4:0] $end
$var wire 6 < opcode [5:0] $end
$var wire 32 = nextPC [31:0] $end
$var wire 32 > memoryReadData [31:0] $end
$var wire 32 ? instruction [31:0] $end
$var wire 32 @ immediate [31:0] $end
$var wire 16 A imm [15:0] $end
$var wire 1 B hlt $end
$var wire 6 C funct [5:0] $end
$var wire 32 D extImm [31:0] $end
$var wire 32 E address [31:0] $end
$var wire 32 F adderResult [31:0] $end
$var wire 5 G WriteRegister [4:0] $end
$var wire 1 H RegWriteEn $end
$var wire 1 I RegDst $end
$var wire 1 J PCsrc $end
$var wire 32 K PCPlus1 [31:0] $end
$var wire 32 L PC [31:0] $end
$var wire 1 M MemtoReg $end
$var wire 1 N MemWriteEn $end
$var wire 1 O MemReadEn $end
$var wire 32 P ALUin2 [31:0] $end
$var wire 1 Q ALUSrc $end
$var wire 32 R ALUResult [31:0] $end
$var wire 4 S ALUOp [3:0] $end
$var parameter 6 T RType $end
$var parameter 6 U add $end
$var parameter 6 V addi $end
$var parameter 6 W addu $end
$var parameter 6 X and_ $end
$var parameter 6 Y andi $end
$var parameter 6 Z beq $end
$var parameter 6 [ bne $end
$var parameter 6 \ hlt_inst $end
$var parameter 6 ] j $end
$var parameter 6 ^ jal $end
$var parameter 6 _ jr $end
$var parameter 6 ` lw $end
$var parameter 6 a nor_ $end
$var parameter 6 b or_ $end
$var parameter 6 c ori $end
$var parameter 6 d sgt $end
$var parameter 6 e sll $end
$var parameter 6 f slt $end
$var parameter 6 g slti $end
$var parameter 6 h srl $end
$var parameter 6 i sub $end
$var parameter 6 j subu $end
$var parameter 6 k sw $end
$var parameter 6 l xor_ $end
$var parameter 6 m xori $end
$var reg 32 n cycles_consumed [31:0] $end
$scope module ALUMux $end
$var wire 32 o in2 [31:0] $end
$var wire 1 Q s $end
$var wire 32 p out [31:0] $end
$var wire 32 q in1 [31:0] $end
$var parameter 32 r size $end
$upscope $end
$scope module CU $end
$var wire 6 s funct [5:0] $end
$var wire 6 t opcode [5:0] $end
$var wire 1 + rst $end
$var parameter 6 u RType $end
$var parameter 6 v add $end
$var parameter 6 w addi $end
$var parameter 6 x addu $end
$var parameter 6 y and_ $end
$var parameter 6 z andi $end
$var parameter 6 { beq $end
$var parameter 6 | bne $end
$var parameter 6 } hlt_inst $end
$var parameter 6 ~ j $end
$var parameter 6 !" jal $end
$var parameter 6 "" jr $end
$var parameter 6 #" lw $end
$var parameter 6 $" nor_ $end
$var parameter 6 %" or_ $end
$var parameter 6 &" ori $end
$var parameter 6 '" sgt $end
$var parameter 6 (" sll $end
$var parameter 6 )" slt $end
$var parameter 6 *" slti $end
$var parameter 6 +" srl $end
$var parameter 6 ," sub $end
$var parameter 6 -" subu $end
$var parameter 6 ." sw $end
$var parameter 6 /" xor_ $end
$var parameter 6 0" xori $end
$var reg 4 1" ALUOp [3:0] $end
$var reg 1 Q ALUSrc $end
$var reg 1 O MemReadEn $end
$var reg 1 N MemWriteEn $end
$var reg 1 M MemtoReg $end
$var reg 1 I RegDst $end
$var reg 1 H RegWriteEn $end
$var reg 1 B hlt $end
$upscope $end
$scope module PCMux $end
$var wire 32 2" in1 [31:0] $end
$var wire 32 3" in2 [31:0] $end
$var wire 1 J s $end
$var wire 32 4" out [31:0] $end
$var parameter 32 5" size $end
$upscope $end
$scope module RF $end
$var wire 1 ( clk $end
$var wire 32 6" readData1 [31:0] $end
$var wire 32 7" readData2 [31:0] $end
$var wire 5 8" readRegister1 [4:0] $end
$var wire 5 9" readRegister2 [4:0] $end
$var wire 32 :" regs0 [31:0] $end
$var wire 32 ;" regs1 [31:0] $end
$var wire 32 <" regs2 [31:0] $end
$var wire 32 =" regs3 [31:0] $end
$var wire 32 >" regs4 [31:0] $end
$var wire 32 ?" regs5 [31:0] $end
$var wire 1 + rst $end
$var wire 1 H we $end
$var wire 5 @" writeRegister [4:0] $end
$var wire 32 A" writeData [31:0] $end
$var integer 32 B" i [31:0] $end
$scope begin Write_on_register_file_block $end
$var integer 32 C" i [31:0] $end
$upscope $end
$upscope $end
$scope module RFMux $end
$var wire 5 D" in1 [4:0] $end
$var wire 5 E" in2 [4:0] $end
$var wire 1 I s $end
$var wire 5 F" out [4:0] $end
$var parameter 32 G" size $end
$upscope $end
$scope module WBMux $end
$var wire 1 M s $end
$var wire 32 H" out [31:0] $end
$var wire 32 I" in2 [31:0] $end
$var wire 32 J" in1 [31:0] $end
$var parameter 32 K" size $end
$upscope $end
$scope module alu $end
$var wire 4 L" opSel [3:0] $end
$var wire 32 M" operand1 [31:0] $end
$var wire 32 N" operand2 [31:0] $end
$var wire 1 , zero $end
$var parameter 4 O" ADD $end
$var parameter 4 P" AND $end
$var parameter 4 Q" NOR $end
$var parameter 4 R" OR $end
$var parameter 4 S" SGT $end
$var parameter 4 T" SLL $end
$var parameter 4 U" SLT $end
$var parameter 4 V" SRL $end
$var parameter 4 W" SUB $end
$var parameter 4 X" XOR $end
$var parameter 32 Y" data_width $end
$var parameter 32 Z" sel_width $end
$var reg 32 [" result [31:0] $end
$upscope $end
$scope module branchcontroller $end
$var wire 6 \" funct [5:0] $end
$var wire 6 ]" opcode [5:0] $end
$var wire 32 ^" operand1 [31:0] $end
$var wire 32 _" operand2 [31:0] $end
$var wire 1 + rst $end
$var parameter 6 `" RType $end
$var parameter 6 a" add $end
$var parameter 6 b" addi $end
$var parameter 6 c" addu $end
$var parameter 6 d" and_ $end
$var parameter 6 e" andi $end
$var parameter 6 f" beq $end
$var parameter 6 g" bne $end
$var parameter 6 h" hlt_inst $end
$var parameter 6 i" j $end
$var parameter 6 j" jal $end
$var parameter 6 k" jr $end
$var parameter 6 l" lw $end
$var parameter 6 m" nor_ $end
$var parameter 6 n" or_ $end
$var parameter 6 o" ori $end
$var parameter 6 p" sgt $end
$var parameter 6 q" sll $end
$var parameter 6 r" slt $end
$var parameter 6 s" slti $end
$var parameter 6 t" srl $end
$var parameter 6 u" sub $end
$var parameter 6 v" subu $end
$var parameter 6 w" sw $end
$var parameter 6 x" xor_ $end
$var parameter 6 y" xori $end
$var reg 1 J PCsrc $end
$upscope $end
$scope module dataMemory $end
$var wire 8 z" address [7:0] $end
$var wire 1 ( clock $end
$var wire 32 {" data [31:0] $end
$var wire 1 O rden $end
$var wire 1 N wren $end
$var reg 32 |" q [31:0] $end
$var integer 32 }" i [31:0] $end
$upscope $end
$scope module instructionMemory $end
$var wire 32 ~" q [31:0] $end
$var wire 32 !# address [31:0] $end
$upscope $end
$scope module pc $end
$var wire 32 "# PCin [31:0] $end
$var wire 1 ( clk $end
$var wire 1 + rst $end
$var parameter 32 ## initialaddr $end
$var reg 32 $# PCout [31:0] $end
$upscope $end
$upscope $end
$upscope $end
$enddefinitions $end
$comment Show the parameter values. $end
$dumpall
b11111111111111111111111111111111 ##
b1110 y"
b100110 x"
b101011 w"
b100011 v"
b100010 u"
b10 t"
b101010 s"
b101010 r"
b0 q"
b101011 p"
b1101 o"
b100101 n"
b100111 m"
b100011 l"
b1000 k"
b11 j"
b10 i"
b111111 h"
b101 g"
b100 f"
b1100 e"
b100100 d"
b100001 c"
b1000 b"
b100000 a"
b0 `"
b100 Z"
b100000 Y"
b100 X"
b1 W"
b1001 V"
b110 U"
b1000 T"
b111 S"
b11 R"
b101 Q"
b10 P"
b0 O"
b100000 K"
b101 G"
b100000 5"
b1110 0"
b100110 /"
b101011 ."
b100011 -"
b100010 ,"
b10 +"
b101010 *"
b101010 )"
b0 ("
b101011 '"
b1101 &"
b100101 %"
b100111 $"
b100011 #"
b1000 ""
b11 !"
b10 ~
b111111 }
b101 |
b100 {
b1100 z
b100100 y
b100001 x
b1000 w
b100000 v
b0 u
b100000 r
b1110 m
b100110 l
b101011 k
b100011 j
b100010 i
b10 h
b101010 g
b101010 f
b0 e
b101011 d
b1101 c
b100101 b
b100111 a
b100011 `
b1000 _
b11 ^
b10 ]
b111111 \
b101 [
b100 Z
b1100 Y
b100100 X
b100001 W
b1000 V
b100000 U
b0 T
$end
#0
$dumpvars
b11111111111111111111111111111111 $#
b0 "#
b11111111111111111111111111111111 !#
bx ~"
bx }"
bx |"
b0 {"
b0 z"
b0 _"
b0 ^"
b0 ]"
b0 \"
b0 ["
b0 N"
b0 M"
b0 L"
b0 J"
bx I"
b0 H"
b0 F"
b0 E"
b0 D"
b100000 C"
bx B"
b0 A"
b0 @"
b0 ?"
b0 >"
b0 ="
b0 <"
b0 ;"
b0 :"
b0 9"
b0 8"
b0 7"
b0 6"
b0 4"
b11111111111111111111111111111111 3"
b0 2"
b0 1"
b0 t
b0 s
b0 q
b0 p
b0 o
b0 n
b0 S
b0 R
0Q
b0 P
0O
0N
0M
b11111111111111111111111111111111 L
b0 K
0J
0I
0H
b0 G
b11111111111111111111111111111111 F
b0 E
b0 D
b0 C
0B
b0 A
b0 @
b0 ?
bx >
b0 =
b0 <
b0 ;
b0 :
b0 9
b0 8
b0 7
b0 6
b0 5
b0 4
b0 3
b0 2
b0 1
b0 0
b0 /
bx .
b0 -
1,
0+
1*
b11111111111111111111111111111111 )
1(
b0 '
b0 &
b0 %
b0 $
b0 #
b0 "
b0 !
$end
#1
0(
0*
#2
b100000 C"
1(
1*
#3
0(
0*
#4
b100000000000010000000000001010 .
b100000000000010000000000001010 ~"
b1 =
b1 4"
b1 "#
b1 K
b1 2"
b0 )
b0 L
b0 !#
b0 $#
b1 '
b1 n
b1010 -
b1010 A"
b1010 H"
b1010 z"
1(
0,
b1010 R
b1010 J"
b1010 ["
b0 S
b0 1"
b0 L"
1Q
1H
0I
1*
b1010 F
b1010 3"
b1010 @
b1010 o
b10000000000001010 E
b0 /
b1010 D
b1010 P
b1010 p
b1010 N"
b1010 _"
b0 9
b0 M"
b1 G
b1 @"
b1 F"
b0 ;
b0 E"
b1010 C
b1010 s
b1010 \"
b1010 A
b0 8
b0 q
b0 7"
b0 {"
b1 0
b1 9"
b1 D"
b0 :
b0 6"
b0 ^"
b0 1
b0 8"
b1000 <
b1000 t
b1000 ]"
b100000000000010000000000001010 ?
1+
#5
0(
0*
#6
b11111111111111111111111111111110 -
b11111111111111111111111111111110 A"
b11111111111111111111111111111110 H"
b11111110 z"
0,
b11111111111111111111111111111110 R
b11111111111111111111111111111110 J"
b11111111111111111111111111111110 ["
b11111111111111111111111111111110 P
b11111111111111111111111111111110 p
b11111111111111111111111111111110 N"
b11111111111111111111111111111110 _"
b11111111111111111111111111111110 @
b11111111111111111111111111111110 o
b101111111111111110 E
1H
1Q
b11111 /
b11111111111111111111111111111110 D
b10 G
b10 @"
b10 F"
b11111 ;
b11111 E"
b111110 C
b111110 s
b111110 \"
b1111111111111110 A
b10 0
b10 9"
b10 D"
b1111111111 F
b1111111111 3"
b100000000000101111111111111110 ?
b100000000000101111111111111110 .
b100000000000101111111111111110 ~"
b10 =
b10 4"
b10 "#
b0 8
b0 q
b0 7"
b0 {"
b1010 &
b1010 7
b1010 :"
b10 '
b10 n
b10 K
b10 2"
b1 )
b1 L
b1 !#
b1 $#
1(
1*
#7
0(
0*
#8
b11111111111111111111111111111111 -
b11111111111111111111111111111111 A"
b11111111111111111111111111111111 H"
b11111111 z"
0,
b11111111111111111111111111111111 R
b11111111111111111111111111111111 J"
b11111111111111111111111111111111 ["
b11111111111111111111111111111111 P
b11111111111111111111111111111111 p
b11111111111111111111111111111111 N"
b11111111111111111111111111111111 _"
b11111111111111111111111111111111 @
b11111111111111111111111111111111 o
b111111111111111111 E
1H
1Q
b11111111111111111111111111111111 D
b11 G
b11 @"
b11 F"
b111111 C
b111111 s
b111111 \"
b1111111111111111 A
b11 0
b11 9"
b11 D"
b10000000001 F
b10000000001 3"
b100000000000111111111111111111 ?
b100000000000111111111111111111 .
b100000000000111111111111111111 ~"
b11 =
b11 4"
b11 "#
b0 8
b0 q
b0 7"
b0 {"
b11111111111111111111111111111110 %
b11111111111111111111111111111110 6
b11111111111111111111111111111110 ;"
b11 K
b11 2"
b10 )
b10 L
b10 !#
b10 $#
b11 '
b11 n
1(
1*
#9
0(
0*
#10
b1 -
b1 A"
b1 H"
b1 z"
b1 R
b1 J"
b1 ["
b111 S
b111 1"
b111 L"
1I
b10000000101011 @
b10000000101011 o
b11111111111111111111111111111110 P
b11111111111111111111111111111110 p
b11111111111111111111111111111110 N"
b11111111111111111111111111111110 _"
b1010 9
b1010 M"
b1000100010000000101011 E
b0 /
b10000000101011 D
b100 G
b100 @"
b100 F"
b100 ;
b100 E"
1H
0Q
b101011 C
b101011 s
b101011 \"
b10000000101011 A
b10 0
b10 9"
b10 D"
b1010 :
b1010 6"
b1010 ^"
b1 1
b1 8"
b0 <
b0 t
b0 ]"
b101110 F
b101110 3"
b1000100010000000101011 ?
b1000100010000000101011 .
b1000100010000000101011 ~"
b100 =
b100 4"
b100 "#
b11111111111111111111111111111110 8
b11111111111111111111111111111110 q
b11111111111111111111111111111110 7"
b11111111111111111111111111111110 {"
b11111111111111111111111111111111 $
b11111111111111111111111111111111 5
b11111111111111111111111111111111 <"
b100 '
b100 n
b100 K
b100 2"
b11 )
b11 L
b11 !#
b11 $#
1(
1*
#11
0(
0*
#12
b10100000101011 @
b10100000101011 o
b101 G
b101 @"
b101 F"
b1000110010100000101011 E
b10100000101011 D
b11111111111111111111111111111111 P
b11111111111111111111111111111111 p
b11111111111111111111111111111111 N"
b11111111111111111111111111111111 _"
b101 ;
b101 E"
b10100000101011 A
b11111111111111111111111111111111 8
b11111111111111111111111111111111 q
b11111111111111111111111111111111 7"
b11111111111111111111111111111111 {"
b11 0
b11 9"
b11 D"
b101111 F
b101111 3"
b1000110010100000101011 ?
b1000110010100000101011 .
b1000110010100000101011 ~"
b101 =
b101 4"
b101 "#
b1 #
b1 4
b1 ="
b101 K
b101 2"
b100 )
b100 L
b100 !#
b100 $#
b101 '
b101 n
1(
1*
#13
0(
0*
#14
b0 -
b0 A"
b0 H"
b0 z"
1,
b0 R
b0 J"
b0 ["
b11000000101011 @
b11000000101011 o
b11111111111111111111111111111110 9
b11111111111111111111111111111110 M"
b110 G
b110 @"
b110 F"
b10000010011000000101011 E
b11000000101011 D
b1010 P
b1010 p
b1010 N"
b1010 _"
b110 ;
b110 E"
b11000000101011 A
b1010 8
b1010 q
b1010 7"
b1010 {"
b1 0
b1 9"
b1 D"
b11111111111111111111111111111110 :
b11111111111111111111111111111110 6"
b11111111111111111111111111111110 ^"
b10 1
b10 8"
b110000 F
b110000 3"
b10000010011000000101011 ?
b10000010011000000101011 .
b10000010011000000101011 ~"
b110 =
b110 4"
b110 "#
b1 "
b1 3
b1 >"
b110 '
b110 n
b110 K
b110 2"
b101 )
b101 L
b101 !#
b101 $#
1(
1*
#15
0(
0*
#16
b11100000101011 @
b11100000101011 o
b111 G
b111 @"
b111 F"
b10000110011100000101011 E
b11100000101011 D
b11111111111111111111111111111111 P
b11111111111111111111111111111111 p
b11111111111111111111111111111111 N"
b11111111111111111111111111111111 _"
b111 ;
b111 E"
b11100000101011 A
b11111111111111111111111111111111 8
b11111111111111111111111111111111 q
b11111111111111111111111111111111 7"
b11111111111111111111111111111111 {"
b11 0
b11 9"
b11 D"
b110001 F
b110001 3"
b10000110011100000101011 ?
b10000110011100000101011 .
b10000110011100000101011 ~"
b111 =
b111 4"
b111 "#
b111 K
b111 2"
b110 )
b110 L
b110 !#
b110 $#
b111 '
b111 n
1(
1*
#17
0(
0*
#18
b100000000101011 @
b100000000101011 o
b11111111111111111111111111111111 9
b11111111111111111111111111111111 M"
b1000 G
b1000 @"
b1000 F"
b11000010100000000101011 E
b100000000101011 D
b1010 P
b1010 p
b1010 N"
b1010 _"
b1000 ;
b1000 E"
b100000000101011 A
b1010 8
b1010 q
b1010 7"
b1010 {"
b1 0
b1 9"
b1 D"
b11111111111111111111111111111111 :
b11111111111111111111111111111111 6"
b11111111111111111111111111111111 ^"
b11 1
b11 8"
b110010 F
b110010 3"
b11000010100000000101011 ?
b11000010100000000101011 .
b11000010100000000101011 ~"
b1000 =
b1000 4"
b1000 "#
b1000 '
b1000 n
b1000 K
b1000 2"
b111 )
b111 L
b111 !#
b111 $#
1(
1*
#19
0(
0*
#20
b1 -
b1 A"
b1 H"
b1 z"
0,
b1 R
b1 J"
b1 ["
b100100000101011 @
b100100000101011 o
b1001 G
b1001 @"
b1001 F"
b11000100100100000101011 E
b100100000101011 D
b11111111111111111111111111111110 P
b11111111111111111111111111111110 p
b11111111111111111111111111111110 N"
b11111111111111111111111111111110 _"
b1001 ;
b1001 E"
b100100000101011 A
b11111111111111111111111111111110 8
b11111111111111111111111111111110 q
b11111111111111111111111111111110 7"
b11111111111111111111111111111110 {"
b10 0
b10 9"
b10 D"
b110011 F
b110011 3"
b11000100100100000101011 ?
b11000100100100000101011 .
b11000100100100000101011 ~"
b1001 =
b1001 4"
b1001 "#
b1001 K
b1001 2"
b1000 )
b1000 L
b1000 !#
b1000 $#
b1001 '
b1001 n
1(
1*
#21
0(
0*
#22
b0 -
b0 A"
b0 H"
b0 z"
1,
b0 R
b0 J"
b0 ["
1B
b0 @
b0 o
b0 9
b0 M"
b0 G
b0 @"
b0 F"
b0 E
b0 D
b0 P
b0 p
b0 N"
b0 _"
b0 ;
b0 E"
0I
0H
b0 S
b0 1"
b0 L"
b0 C
b0 s
b0 \"
b0 A
b0 8
b0 q
b0 7"
b0 {"
b0 0
b0 9"
b0 D"
b0 :
b0 6"
b0 ^"
b0 1
b0 8"
b111111 <
b111111 t
b111111 ]"
b1001 F
b1001 3"
b11111100000000000000000000000000 ?
b11111100000000000000000000000000 .
b11111100000000000000000000000000 ~"
b1010 =
b1010 4"
b1010 "#
b1010 '
b1010 n
b1010 K
b1010 2"
b1001 )
b1001 L
b1001 !#
b1001 $#
1(
1*
