SSOOO/Reorder Buffer/testout.vcd
$date
	Wed Dec 25 19:58:20 2024
$end
$version
	Icarus Verilog
$end
$timescale
	1s
$end
$scope module ROB_tb $end
$var wire 4 ! Start_Index [3:0] $end
$var wire 12 " Reg_opcode_test [11:0] $end
$var wire 32 # Reg_Write_Data_test [31:0] $end
$var wire 1 $ Reg_Valid_test $end
$var wire 2 % Reg_Speculation_test [1:0] $end
$var wire 1 & Reg_Ready_test $end
$var wire 5 ' Reg_Rd_test [4:0] $end
$var wire 1 ( Reg_Exception_test $end
$var wire 1 ) Reg_Busy_test $end
$var wire 32 * RP1_Write_Data2 [31:0] $end
$var wire 32 + RP1_Write_Data1 [31:0] $end
$var wire 1 , FULL_FLAG $end
$var wire 1 - FLUSH_Flag $end
$var wire 4 . End_Index [3:0] $end
$var wire 1 / EXCEPTION_Flag $end
$var wire 12 0 Commit_opcode [11:0] $end
$var wire 32 1 Commit_Write_Data [31:0] $end
$var wire 5 2 Commit_Rd [4:0] $end
$var wire 3 3 Commit_Control_Signals [2:0] $end
$var parameter 12 4 add $end
$var parameter 12 5 addi $end
$var parameter 12 6 addu $end
$var parameter 12 7 and_ $end
$var parameter 12 8 andi $end
$var parameter 12 9 beq $end
$var parameter 12 : bne $end
$var parameter 12 ; hlt_inst $end
$var parameter 12 < j $end
$var parameter 12 = jal $end
$var parameter 12 > jr $end
$var parameter 12 ? lw $end
$var parameter 12 @ nor_ $end
$var parameter 12 A or_ $end
$var parameter 12 B ori $end
$var parameter 12 C sgt $end
$var parameter 12 D sll $end
$var parameter 12 E slt $end
$var parameter 12 F slti $end
$var parameter 12 G srl $end
$var parameter 12 H sub $end
$var parameter 12 I subu $end
$var parameter 12 J sw $end
$var parameter 12 K xor_ $end
$var parameter 12 L xori $end
$var reg 1 M CDB_Branch_Decision $end
$var reg 5 N CDB_ROBEN [4:0] $end
$var reg 32 O CDB_ROBEN_Write_Data [31:0] $end
$var reg 5 P Decoded_Rd [4:0] $end
$var reg 12 Q Decoded_opcode [11:0] $end
$var reg 1 R Decoded_prediction $end
$var reg 5 S RP1_ROBEN1 [4:0] $end
$var reg 5 T RP1_ROBEN2 [4:0] $end
$var reg 1 U VALID_Inst $end
$var reg 1 V clk $end
$var reg 1 W clk_en $end
$var reg 5 X index_test [4:0] $end
$var reg 1 Y rst $end
$var integer 32 Z i [31:0] $end
$scope module dut $end
$var wire 1 M CDB_Branch_Decision $end
$var wire 5 [ CDB_ROBEN [4:0] $end
$var wire 32 \ CDB_ROBEN_Write_Data [31:0] $end
$var wire 5 ] Decoded_Rd [4:0] $end
$var wire 12 ^ Decoded_opcode [11:0] $end
$var wire 1 R Decoded_prediction $end
$var wire 1 / EXCEPTION_Flag $end
$var wire 1 - FLUSH_Flag $end
$var wire 1 , FULL_FLAG $end
$var wire 5 _ RP1_ROBEN1 [4:0] $end
$var wire 5 ` RP1_ROBEN2 [4:0] $end
$var wire 32 a RP1_Write_Data1 [31:0] $end
$var wire 32 b RP1_Write_Data2 [31:0] $end
$var wire 1 ) Reg_Busy_test $end
$var wire 1 ( Reg_Exception_test $end
$var wire 5 c Reg_Rd_test [4:0] $end
$var wire 1 & Reg_Ready_test $end
$var wire 2 d Reg_Speculation_test [1:0] $end
$var wire 1 $ Reg_Valid_test $end
$var wire 32 e Reg_Write_Data_test [31:0] $end
$var wire 12 f Reg_opcode_test [11:0] $end
$var wire 1 U VALID_Inst $end
$var wire 1 V clk $end
$var wire 5 g index_test [4:0] $end
$var wire 1 Y rst $end
$var parameter 12 h add $end
$var parameter 12 i addi $end
$var parameter 12 j addu $end
$var parameter 12 k and_ $end
$var parameter 12 l andi $end
$var parameter 12 m beq $end
$var parameter 12 n bne $end
$var parameter 12 o hlt_inst $end
$var parameter 12 p j $end
$var parameter 12 q jal $end
$var parameter 12 r jr $end
$var parameter 12 s lw $end
$var parameter 12 t nor_ $end
$var parameter 12 u or_ $end
$var parameter 12 v ori $end
$var parameter 12 w sgt $end
$var parameter 12 x sll $end
$var parameter 12 y slt $end
$var parameter 12 z slti $end
$var parameter 12 { srl $end
$var parameter 12 | sub $end
$var parameter 12 } subu $end
$var parameter 12 ~ sw $end
$var parameter 12 !" xor_ $end
$var parameter 12 "" xori $end
$var reg 3 #" Commit_Control_Signals [2:0] $end
$var reg 5 $" Commit_Rd [4:0] $end
$var reg 32 %" Commit_Write_Data [31:0] $end
$var reg 12 &" Commit_opcode [11:0] $end
$var reg 4 '" End_Index [3:0] $end
$var reg 4 (" Start_Index [3:0] $end
$var reg 5 )" i [4:0] $end
$var reg 5 *" k [4:0] $end
$upscope $end
$upscope $end
$enddefinitions $end
$comment Show the parameter values. $end
$dumpall
b1110000000 ""
b100110 !"
b101011000000 ~
b100011 }
b100010 |
b10 {
b1010000000 z
b101010 y
b0 x
b101011 w
b1101000000 v
b100101 u
b100111 t
b100011000000 s
b1000 r
b11000000 q
b10000000 p
b111111000000 o
b101000000 n
b100000000 m
b1100000000 l
b100100 k
b100001 j
b1000000000 i
b100000 h
b1110000000 L
b100110 K
b101011000000 J
b100011 I
b100010 H
b10 G
b1010000000 F
b101010 E
b0 D
b101011 C
b1101000000 B
b100101 A
b100111 @
b100011000000 ?
b1000 >
b11000000 =
b10000000 <
b111111000000 ;
b101000000 :
b100000000 9
b1100000000 8
b100100 7
b100001 6
b1000000000 5
b100000 4
$end
#0
$dumpvars
b0 *"
b0 )"
bx ("
bx '"
bx &"
bx %"
bx $"
bx #"
bx g
bx f
bx e
bx d
bx c
bx b
bx a
bx `
bx _
bx ^
bx ]
bx \
bx [
bx Z
0Y
bx X
1W
0V
xU
bx T
bx S
xR
bx Q
bx P
bx O
bx N
xM
bx 3
bx 2
bx 1
bx 0
x/
bx .
x-
x,
bx +
bx *
x)
x(
bx '
x&
bx %
x$
bx #
bx "
bx !
$end
#1
b0 3
b0 #"
b0 1
b0 %"
b0 2
b0 $"
b0 0
b0 &"
1V
#2
0V
0,
0/
0-
b0 !
b0 ("
b0 .
b0 '"
b10000 )"
1Y
#3
b10000 )"
1V
#4
0W
b10 T
b10 `
b1 S
b1 _
0Y
#6
0)
0&
b0 %
b0 d
0(
1$
b0 X
b0 g
b0 Z
#8
b1 X
b1 g
b1 Z
#10
b10 X
b10 g
b10 Z
#12
b11 X
b11 g
b11 Z
#14
b100 X
b100 g
b100 Z
#16
b101 X
b101 g
b101 Z
#18
b110 X
b110 g
b110 Z
#20
b111 X
b111 g
b111 Z
#22
b1000 X
b1000 g
b1000 Z
#24
b1001 X
b1001 g
b1001 Z
#26
b1010 X
b1010 g
b1010 Z
#28
b1011 X
b1011 g
b1011 Z
#30
b1100 X
b1100 g
b1100 Z
#32
b1101 X
b1101 g
b1101 Z
#34
b1110 X
b1110 g
b1110 Z
#36
b1111 X
b1111 g
b1111 Z
#38
0V
0U
0R
b1010 P
b1010 ]
b100000 Q
b100000 ^
1W
b10000 Z
#39
1V
#40
0W
#42
b0 X
b0 g
b0 Z
#44
b1 X
b1 g
b1 Z
#46
b10 X
b10 g
b10 Z
#48
b11 X
b11 g
b11 Z
#50
b100 X
b100 g
b100 Z
#52
b101 X
b101 g
b101 Z
#54
b110 X
b110 g
b110 Z
#56
b111 X
b111 g
b111 Z
#58
b1000 X
b1000 g
b1000 Z
#60
b1001 X
b1001 g
b1001 Z
#62
b1010 X
b1010 g
b1010 Z
#64
b1011 X
b1011 g
b1011 Z
#66
b1100 X
b1100 g
b1100 Z
#68
b1101 X
b1101 g
b1101 Z
#70
b1110 X
b1110 g
b1110 Z
#72
b1111 X
b1111 g
b1111 Z
#74
0V
1U
1W
b10000 Z
#75
b1 .
b1 '"
1V
#76
0V
b1111 P
b1111 ]
#77
b10 .
b10 '"
1V
#78
0W
0U
#80
b100000 "
b100000 f
b1010 '
b1010 c
1)
b0 X
b0 g
b0 Z
#82
b1111 '
b1111 c
b1 X
b1 g
b1 Z
#84
bx "
bx f
bx '
bx c
0)
b10 X
b10 g
b10 Z
#86
b11 X
b11 g
b11 Z
#88
b100 X
b100 g
b100 Z
#90
b101 X
b101 g
b101 Z
#92
b110 X
b110 g
b110 Z
#94
b111 X
b111 g
b111 Z
#96
b1000 X
b1000 g
b1000 Z
#98
b1001 X
b1001 g
b1001 Z
#100
b1010 X
b1010 g
b1010 Z
#102
b1011 X
b1011 g
b1011 Z
#104
b1100 X
b1100 g
b1100 Z
#106
b1101 X
b1101 g
b1101 Z
#108
b1110 X
b1110 g
b1110 Z
#110
b1111 X
b1111 g
b1111 Z
#112
0V
1U
b1011 P
b1011 ]
b100000000 Q
b100000000 ^
1W
b10000 Z
#113
b11 .
b11 '"
1V
#114
0W
0U
#116
b100000 "
b100000 f
b1010 '
b1010 c
1)
b0 X
b0 g
b0 Z
#118
b1111 '
b1111 c
b1 X
b1 g
b1 Z
#120
b100000000 "
b100000000 f
b1011 '
b1011 c
b1 %
b1 d
0$
b10 X
b10 g
b10 Z
#122
bx "
bx f
bx '
bx c
0)
b0 %
b0 d
1$
b11 X
b11 g
b11 Z
#124
b100 X
b100 g
b100 Z
#126
b101 X
b101 g
b101 Z
#128
b110 X
b110 g
b110 Z
#130
b111 X
b111 g
b111 Z
#132
b1000 X
b1000 g
b1000 Z
#134
b1001 X
b1001 g
b1001 Z
#136
b1010 X
b1010 g
b1010 Z
#138
b1011 X
b1011 g
b1011 Z
#140
b1100 X
b1100 g
b1100 Z
#142
b1101 X
b1101 g
b1101 Z
#144
b1110 X
b1110 g
b1110 Z
#146
b1111 X
b1111 g
b1111 Z
#148
0V
1U
1R
b1100 P
b1100 ]
b101000000 Q
b101000000 ^
1W
b10000 Z
#149
b100 .
b100 '"
1V
#150
0W
0U
#152
b100000 "
b100000 f
b1010 '
b1010 c
1)
b0 X
b0 g
b0 Z
#154
b1111 '
b1111 c
b1 X
b1 g
b1 Z
#156
b100000000 "
b100000000 f
b1011 '
b1011 c
b1 %
b1 d
0$
b10 X
b10 g
b10 Z
#158
b101000000 "
b101000000 f
b1100 '
b1100 c
b11 %
b11 d
b11 X
b11 g
b11 Z
#160
bx "
bx f
bx '
bx c
0)
b0 %
b0 d
1$
b100 X
b100 g
b100 Z
#162
b101 X
b101 g
b101 Z
#164
b110 X
b110 g
b110 Z
#166
b111 X
b111 g
b111 Z
#168
b1000 X
b1000 g
b1000 Z
#170
b1001 X
b1001 g
b1001 Z
#172
b1010 X
b1010 g
b1010 Z
#174
b1011 X
b1011 g
b1011 Z
#176
b1100 X
b1100 g
b1100 Z
#178
b1101 X
b1101 g
b1101 Z
#180
b1110 X
b1110 g
b1110 Z
#182
b1111 X
b1111 g
b1111 Z
#184
0V
b1111011 O
b1111011 \
b101 N
b101 [
1W
b10000 Z
#185
1V
#186
0V
#187
1V
#188
0W
#190
b100000 "
b100000 f
b1010 '
b1010 c
1)
b0 X
b0 g
b0 Z
#192
b1111 '
b1111 c
b1 X
b1 g
b1 Z
#194
b100000000 "
b100000000 f
b1011 '
b1011 c
b1 %
b1 d
0$
b10 X
b10 g
b10 Z
#196
b101000000 "
b101000000 f
b1100 '
b1100 c
b11 %
b11 d
b11 X
b11 g
b11 Z
#198
bx "
bx f
bx '
bx c
0)
b0 %
b0 d
1$
b100 X
b100 g
b100 Z
#200
b101 X
b101 g
b101 Z
#202
b110 X
b110 g
b110 Z
#204
b111 X
b111 g
b111 Z
#206
b1000 X
b1000 g
b1000 Z
#208
b1001 X
b1001 g
b1001 Z
#210
b1010 X
b1010 g
b1010 Z
#212
b1011 X
b1011 g
b1011 Z
#214
b1100 X
b1100 g
b1100 Z
#216
b1101 X
b1101 g
b1101 Z
#218
b1110 X
b1110 g
b1110 Z
#220
b1111 X
b1111 g
b1111 Z
#222
0V
b1 N
b1 [
1W
b10000 Z
#223
b1 !
b1 ("
b100 3
b100 #"
b1111011 1
b1111011 %"
b1010 2
b1010 $"
b100000 0
b100000 &"
b1111011 +
b1111011 a
1V
#224
0W
#226
b100000 "
b100000 f
b1010 '
b1010 c
b1111011 #
b1111011 e
b0 X
b0 g
b0 Z
#228
b1111 '
b1111 c
bx #
bx e
1)
b1 X
b1 g
b1 Z
#230
b100000000 "
b100000000 f
b1011 '
b1011 c
b1 %
b1 d
0$
b10 X
b10 g
b10 Z
#232
b101000000 "
b101000000 f
b1100 '
b1100 c
b11 %
b11 d
b11 X
b11 g
b11 Z
#234
bx "
bx f
bx '
bx c
0)
b0 %
b0 d
1$
b100 X
b100 g
b100 Z
#236
b101 X
b101 g
b101 Z
#238
b110 X
b110 g
b110 Z
#240
b111 X
b111 g
b111 Z
#242
b1000 X
b1000 g
b1000 Z
#244
b1001 X
b1001 g
b1001 Z
#246
b1010 X
b1010 g
b1010 Z
#248
b1011 X
b1011 g
b1011 Z
#250
b1100 X
b1100 g
b1100 Z
#252
b1101 X
b1101 g
b1101 Z
#254
b1110 X
b1110 g
b1110 Z
#256
b1111 X
b1111 g
b1111 Z
#258
0V
b111001000 O
b111001000 \
b10 N
b10 [
1W
b10000 Z
#259
b10 !
b10 ("
b100 3
b100 #"
b111001000 1
b111001000 %"
b1111 2
b1111 $"
b100000 0
b100000 &"
b111001000 *
b111001000 b
1V
#260
0W
b0 N
b0 [
#262
b100000 "
b100000 f
b1010 '
b1010 c
b1111011 #
b1111011 e
b0 X
b0 g
b0 Z
#264
b1111 '
b1111 c
b111001000 #
b111001000 e
b1 X
b1 g
b1 Z
#266
b100000000 "
b100000000 f
b1011 '
b1011 c
bx #
bx e
1)
b1 %
b1 d
0$
b10 X
b10 g
b10 Z
#268
b101000000 "
b101000000 f
b1100 '
b1100 c
b11 %
b11 d
b11 X
b11 g
b11 Z
#270
bx "
bx f
bx '
bx c
0)
b0 %
b0 d
1$
b100 X
b100 g
b100 Z
#272
b101 X
b101 g
b101 Z
#274
b110 X
b110 g
b110 Z
#276
b111 X
b111 g
b111 Z
#278
b1000 X
b1000 g
b1000 Z
#280
b1001 X
b1001 g
b1001 Z
#282
b1010 X
b1010 g
b1010 Z
#284
b1011 X
b1011 g
b1011 Z
#286
b1100 X
b1100 g
b1100 Z
#288
b1101 X
b1101 g
b1101 Z
#290
b1110 X
b1110 g
b1110 Z
#292
b1111 X
b1111 g
b1111 Z
#294
0V
1W
b10000 Z
#295
b0 3
b0 #"
b0 1
b0 %"
b0 2
b0 $"
b0 0
b0 &"
1V
#296
0W
#298
b100000 "
b100000 f
b1010 '
b1010 c
b1111011 #
b1111011 e
b0 X
b0 g
b0 Z
#300
b1111 '
b1111 c
b111001000 #
b111001000 e
b1 X
b1 g
b1 Z
#302
b100000000 "
b100000000 f
b1011 '
b1011 c
bx #
bx e
1)
b1 %
b1 d
0$
b10 X
b10 g
b10 Z
#304
b101000000 "
b101000000 f
b1100 '
b1100 c
b11 %
b11 d
b11 X
b11 g
b11 Z
#306
bx "
bx f
bx '
bx c
0)
b0 %
b0 d
1$
b100 X
b100 g
b100 Z
#308
b101 X
b101 g
b101 Z
#310
b110 X
b110 g
b110 Z
#312
b111 X
b111 g
b111 Z
#314
b1000 X
b1000 g
b1000 Z
#316
b1001 X
b1001 g
b1001 Z
#318
b1010 X
b1010 g
b1010 Z
#320
b1011 X
b1011 g
b1011 Z
#322
b1100 X
b1100 g
b1100 Z
#324
b1101 X
b1101 g
b1101 Z
#326
b1110 X
b1110 g
b1110 Z
#328
b1111 X
b1111 g
b1111 Z
#330
0V
1U
0R
b10100 P
b10100 ]
b0 Q
b0 ^
1W
b10000 Z
#331
b101 .
b101 '"
1V
#332
0V
b10110 P
b10110 ]
b10 Q
b10 ^
#333
b110 .
b110 '"
1V
#334
0W
0U
#336
b100000 "
b100000 f
b1010 '
b1010 c
b1111011 #
b1111011 e
b0 X
b0 g
b0 Z
#338
b1111 '
b1111 c
b111001000 #
b111001000 e
b1 X
b1 g
b1 Z
#340
b100000000 "
b100000000 f
b1011 '
b1011 c
bx #
bx e
1)
b1 %
b1 d
0$
b10 X
b10 g
b10 Z
#342
b101000000 "
b101000000 f
b1100 '
b1100 c
b11 %
b11 d
b11 X
b11 g
b11 Z
#344
b0 "
b0 f
b10100 '
b10100 c
b0 %
b0 d
1$
b100 X
b100 g
b100 Z
#346
b10 "
b10 f
b10110 '
b10110 c
b101 X
b101 g
b101 Z
#348
bx "
bx f
bx '
bx c
0)
b110 X
b110 g
b110 Z
#350
b111 X
b111 g
b111 Z
#352
b1000 X
b1000 g
b1000 Z
#354
b1001 X
b1001 g
b1001 Z
#356
b1010 X
b1010 g
b1010 Z
#358
b1011 X
b1011 g
b1011 Z
#360
b1100 X
b1100 g
b1100 Z
#362
b1101 X
b1101 g
b1101 Z
#364
b1110 X
b1110 g
b1110 Z
#366
b1111 X
b1111 g
b1111 Z
#368
0V
b1111100111 O
b1111100111 \
b101 N
b101 [
1W
b10000 Z
#369
1V
#370
0W
#372
b100000 "
b100000 f
b1010 '
b1010 c
b1111011 #
b1111011 e
b0 X
b0 g
b0 Z
#374
b1111 '
b1111 c
b111001000 #
b111001000 e
b1 X
b1 g
b1 Z
#376
b100000000 "
b100000000 f
b1011 '
b1011 c
bx #
bx e
1)
b1 %
b1 d
0$
b10 X
b10 g
b10 Z
#378
b101000000 "
b101000000 f
b1100 '
b1100 c
b11 %
b11 d
b11 X
b11 g
b11 Z
#380
b0 "
b0 f
b10100 '
b10100 c
b1111100111 #
b1111100111 e
1&
b0 %
b0 d
1$
b100 X
b100 g
b100 Z
#382
b10 "
b10 f
b10110 '
b10110 c
bx #
bx e
0&
b101 X
b101 g
b101 Z
#384
bx "
bx f
bx '
bx c
0)
b110 X
b110 g
b110 Z
#386
b111 X
b111 g
b111 Z
#388
b1000 X
b1000 g
b1000 Z
#390
b1001 X
b1001 g
b1001 Z
#392
b1010 X
b1010 g
b1010 Z
#394
b1011 X
b1011 g
b1011 Z
#396
b1100 X
b1100 g
b1100 Z
#398
b1101 X
b1101 g
b1101 Z
#400
b1110 X
b1110 g
b1110 Z
#402
b1111 X
b1111 g
b1111 Z
#404
0V
0M
b0 O
b0 \
b11 N
b11 [
1W
b10000 Z
#405
0-
1V
#406
0W
b0 N
b0 [
#408
b100000 "
b100000 f
b1010 '
b1010 c
b1111011 #
b1111011 e
b0 X
b0 g
b0 Z
#410
b1111 '
b1111 c
b111001000 #
b111001000 e
b1 X
b1 g
b1 Z
#412
b100000000 "
b100000000 f
b1011 '
b1011 c
b0 #
b0 e
1)
1&
b10 X
b10 g
b10 Z
#414
b101000000 "
b101000000 f
b1100 '
b1100 c
bx #
bx e
0&
b11 %
b11 d
0$
b11 X
b11 g
b11 Z
#416
b0 "
b0 f
b10100 '
b10100 c
b1111100111 #
b1111100111 e
1&
b0 %
b0 d
1$
b100 X
b100 g
b100 Z
#418
b10 "
b10 f
b10110 '
b10110 c
bx #
bx e
0&
b101 X
b101 g
b101 Z
#420
bx "
bx f
bx '
bx c
0)
b110 X
b110 g
b110 Z
#422
b111 X
b111 g
b111 Z
#424
b1000 X
b1000 g
b1000 Z
#426
b1001 X
b1001 g
b1001 Z
#428
b1010 X
b1010 g
b1010 Z
#430
b1011 X
b1011 g
b1011 Z
#432
b1100 X
b1100 g
b1100 Z
#434
b1101 X
b1101 g
b1101 Z
#436
b1110 X
b1110 g
b1110 Z
#438
b1111 X
b1111 g
b1111 Z
#440
0V
1W
b10000 Z
#441
b11 !
b11 ("
b1011 2
b1011 $"
b100000000 0
b100000000 &"
1V
#442
0W
#444
b100000 "
b100000 f
b1010 '
b1010 c
b1111011 #
b1111011 e
b0 X
b0 g
b0 Z
#446
b1111 '
b1111 c
b111001000 #
b111001000 e
b1 X
b1 g
b1 Z
#448
b100000000 "
b100000000 f
b1011 '
b1011 c
b0 #
b0 e
b10 X
b10 g
b10 Z
#450
b101000000 "
b101000000 f
b1100 '
b1100 c
bx #
bx e
1)
b11 %
b11 d
0$
b11 X
b11 g
b11 Z
#452
b0 "
b0 f
b10100 '
b10100 c
b1111100111 #
b1111100111 e
1&
b0 %
b0 d
1$
b100 X
b100 g
b100 Z
#454
b10 "
b10 f
b10110 '
b10110 c
bx #
bx e
0&
b101 X
b101 g
b101 Z
#456
bx "
bx f
bx '
bx c
0)
b110 X
b110 g
b110 Z
#458
b111 X
b111 g
b111 Z
#460
b1000 X
b1000 g
b1000 Z
#462
b1001 X
b1001 g
b1001 Z
#464
b1010 X
b1010 g
b1010 Z
#466
b1011 X
b1011 g
b1011 Z
#468
b1100 X
b1100 g
b1100 Z
#470
b1101 X
b1101 g
b1101 Z
#472
b1110 X
b1110 g
b1110 Z
#474
b1111 X
b1111 g
b1111 Z
#476
0V
1W
b10000 Z
#477
b0 2
b0 $"
b0 0
b0 &"
1V
#478
0W
#480
b100000 "
b100000 f
b1010 '
b1010 c
b1111011 #
b1111011 e
b0 X
b0 g
b0 Z
#482
b1111 '
b1111 c
b111001000 #
b111001000 e
b1 X
b1 g
b1 Z
#484
b100000000 "
b100000000 f
b1011 '
b1011 c
b0 #
b0 e
b10 X
b10 g
b10 Z
#486
b101000000 "
b101000000 f
b1100 '
b1100 c
bx #
bx e
1)
b11 %
b11 d
0$
b11 X
b11 g
b11 Z
#488
b0 "
b0 f
b10100 '
b10100 c
b1111100111 #
b1111100111 e
1&
b0 %
b0 d
1$
b100 X
b100 g
b100 Z
#490
b10 "
b10 f
b10110 '
b10110 c
bx #
bx e
0&
b101 X
b101 g
b101 Z
#492
bx "
bx f
bx '
bx c
0)
b110 X
b110 g
b110 Z
#494
b111 X
b111 g
b111 Z
#496
b1000 X
b1000 g
b1000 Z
#498
b1001 X
b1001 g
b1001 Z
#500
b1010 X
b1010 g
b1010 Z
#502
b1011 X
b1011 g
b1011 Z
#504
b1100 X
b1100 g
b1100 Z
#506
b1101 X
b1101 g
b1101 Z
#508
b1110 X
b1110 g
b1110 Z
#510
b1111 X
b1111 g
b1111 Z
#512
0V
1M
b1101111 O
b1101111 \
b100 N
b100 [
1W
b10000 Z
#513
0-
1V
#514
0W
b0 N
b0 [
#516
b100000 "
b100000 f
b1010 '
b1010 c
b1111011 #
b1111011 e
b0 X
b0 g
b0 Z
#518
b1111 '
b1111 c
b111001000 #
b111001000 e
b1 X
b1 g
b1 Z
#520
b100000000 "
b100000000 f
b1011 '
b1011 c
b0 #
b0 e
b10 X
b10 g
b10 Z
#522
b101000000 "
b101000000 f
b1100 '
b1100 c
b1101111 #
b1101111 e
1)
1&
b10 %
b10 d
b11 X
b11 g
b11 Z
#524
b0 "
b0 f
b10100 '
b10100 c
b1111100111 #
b1111100111 e
b0 %
b0 d
b100 X
b100 g
b100 Z
#526
b10 "
b10 f
b10110 '
b10110 c
bx #
bx e
0&
b101 X
b101 g
b101 Z
#528
bx "
bx f
bx '
bx c
0)
b110 X
b110 g
b110 Z
#530
b111 X
b111 g
b111 Z
#532
b1000 X
b1000 g
b1000 Z
#534
b1001 X
b1001 g
b1001 Z
#536
b1010 X
b1010 g
b1010 Z
#538
b1011 X
b1011 g
b1011 Z
#540
b1100 X
b1100 g
b1100 Z
#542
b1101 X
b1101 g
b1101 Z
#544
b1110 X
b1110 g
b1110 Z
#546
b1111 X
b1111 g
b1111 Z
#548
0V
1W
b10000 Z
#549
b100 !
b100 ("
b1101111 1
b1101111 %"
b1100 2
b1100 $"
b101000000 0
b101000000 &"
1V
#550
0W
#552
b100000 "
b100000 f
b1010 '
b1010 c
b1111011 #
b1111011 e
b0 X
b0 g
b0 Z
#554
b1111 '
b1111 c
b111001000 #
b111001000 e
b1 X
b1 g
b1 Z
#556
b100000000 "
b100000000 f
b1011 '
b1011 c
b0 #
b0 e
b10 X
b10 g
b10 Z
#558
b101000000 "
b101000000 f
b1100 '
b1100 c
b1101111 #
b1101111 e
b10 %
b10 d
b11 X
b11 g
b11 Z
#560
b0 "
b0 f
b10100 '
b10100 c
b1111100111 #
b1111100111 e
1)
1&
b0 %
b0 d
b100 X
b100 g
b100 Z
#562
b10 "
b10 f
b10110 '
b10110 c
bx #
bx e
0&
b101 X
b101 g
b101 Z
#564
bx "
bx f
bx '
bx c
0)
b110 X
b110 g
b110 Z
#566
b111 X
b111 g
b111 Z
#568
b1000 X
b1000 g
b1000 Z
#570
b1001 X
b1001 g
b1001 Z
#572
b1010 X
b1010 g
b1010 Z
#574
b1011 X
b1011 g
b1011 Z
#576
b1100 X
b1100 g
b1100 Z
#578
b1101 X
b1101 g
b1101 Z
#580
b1110 X
b1110 g
b1110 Z
#582
b1111 X
b1111 g
b1111 Z
#584
0V
b11011110 O
b11011110 \
b110 N
b110 [
1W
b10000 Z
#585
b101 !
b101 ("
b100 3
b100 #"
b1111100111 1
b1111100111 %"
b10100 2
b10100 $"
b0 0
b0 &"
1V
#586
0W
b0 N
b0 [
#588
b100000 "
b100000 f
b1010 '
b1010 c
b1111011 #
b1111011 e
b0 X
b0 g
b0 Z
#590
b1111 '
b1111 c
b111001000 #
b111001000 e
b1 X
b1 g
b1 Z
#592
b100000000 "
b100000000 f
b1011 '
b1011 c
b0 #
b0 e
b10 X
b10 g
b10 Z
#594
b101000000 "
b101000000 f
b1100 '
b1100 c
b1101111 #
b1101111 e
b10 %
b10 d
b11 X
b11 g
b11 Z
#596
b0 "
b0 f
b10100 '
b10100 c
b1111100111 #
b1111100111 e
b0 %
b0 d
b100 X
b100 g
b100 Z
#598
b10 "
b10 f
b10110 '
b10110 c
b11011110 #
b11011110 e
1)
1&
b101 X
b101 g
b101 Z
#600
bx "
bx f
bx '
bx c
bx #
bx e
0)
0&
b110 X
b110 g
b110 Z
#602
b111 X
b111 g
b111 Z
#604
b1000 X
b1000 g
b1000 Z
#606
b1001 X
b1001 g
b1001 Z
#608
b1010 X
b1010 g
b1010 Z
#610
b1011 X
b1011 g
b1011 Z
#612
b1100 X
b1100 g
b1100 Z
#614
b1101 X
b1101 g
b1101 Z
#616
b1110 X
b1110 g
b1110 Z
#618
b1111 X
b1111 g
b1111 Z
#620
0V
1W
b10000 Z
#621
b110 !
b110 ("
b10 0
b10 &"
b100 3
b100 #"
b11011110 1
b11011110 %"
b10110 2
b10110 $"
1V
#622
0W
#624
b100000 "
b100000 f
b1010 '
b1010 c
b1111011 #
b1111011 e
b0 X
b0 g
b0 Z
#626
b1111 '
b1111 c
b111001000 #
b111001000 e
b1 X
b1 g
b1 Z
#628
b100000000 "
b100000000 f
b1011 '
b1011 c
b0 #
b0 e
b10 X
b10 g
b10 Z
#630
b101000000 "
b101000000 f
b1100 '
b1100 c
b1101111 #
b1101111 e
b10 %
b10 d
b11 X
b11 g
b11 Z
#632
b0 "
b0 f
b10100 '
b10100 c
b1111100111 #
b1111100111 e
b0 %
b0 d
b100 X
b100 g
b100 Z
#634
b10 "
b10 f
b10110 '
b10110 c
b11011110 #
b11011110 e
b101 X
b101 g
b101 Z
#636
bx "
bx f
bx '
bx c
bx #
bx e
b110 X
b110 g
b110 Z
#638
b111 X
b111 g
b111 Z
#640
b1000 X
b1000 g
b1000 Z
#642
b1001 X
b1001 g
b1001 Z
#644
b1010 X
b1010 g
b1010 Z
#646
b1011 X
b1011 g
b1011 Z
#648
b1100 X
b1100 g
b1100 Z
#650
b1101 X
b1101 g
b1101 Z
#652
b1110 X
b1110 g
b1110 Z
#654
b1111 X
b1111 g
b1111 Z
#656
0V
1W
b10000 Z
#657
b0 3
b0 #"
b0 1
b0 %"
b0 2
b0 $"
b0 0
b0 &"
1V
#658
0W
#660
b100000 "
b100000 f
b1010 '
b1010 c
b1111011 #
b1111011 e
b0 X
b0 g
b0 Z
#662
b1111 '
b1111 c
b111001000 #
b111001000 e
b1 X
b1 g
b1 Z
#664
b100000000 "
b100000000 f
b1011 '
b1011 c
b0 #
b0 e
b10 X
b10 g
b10 Z
#666
b101000000 "
b101000000 f
b1100 '
b1100 c
b1101111 #
b1101111 e
b10 %
b10 d
b11 X
b11 g
b11 Z
#668
b0 "
b0 f
b10100 '
b10100 c
b1111100111 #
b1111100111 e
b0 %
b0 d
b100 X
b100 g
b100 Z
#670
b10 "
b10 f
b10110 '
b10110 c
b11011110 #
b11011110 e
b101 X
b101 g
b101 Z
#672
bx "
bx f
bx '
bx c
bx #
bx e
b110 X
b110 g
b110 Z
#674
b111 X
b111 g
b111 Z
#676
b1000 X
b1000 g
b1000 Z
#678
b1001 X
b1001 g
b1001 Z
#680
b1010 X
b1010 g
b1010 Z
#682
b1011 X
b1011 g
b1011 Z
#684
b1100 X
b1100 g
b1100 Z
#686
b1101 X
b1101 g
b1101 Z
#688
b1110 X
b1110 g
b1110 Z
#690
b1111 X
b1111 g
b1111 Z
#692
0V
1U
b1010 P
b1010 ]
b100000 Q
b100000 ^
1W
b10000 Z
#693
b111 .
b111 '"
1V
#694
0V
#695
b1000 .
b1000 '"
1V
#696
0V
#697
b1001 .
b1001 '"
1V
#698
0V
#699
b1010 .
b1010 '"
1V
#700
0V
#701
b1011 .
b1011 '"
1V
#702
0V
#703
b1100 .
b1100 '"
1V
#704
0V
#705
b1101 .
b1101 '"
1V
#706
0V
#707
b1110 .
b1110 '"
1V
#708
0V
#709
b1111 .
b1111 '"
1V
#710
0V
#711
b0 .
b0 '"
1)
b1010 '
b1010 c
b100000 "
b100000 f
1V
#712
0V
#713
b1 .
b1 '"
1V
#714
0V
#715
b10 .
b10 '"
1V
#716
0V
#717
b11 .
b11 '"
1V
#718
0V
#719
b100 .
b100 '"
1V
#720
0W
#722
b1111011 #
b1111011 e
b0 X
b0 g
b0 Z
#724
b111001000 #
b111001000 e
b1 X
b1 g
b1 Z
#726
b0 #
b0 e
b10 X
b10 g
b10 Z
#728
b1101111 #
b1101111 e
b11 X
b11 g
b11 Z
#730
b0 "
b0 f
b10100 '
b10100 c
b1111100111 #
b1111100111 e
0)
b100 X
b100 g
b100 Z
