SSOOO/Reorder Buffer/testout.vcd
$date
	Sun Dec 22 01:16:24 2024
$end
$version
	Icarus Verilog
$end
$timescale
	1s
$end
$scope module ROB_tb $end
$var wire 4 ! Start_Index [3:0] $end
$var wire 12 " Reg_opcode_test [11:0] $end
$var wire 32 # Reg_Write_Data_test [31:0] $end
$var wire 1 $ Reg_Valid_test $end
$var wire 2 % Reg_Speculation_test [1:0] $end
$var wire 1 & Reg_Ready_test $end
$var wire 5 ' Reg_Rd_test [4:0] $end
$var wire 32 ( Reg_Mem_Addr_test [31:0] $end
$var wire 1 ) Reg_Exception_test $end
$var wire 1 * Reg_Busy_test $end
$var wire 1 + FULL_FLAG $end
$var wire 1 , FLUSH_Flag $end
$var wire 4 - End_Index [3:0] $end
$var wire 1 . EXCEPTION_Flag $end
$var wire 12 / Commit_opcode [11:0] $end
$var wire 32 0 Commit_Write_Data [31:0] $end
$var wire 5 1 Commit_Rd [4:0] $end
$var wire 32 2 Commit_Mem_Addr [31:0] $end
$var wire 3 3 Commit_Control_Signals [2:0] $end
$var parameter 12 4 add $end
$var parameter 12 5 addi $end
$var parameter 12 6 addu $end
$var parameter 12 7 and_ $end
$var parameter 12 8 andi $end
$var parameter 12 9 beq $end
$var parameter 12 : bne $end
$var parameter 12 ; hlt_inst $end
$var parameter 12 < j $end
$var parameter 12 = jal $end
$var parameter 12 > jr $end
$var parameter 12 ? lw $end
$var parameter 12 @ nor_ $end
$var parameter 12 A or_ $end
$var parameter 12 B ori $end
$var parameter 12 C sgt $end
$var parameter 12 D sll $end
$var parameter 12 E slt $end
$var parameter 12 F slti $end
$var parameter 12 G srl $end
$var parameter 12 H sub $end
$var parameter 12 I subu $end
$var parameter 12 J sw $end
$var parameter 12 K xor_ $end
$var parameter 12 L xori $end
$var reg 32 M Addr_Unit_Mem_Addr [31:0] $end
$var reg 5 N Addr_Unit_ROBEN [4:0] $end
$var reg 1 O CDB_Branch_Decision $end
$var reg 5 P CDB_ROBEN [4:0] $end
$var reg 32 Q CDB_ROBEN_Write_Data [31:0] $end
$var reg 5 R Decoded_Rd [4:0] $end
$var reg 12 S Decoded_opcode [11:0] $end
$var reg 1 T Decoded_prediction $end
$var reg 1 U VALID_Inst $end
$var reg 1 V clk $end
$var reg 1 W clk_en $end
$var reg 5 X index_test [4:0] $end
$var reg 1 Y rst $end
$var integer 32 Z i [31:0] $end
$scope module dut $end
$var wire 32 [ Addr_Unit_Mem_Addr [31:0] $end
$var wire 5 \ Addr_Unit_ROBEN [4:0] $end
$var wire 1 O CDB_Branch_Decision $end
$var wire 5 ] CDB_ROBEN [4:0] $end
$var wire 32 ^ CDB_ROBEN_Write_Data [31:0] $end
$var wire 5 _ Decoded_Rd [4:0] $end
$var wire 12 ` Decoded_opcode [11:0] $end
$var wire 1 T Decoded_prediction $end
$var wire 1 . EXCEPTION_Flag $end
$var wire 1 , FLUSH_Flag $end
$var wire 1 + FULL_FLAG $end
$var wire 1 * Reg_Busy_test $end
$var wire 1 ) Reg_Exception_test $end
$var wire 32 a Reg_Mem_Addr_test [31:0] $end
$var wire 5 b Reg_Rd_test [4:0] $end
$var wire 1 & Reg_Ready_test $end
$var wire 2 c Reg_Speculation_test [1:0] $end
$var wire 1 $ Reg_Valid_test $end
$var wire 32 d Reg_Write_Data_test [31:0] $end
$var wire 12 e Reg_opcode_test [11:0] $end
$var wire 1 U VALID_Inst $end
$var wire 1 V clk $end
$var wire 5 f index_test [4:0] $end
$var wire 1 Y rst $end
$var parameter 12 g add $end
$var parameter 12 h addi $end
$var parameter 12 i addu $end
$var parameter 12 j and_ $end
$var parameter 12 k andi $end
$var parameter 12 l beq $end
$var parameter 12 m bne $end
$var parameter 12 n hlt_inst $end
$var parameter 12 o j $end
$var parameter 12 p jal $end
$var parameter 12 q jr $end
$var parameter 12 r lw $end
$var parameter 12 s nor_ $end
$var parameter 12 t or_ $end
$var parameter 12 u ori $end
$var parameter 12 v sgt $end
$var parameter 12 w sll $end
$var parameter 12 x slt $end
$var parameter 12 y slti $end
$var parameter 12 z srl $end
$var parameter 12 { sub $end
$var parameter 12 | subu $end
$var parameter 12 } sw $end
$var parameter 12 ~ xor_ $end
$var parameter 12 !" xori $end
$var reg 3 "" Commit_Control_Signals [2:0] $end
$var reg 32 #" Commit_Mem_Addr [31:0] $end
$var reg 5 $" Commit_Rd [4:0] $end
$var reg 32 %" Commit_Write_Data [31:0] $end
$var reg 12 &" Commit_opcode [11:0] $end
$var reg 4 '" End_Index [3:0] $end
$var reg 4 (" Start_Index [3:0] $end
$var reg 5 )" i [4:0] $end
$var reg 5 *" k [4:0] $end
$upscope $end
$upscope $end
$enddefinitions $end
$comment Show the parameter values. $end
$dumpall
b1110000000 !"
b100110 ~
b101011000000 }
b100011 |
b100010 {
b10 z
b1010000000 y
b101010 x
b0 w
b101011 v
b1101000000 u
b100101 t
b100111 s
b100011000000 r
b1000 q
b11000000 p
b10000000 o
b111111000000 n
b101000000 m
b100000000 l
b1100000000 k
b100100 j
b100001 i
b1000000000 h
b100000 g
b1110000000 L
b100110 K
b101011000000 J
b100011 I
b100010 H
b10 G
b1010000000 F
b101010 E
b0 D
b101011 C
b1101000000 B
b100101 A
b100111 @
b100011000000 ?
b1000 >
b11000000 =
b10000000 <
b111111000000 ;
b101000000 :
b100000000 9
b1100000000 8
b100100 7
b100001 6
b1000000000 5
b100000 4
$end
#0
$dumpvars
b0 *"
b0 )"
bx ("
bx '"
bx &"
bx %"
bx $"
bx #"
bx ""
bx f
bx e
bx d
bx c
bx b
bx a
bx `
bx _
bx ^
bx ]
bx \
bx [
bx Z
0Y
bx X
1W
0V
xU
xT
bx S
bx R
bx Q
bx P
xO
bx N
bx M
bx 3
bx 2
bx 1
bx 0
bx /
x.
bx -
x,
x+
x*
x)
bx (
bx '
x&
bx %
x$
bx #
bx "
bx !
$end
#1
b0 3
b0 ""
b0 2
b0 #"
b0 0
b0 %"
b0 1
b0 $"
b0 /
b0 &"
1V
#2
0V
0+
0.
0,
b0 !
b0 ("
b0 -
b0 '"
b10000 )"
1Y
#3
b10000 )"
1V
#4
0*
0&
b0 %
b0 c
0)
1$
b0 X
b0 f
b0 Z
0W
0Y
#6
b1 X
b1 f
b1 Z
#8
b10 X
b10 f
b10 Z
#10
b11 X
b11 f
b11 Z
#12
b100 X
b100 f
b100 Z
#14
b101 X
b101 f
b101 Z
#16
b110 X
b110 f
b110 Z
#18
b111 X
b111 f
b111 Z
#20
b1000 X
b1000 f
b1000 Z
#22
b1001 X
b1001 f
b1001 Z
#24
b1010 X
b1010 f
b1010 Z
#26
b1011 X
b1011 f
b1011 Z
#28
b1100 X
b1100 f
b1100 Z
#30
b1101 X
b1101 f
b1101 Z
#32
b1110 X
b1110 f
b1110 Z
#34
b1111 X
b1111 f
b1111 Z
#36
0V
0U
0T
b1010 R
b1010 _
b100000 S
b100000 `
1W
b10000 Z
#37
1V
#38
b0 X
b0 f
b0 Z
0W
#40
b1 X
b1 f
b1 Z
#42
b10 X
b10 f
b10 Z
#44
b11 X
b11 f
b11 Z
#46
b100 X
b100 f
b100 Z
#48
b101 X
b101 f
b101 Z
#50
b110 X
b110 f
b110 Z
#52
b111 X
b111 f
b111 Z
#54
b1000 X
b1000 f
b1000 Z
#56
b1001 X
b1001 f
b1001 Z
#58
b1010 X
b1010 f
b1010 Z
#60
b1011 X
b1011 f
b1011 Z
#62
b1100 X
b1100 f
b1100 Z
#64
b1101 X
b1101 f
b1101 Z
#66
b1110 X
b1110 f
b1110 Z
#68
b1111 X
b1111 f
b1111 Z
#70
0V
1U
1W
b10000 Z
#71
b1 -
b1 '"
1V
#72
0V
b1111 R
b1111 _
#73
b10 -
b10 '"
1V
#74
b100000 "
b100000 e
b1010 '
b1010 b
1*
b0 X
b0 f
b0 Z
0W
0U
#76
b1111 '
b1111 b
b1 X
b1 f
b1 Z
#78
bx "
bx e
bx '
bx b
0*
b10 X
b10 f
b10 Z
#80
b11 X
b11 f
b11 Z
#82
b100 X
b100 f
b100 Z
#84
b101 X
b101 f
b101 Z
#86
b110 X
b110 f
b110 Z
#88
b111 X
b111 f
b111 Z
#90
b1000 X
b1000 f
b1000 Z
#92
b1001 X
b1001 f
b1001 Z
#94
b1010 X
b1010 f
b1010 Z
#96
b1011 X
b1011 f
b1011 Z
#98
b1100 X
b1100 f
b1100 Z
#100
b1101 X
b1101 f
b1101 Z
#102
b1110 X
b1110 f
b1110 Z
#104
b1111 X
b1111 f
b1111 Z
#106
0V
1U
b1011 R
b1011 _
b100000000 S
b100000000 `
1W
b10000 Z
#107
b11 -
b11 '"
1V
#108
b100000 "
b100000 e
b1010 '
b1010 b
1*
b0 X
b0 f
b0 Z
0W
0U
#110
b1111 '
b1111 b
b1 X
b1 f
b1 Z
#112
b100000000 "
b100000000 e
b1011 '
b1011 b
b1 %
b1 c
0$
b10 X
b10 f
b10 Z
#114
bx "
bx e
bx '
bx b
0*
b0 %
b0 c
1$
b11 X
b11 f
b11 Z
#116
b100 X
b100 f
b100 Z
#118
b101 X
b101 f
b101 Z
#120
b110 X
b110 f
b110 Z
#122
b111 X
b111 f
b111 Z
#124
b1000 X
b1000 f
b1000 Z
#126
b1001 X
b1001 f
b1001 Z
#128
b1010 X
b1010 f
b1010 Z
#130
b1011 X
b1011 f
b1011 Z
#132
b1100 X
b1100 f
b1100 Z
#134
b1101 X
b1101 f
b1101 Z
#136
b1110 X
b1110 f
b1110 Z
#138
b1111 X
b1111 f
b1111 Z
#140
0V
1U
1T
b1100 R
b1100 _
b101000000 S
b101000000 `
1W
b10000 Z
#141
b100 -
b100 '"
1V
#142
b100000 "
b100000 e
b1010 '
b1010 b
1*
b0 X
b0 f
b0 Z
0W
0U
#144
b1111 '
b1111 b
b1 X
b1 f
b1 Z
#146
b100000000 "
b100000000 e
b1011 '
b1011 b
b1 %
b1 c
0$
b10 X
b10 f
b10 Z
#148
b101000000 "
b101000000 e
b1100 '
b1100 b
b11 %
b11 c
b11 X
b11 f
b11 Z
#150
bx "
bx e
bx '
bx b
0*
b0 %
b0 c
1$
b100 X
b100 f
b100 Z
#152
b101 X
b101 f
b101 Z
#154
b110 X
b110 f
b110 Z
#156
b111 X
b111 f
b111 Z
#158
b1000 X
b1000 f
b1000 Z
#160
b1001 X
b1001 f
b1001 Z
#162
b1010 X
b1010 f
b1010 Z
#164
b1011 X
b1011 f
b1011 Z
#166
b1100 X
b1100 f
b1100 Z
#168
b1101 X
b1101 f
b1101 Z
#170
b1110 X
b1110 f
b1110 Z
#172
b1111 X
b1111 f
b1111 Z
#174
0V
b1111011 Q
b1111011 ^
b101 P
b101 ]
1W
b10000 Z
#175
1V
#176
0V
#177
1V
#178
b100000 "
b100000 e
b1010 '
b1010 b
1*
b0 X
b0 f
b0 Z
0W
#180
b1111 '
b1111 b
b1 X
b1 f
b1 Z
#182
b100000000 "
b100000000 e
b1011 '
b1011 b
b1 %
b1 c
0$
b10 X
b10 f
b10 Z
#184
b101000000 "
b101000000 e
b1100 '
b1100 b
b11 %
b11 c
b11 X
b11 f
b11 Z
#186
bx "
bx e
bx '
bx b
0*
b0 %
b0 c
1$
b100 X
b100 f
b100 Z
#188
b101 X
b101 f
b101 Z
#190
b110 X
b110 f
b110 Z
#192
b111 X
b111 f
b111 Z
#194
b1000 X
b1000 f
b1000 Z
#196
b1001 X
b1001 f
b1001 Z
#198
b1010 X
b1010 f
b1010 Z
#200
b1011 X
b1011 f
b1011 Z
#202
b1100 X
b1100 f
b1100 Z
#204
b1101 X
b1101 f
b1101 Z
#206
b1110 X
b1110 f
b1110 Z
#208
b1111 X
b1111 f
b1111 Z
#210
0V
b1 P
b1 ]
1W
b10000 Z
#211
b1 !
b1 ("
b100 3
b100 ""
bx 2
bx #"
b1111011 0
b1111011 %"
b1010 1
b1010 $"
b100000 /
b100000 &"
1V
#212
b100000 "
b100000 e
b1010 '
b1010 b
b1111011 #
b1111011 d
b0 X
b0 f
b0 Z
0W
#214
b1111 '
b1111 b
bx #
bx d
1*
b1 X
b1 f
b1 Z
#216
b100000000 "
b100000000 e
b1011 '
b1011 b
b1 %
b1 c
0$
b10 X
b10 f
b10 Z
#218
b101000000 "
b101000000 e
b1100 '
b1100 b
b11 %
b11 c
b11 X
b11 f
b11 Z
#220
bx "
bx e
bx '
bx b
0*
b0 %
b0 c
1$
b100 X
b100 f
b100 Z
#222
b101 X
b101 f
b101 Z
#224
b110 X
b110 f
b110 Z
#226
b111 X
b111 f
b111 Z
#228
b1000 X
b1000 f
b1000 Z
#230
b1001 X
b1001 f
b1001 Z
#232
b1010 X
b1010 f
b1010 Z
#234
b1011 X
b1011 f
b1011 Z
#236
b1100 X
b1100 f
b1100 Z
#238
b1101 X
b1101 f
b1101 Z
#240
b1110 X
b1110 f
b1110 Z
#242
b1111 X
b1111 f
b1111 Z
#244
0V
b111001000 Q
b111001000 ^
b10 P
b10 ]
1W
b10000 Z
#245
b10 !
b10 ("
b100 3
b100 ""
bx 2
bx #"
b111001000 0
b111001000 %"
b1111 1
b1111 $"
b100000 /
b100000 &"
1V
#246
b100000 "
b100000 e
b1010 '
b1010 b
b1111011 #
b1111011 d
b0 X
b0 f
b0 Z
0W
b0 P
b0 ]
#248
b1111 '
b1111 b
b111001000 #
b111001000 d
b1 X
b1 f
b1 Z
#250
b100000000 "
b100000000 e
b1011 '
b1011 b
bx #
bx d
1*
b1 %
b1 c
0$
b10 X
b10 f
b10 Z
#252
b101000000 "
b101000000 e
b1100 '
b1100 b
b11 %
b11 c
b11 X
b11 f
b11 Z
#254
bx "
bx e
bx '
bx b
0*
b0 %
b0 c
1$
b100 X
b100 f
b100 Z
#256
b101 X
b101 f
b101 Z
#258
b110 X
b110 f
b110 Z
#260
b111 X
b111 f
b111 Z
#262
b1000 X
b1000 f
b1000 Z
#264
b1001 X
b1001 f
b1001 Z
#266
b1010 X
b1010 f
b1010 Z
#268
b1011 X
b1011 f
b1011 Z
#270
b1100 X
b1100 f
b1100 Z
#272
b1101 X
b1101 f
b1101 Z
#274
b1110 X
b1110 f
b1110 Z
#276
b1111 X
b1111 f
b1111 Z
#278
0V
1W
b10000 Z
#279
b0 3
b0 ""
b0 2
b0 #"
b0 0
b0 %"
b0 1
b0 $"
b0 /
b0 &"
1V
#280
b100000 "
b100000 e
b1010 '
b1010 b
b1111011 #
b1111011 d
b0 X
b0 f
b0 Z
0W
#282
b1111 '
b1111 b
b111001000 #
b111001000 d
b1 X
b1 f
b1 Z
#284
b100000000 "
b100000000 e
b1011 '
b1011 b
bx #
bx d
1*
b1 %
b1 c
0$
b10 X
b10 f
b10 Z
#286
b101000000 "
b101000000 e
b1100 '
b1100 b
b11 %
b11 c
b11 X
b11 f
b11 Z
#288
bx "
bx e
bx '
bx b
0*
b0 %
b0 c
1$
b100 X
b100 f
b100 Z
#290
b101 X
b101 f
b101 Z
#292
b110 X
b110 f
b110 Z
#294
b111 X
b111 f
b111 Z
#296
b1000 X
b1000 f
b1000 Z
#298
b1001 X
b1001 f
b1001 Z
#300
b1010 X
b1010 f
b1010 Z
#302
b1011 X
b1011 f
b1011 Z
#304
b1100 X
b1100 f
b1100 Z
#306
b1101 X
b1101 f
b1101 Z
#308
b1110 X
b1110 f
b1110 Z
#310
b1111 X
b1111 f
b1111 Z
#312
0V
1U
0T
b10100 R
b10100 _
b0 S
b0 `
1W
b10000 Z
#313
b101 -
b101 '"
1V
#314
0V
b10110 R
b10110 _
b10 S
b10 `
#315
b110 -
b110 '"
1V
#316
b100000 "
b100000 e
b1010 '
b1010 b
b1111011 #
b1111011 d
b0 X
b0 f
b0 Z
0W
0U
#318
b1111 '
b1111 b
b111001000 #
b111001000 d
b1 X
b1 f
b1 Z
#320
b100000000 "
b100000000 e
b1011 '
b1011 b
bx #
bx d
1*
b1 %
b1 c
0$
b10 X
b10 f
b10 Z
#322
b101000000 "
b101000000 e
b1100 '
b1100 b
b11 %
b11 c
b11 X
b11 f
b11 Z
#324
b0 "
b0 e
b10100 '
b10100 b
b0 %
b0 c
1$
b100 X
b100 f
b100 Z
#326
b10 "
b10 e
b10110 '
b10110 b
b101 X
b101 f
b101 Z
#328
bx "
bx e
bx '
bx b
0*
b110 X
b110 f
b110 Z
#330
b111 X
b111 f
b111 Z
#332
b1000 X
b1000 f
b1000 Z
#334
b1001 X
b1001 f
b1001 Z
#336
b1010 X
b1010 f
b1010 Z
#338
b1011 X
b1011 f
b1011 Z
#340
b1100 X
b1100 f
b1100 Z
#342
b1101 X
b1101 f
b1101 Z
#344
b1110 X
b1110 f
b1110 Z
#346
b1111 X
b1111 f
b1111 Z
#348
0V
b1111100111 Q
b1111100111 ^
b101 P
b101 ]
1W
b10000 Z
#349
1V
#350
b100000 "
b100000 e
b1010 '
b1010 b
b1111011 #
b1111011 d
b0 X
b0 f
b0 Z
0W
#352
b1111 '
b1111 b
b111001000 #
b111001000 d
b1 X
b1 f
b1 Z
#354
b100000000 "
b100000000 e
b1011 '
b1011 b
bx #
bx d
1*
b1 %
b1 c
0$
b10 X
b10 f
b10 Z
#356
b101000000 "
b101000000 e
b1100 '
b1100 b
b11 %
b11 c
b11 X
b11 f
b11 Z
#358
b0 "
b0 e
b10100 '
b10100 b
b1111100111 #
b1111100111 d
1&
b0 %
b0 c
1$
b100 X
b100 f
b100 Z
#360
b10 "
b10 e
b10110 '
b10110 b
bx #
bx d
0&
b101 X
b101 f
b101 Z
#362
bx "
bx e
bx '
bx b
0*
b110 X
b110 f
b110 Z
#364
b111 X
b111 f
b111 Z
#366
b1000 X
b1000 f
b1000 Z
#368
b1001 X
b1001 f
b1001 Z
#370
b1010 X
b1010 f
b1010 Z
#372
b1011 X
b1011 f
b1011 Z
#374
b1100 X
b1100 f
b1100 Z
#376
b1101 X
b1101 f
b1101 Z
#378
b1110 X
b1110 f
b1110 Z
#380
b1111 X
b1111 f
b1111 Z
#382
0V
0O
b0 Q
b0 ^
b11 P
b11 ]
1W
b10000 Z
#383
0,
1V
#384
b100000 "
b100000 e
b1010 '
b1010 b
b1111011 #
b1111011 d
b0 X
b0 f
b0 Z
0W
b0 P
b0 ]
#386
b1111 '
b1111 b
b111001000 #
b111001000 d
b1 X
b1 f
b1 Z
#388
b100000000 "
b100000000 e
b1011 '
b1011 b
b0 #
b0 d
1*
1&
b10 X
b10 f
b10 Z
#390
b101000000 "
b101000000 e
b1100 '
b1100 b
bx #
bx d
0&
b11 %
b11 c
0$
b11 X
b11 f
b11 Z
#392
b0 "
b0 e
b10100 '
b10100 b
b1111100111 #
b1111100111 d
1&
b0 %
b0 c
1$
b100 X
b100 f
b100 Z
#394
b10 "
b10 e
b10110 '
b10110 b
bx #
bx d
0&
b101 X
b101 f
b101 Z
#396
bx "
bx e
bx '
bx b
0*
b110 X
b110 f
b110 Z
#398
b111 X
b111 f
b111 Z
#400
b1000 X
b1000 f
b1000 Z
#402
b1001 X
b1001 f
b1001 Z
#404
b1010 X
b1010 f
b1010 Z
#406
b1011 X
b1011 f
b1011 Z
#408
b1100 X
b1100 f
b1100 Z
#410
b1101 X
b1101 f
b1101 Z
#412
b1110 X
b1110 f
b1110 Z
#414
b1111 X
b1111 f
b1111 Z
#416
0V
1W
b10000 Z
#417
b11 !
b11 ("
bx 2
bx #"
b1011 1
b1011 $"
b100000000 /
b100000000 &"
1V
#418
b100000 "
b100000 e
b1010 '
b1010 b
b1111011 #
b1111011 d
b0 X
b0 f
b0 Z
0W
#420
b1111 '
b1111 b
b111001000 #
b111001000 d
b1 X
b1 f
b1 Z
#422
b100000000 "
b100000000 e
b1011 '
b1011 b
b0 #
b0 d
b10 X
b10 f
b10 Z
#424
b101000000 "
b101000000 e
b1100 '
b1100 b
bx #
bx d
1*
b11 %
b11 c
0$
b11 X
b11 f
b11 Z
#426
b0 "
b0 e
b10100 '
b10100 b
b1111100111 #
b1111100111 d
1&
b0 %
b0 c
1$
b100 X
b100 f
b100 Z
#428
b10 "
b10 e
b10110 '
b10110 b
bx #
bx d
0&
b101 X
b101 f
b101 Z
#430
bx "
bx e
bx '
bx b
0*
b110 X
b110 f
b110 Z
#432
b111 X
b111 f
b111 Z
#434
b1000 X
b1000 f
b1000 Z
#436
b1001 X
b1001 f
b1001 Z
#438
b1010 X
b1010 f
b1010 Z
#440
b1011 X
b1011 f
b1011 Z
#442
b1100 X
b1100 f
b1100 Z
#444
b1101 X
b1101 f
b1101 Z
#446
b1110 X
b1110 f
b1110 Z
#448
b1111 X
b1111 f
b1111 Z
#450
0V
1W
b10000 Z
#451
b0 2
b0 #"
b0 1
b0 $"
b0 /
b0 &"
1V
#452
b100000 "
b100000 e
b1010 '
b1010 b
b1111011 #
b1111011 d
b0 X
b0 f
b0 Z
0W
#454
b1111 '
b1111 b
b111001000 #
b111001000 d
b1 X
b1 f
b1 Z
#456
b100000000 "
b100000000 e
b1011 '
b1011 b
b0 #
b0 d
b10 X
b10 f
b10 Z
#458
b101000000 "
b101000000 e
b1100 '
b1100 b
bx #
bx d
1*
b11 %
b11 c
0$
b11 X
b11 f
b11 Z
#460
b0 "
b0 e
b10100 '
b10100 b
b1111100111 #
b1111100111 d
1&
b0 %
b0 c
1$
b100 X
b100 f
b100 Z
#462
b10 "
b10 e
b10110 '
b10110 b
bx #
bx d
0&
b101 X
b101 f
b101 Z
#464
bx "
bx e
bx '
bx b
0*
b110 X
b110 f
b110 Z
#466
b111 X
b111 f
b111 Z
#468
b1000 X
b1000 f
b1000 Z
#470
b1001 X
b1001 f
b1001 Z
#472
b1010 X
b1010 f
b1010 Z
#474
b1011 X
b1011 f
b1011 Z
#476
b1100 X
b1100 f
b1100 Z
#478
b1101 X
b1101 f
b1101 Z
#480
b1110 X
b1110 f
b1110 Z
#482
b1111 X
b1111 f
b1111 Z
#484
0V
1O
b1101111 Q
b1101111 ^
b100 P
b100 ]
1W
b10000 Z
#485
0,
1V
#486
b100000 "
b100000 e
b1010 '
b1010 b
b1111011 #
b1111011 d
b0 X
b0 f
b0 Z
0W
b0 P
b0 ]
#488
b1111 '
b1111 b
b111001000 #
b111001000 d
b1 X
b1 f
b1 Z
#490
b100000000 "
b100000000 e
b1011 '
b1011 b
b0 #
b0 d
b10 X
b10 f
b10 Z
#492
b101000000 "
b101000000 e
b1100 '
b1100 b
b1101111 #
b1101111 d
1*
1&
b10 %
b10 c
b11 X
b11 f
b11 Z
#494
b0 "
b0 e
b10100 '
b10100 b
b1111100111 #
b1111100111 d
b0 %
b0 c
b100 X
b100 f
b100 Z
#496
b10 "
b10 e
b10110 '
b10110 b
bx #
bx d
0&
b101 X
b101 f
b101 Z
#498
bx "
bx e
bx '
bx b
0*
b110 X
b110 f
b110 Z
#500
b111 X
b111 f
b111 Z
#502
b1000 X
b1000 f
b1000 Z
#504
b1001 X
b1001 f
b1001 Z
#506
b1010 X
b1010 f
b1010 Z
#508
b1011 X
b1011 f
b1011 Z
#510
b1100 X
b1100 f
b1100 Z
#512
b1101 X
b1101 f
b1101 Z
#514
b1110 X
b1110 f
b1110 Z
#516
b1111 X
b1111 f
b1111 Z
#518
0V
1W
b10000 Z
#519
b100 !
b100 ("
bx 2
bx #"
b1101111 0
b1101111 %"
b1100 1
b1100 $"
b101000000 /
b101000000 &"
1V
#520
b100000 "
b100000 e
b1010 '
b1010 b
b1111011 #
b1111011 d
b0 X
b0 f
b0 Z
0W
#522
b1111 '
b1111 b
b111001000 #
b111001000 d
b1 X
b1 f
b1 Z
#524
b100000000 "
b100000000 e
b1011 '
b1011 b
b0 #
b0 d
b10 X
b10 f
b10 Z
#526
b101000000 "
b101000000 e
b1100 '
b1100 b
b1101111 #
b1101111 d
b10 %
b10 c
b11 X
b11 f
b11 Z
#528
b0 "
b0 e
b10100 '
b10100 b
b1111100111 #
b1111100111 d
1*
1&
b0 %
b0 c
b100 X
b100 f
b100 Z
#530
b10 "
b10 e
b10110 '
b10110 b
bx #
bx d
0&
b101 X
b101 f
b101 Z
#532
bx "
bx e
bx '
bx b
0*
b110 X
b110 f
b110 Z
#534
b111 X
b111 f
b111 Z
#536
b1000 X
b1000 f
b1000 Z
#538
b1001 X
b1001 f
b1001 Z
#540
b1010 X
b1010 f
b1010 Z
#542
b1011 X
b1011 f
b1011 Z
#544
b1100 X
b1100 f
b1100 Z
#546
b1101 X
b1101 f
b1101 Z
#548
b1110 X
b1110 f
b1110 Z
#550
b1111 X
b1111 f
b1111 Z
#552
0V
b11011110 Q
b11011110 ^
b110 P
b110 ]
1W
b10000 Z
#553
b101 !
b101 ("
b100 3
b100 ""
bx 2
bx #"
b1111100111 0
b1111100111 %"
b10100 1
b10100 $"
b0 /
b0 &"
1V
#554
b100000 "
b100000 e
b1010 '
b1010 b
b1111011 #
b1111011 d
b0 X
b0 f
b0 Z
0W
b0 P
b0 ]
#556
b1111 '
b1111 b
b111001000 #
b111001000 d
b1 X
b1 f
b1 Z
#558
b100000000 "
b100000000 e
b1011 '
b1011 b
b0 #
b0 d
b10 X
b10 f
b10 Z
#560
b101000000 "
b101000000 e
b1100 '
b1100 b
b1101111 #
b1101111 d
b10 %
b10 c
b11 X
b11 f
b11 Z
#562
b0 "
b0 e
b10100 '
b10100 b
b1111100111 #
b1111100111 d
b0 %
b0 c
b100 X
b100 f
b100 Z
#564
b10 "
b10 e
b10110 '
b10110 b
b11011110 #
b11011110 d
1*
1&
b101 X
b101 f
b101 Z
#566
bx "
bx e
bx '
bx b
bx #
bx d
0*
0&
b110 X
b110 f
b110 Z
#568
b111 X
b111 f
b111 Z
#570
b1000 X
b1000 f
b1000 Z
#572
b1001 X
b1001 f
b1001 Z
#574
b1010 X
b1010 f
b1010 Z
#576
b1011 X
b1011 f
b1011 Z
#578
b1100 X
b1100 f
b1100 Z
#580
b1101 X
b1101 f
b1101 Z
#582
b1110 X
b1110 f
b1110 Z
#584
b1111 X
b1111 f
b1111 Z
#586
0V
1W
b10000 Z
#587
b110 !
b110 ("
b10 /
b10 &"
b100 3
b100 ""
bx 2
bx #"
b11011110 0
b11011110 %"
b10110 1
b10110 $"
1V
#588
b100000 "
b100000 e
b1010 '
b1010 b
b1111011 #
b1111011 d
b0 X
b0 f
b0 Z
0W
#590
b1111 '
b1111 b
b111001000 #
b111001000 d
b1 X
b1 f
b1 Z
#592
b100000000 "
b100000000 e
b1011 '
b1011 b
b0 #
b0 d
b10 X
b10 f
b10 Z
#594
b101000000 "
b101000000 e
b1100 '
b1100 b
b1101111 #
b1101111 d
b10 %
b10 c
b11 X
b11 f
b11 Z
#596
b0 "
b0 e
b10100 '
b10100 b
b1111100111 #
b1111100111 d
b0 %
b0 c
b100 X
b100 f
b100 Z
#598
b10 "
b10 e
b10110 '
b10110 b
b11011110 #
b11011110 d
b101 X
b101 f
b101 Z
#600
bx "
bx e
bx '
bx b
bx #
bx d
b110 X
b110 f
b110 Z
#602
b111 X
b111 f
b111 Z
#604
b1000 X
b1000 f
b1000 Z
#606
b1001 X
b1001 f
b1001 Z
#608
b1010 X
b1010 f
b1010 Z
#610
b1011 X
b1011 f
b1011 Z
#612
b1100 X
b1100 f
b1100 Z
#614
b1101 X
b1101 f
b1101 Z
#616
b1110 X
b1110 f
b1110 Z
#618
b1111 X
b1111 f
b1111 Z
#620
0V
1W
b10000 Z
#621
b0 3
b0 ""
b0 2
b0 #"
b0 0
b0 %"
b0 1
b0 $"
b0 /
b0 &"
1V
#622
b100000 "
b100000 e
b1010 '
b1010 b
b1111011 #
b1111011 d
b0 X
b0 f
b0 Z
0W
#624
b1111 '
b1111 b
b111001000 #
b111001000 d
b1 X
b1 f
b1 Z
#626
b100000000 "
b100000000 e
b1011 '
b1011 b
b0 #
b0 d
b10 X
b10 f
b10 Z
#628
b101000000 "
b101000000 e
b1100 '
b1100 b
b1101111 #
b1101111 d
b10 %
b10 c
b11 X
b11 f
b11 Z
#630
b0 "
b0 e
b10100 '
b10100 b
b1111100111 #
b1111100111 d
b0 %
b0 c
b100 X
b100 f
b100 Z
#632
b10 "
b10 e
b10110 '
b10110 b
b11011110 #
b11011110 d
b101 X
b101 f
b101 Z
#634
bx "
bx e
bx '
bx b
bx #
bx d
b110 X
b110 f
b110 Z
#636
b111 X
b111 f
b111 Z
#638
b1000 X
b1000 f
b1000 Z
#640
b1001 X
b1001 f
b1001 Z
#642
b1010 X
b1010 f
b1010 Z
#644
b1011 X
b1011 f
b1011 Z
#646
b1100 X
b1100 f
b1100 Z
#648
b1101 X
b1101 f
b1101 Z
#650
b1110 X
b1110 f
b1110 Z
#652
b1111 X
b1111 f
b1111 Z
#654
0V
1U
b1010 R
b1010 _
b100000 S
b100000 `
1W
b10000 Z
#655
b111 -
b111 '"
1V
#656
0V
#657
b1000 -
b1000 '"
1V
#658
0V
#659
b1001 -
b1001 '"
1V
#660
0V
#661
b1010 -
b1010 '"
1V
#662
0V
#663
b1011 -
b1011 '"
1V
#664
0V
#665
b1100 -
b1100 '"
1V
#666
0V
#667
b1101 -
b1101 '"
1V
#668
0V
#669
b1110 -
b1110 '"
1V
#670
0V
#671
b1111 -
b1111 '"
1V
#672
0V
#673
b0 -
b0 '"
1*
b1010 '
b1010 b
b100000 "
b100000 e
1V
#674
0V
#675
b1 -
b1 '"
1V
#676
0V
#677
b10 -
b10 '"
1V
#678
0V
#679
b11 -
b11 '"
1V
#680
0V
#681
b100 -
b100 '"
1V
#682
b1111011 #
b1111011 d
b0 X
b0 f
b0 Z
0W
#684
b111001000 #
b111001000 d
b1 X
b1 f
b1 Z
#686
b0 #
b0 d
b10 X
b10 f
b10 Z
#688
b1101111 #
b1101111 d
b11 X
b11 f
b11 Z
#690
b0 "
b0 e
b10100 '
b10100 b
b1111100111 #
b1111100111 d
0*
b100 X
b100 f
b100 Z
