SSOOO/Reorder Buffer/testout.vcd
$date
	Thu Dec 26 13:17:33 2024
$end
$version
	Icarus Verilog
$end
$timescale
	1s
$end
$scope module ROB_tb $end
$var wire 5 ! Start_Index [4:0] $end
$var wire 12 " Reg_opcode_test [11:0] $end
$var wire 32 # Reg_Write_Data_test [31:0] $end
$var wire 1 $ Reg_Valid_test $end
$var wire 2 % Reg_Speculation_test [1:0] $end
$var wire 1 & Reg_Ready_test $end
$var wire 5 ' Reg_Rd_test [4:0] $end
$var wire 1 ( Reg_Exception_test $end
$var wire 1 ) Reg_Busy_test $end
$var wire 32 * RP1_Write_Data2 [31:0] $end
$var wire 32 + RP1_Write_Data1 [31:0] $end
$var wire 1 , RP1_Ready2 $end
$var wire 1 - RP1_Ready1 $end
$var wire 1 . FULL_FLAG $end
$var wire 1 / FLUSH_Flag $end
$var wire 5 0 End_Index [4:0] $end
$var wire 1 1 EXCEPTION_Flag $end
$var wire 12 2 Commit_opcode [11:0] $end
$var wire 32 3 Commit_Write_Data [31:0] $end
$var wire 5 4 Commit_Rd [4:0] $end
$var wire 3 5 Commit_Control_Signals [2:0] $end
$var parameter 12 6 add $end
$var parameter 12 7 addi $end
$var parameter 12 8 addu $end
$var parameter 12 9 and_ $end
$var parameter 12 : andi $end
$var parameter 12 ; beq $end
$var parameter 12 < bne $end
$var parameter 12 = hlt_inst $end
$var parameter 12 > j $end
$var parameter 12 ? jal $end
$var parameter 12 @ jr $end
$var parameter 12 A lw $end
$var parameter 12 B nor_ $end
$var parameter 12 C or_ $end
$var parameter 12 D ori $end
$var parameter 12 E sgt $end
$var parameter 12 F sll $end
$var parameter 12 G slt $end
$var parameter 12 H slti $end
$var parameter 12 I srl $end
$var parameter 12 J sub $end
$var parameter 12 K subu $end
$var parameter 12 L sw $end
$var parameter 12 M xor_ $end
$var parameter 12 N xori $end
$var reg 1 O CDB_Branch_Decision $end
$var reg 5 P CDB_ROBEN [4:0] $end
$var reg 32 Q CDB_ROBEN_Write_Data [31:0] $end
$var reg 5 R Decoded_Rd [4:0] $end
$var reg 12 S Decoded_opcode [11:0] $end
$var reg 1 T Decoded_prediction $end
$var reg 5 U RP1_ROBEN1 [4:0] $end
$var reg 5 V RP1_ROBEN2 [4:0] $end
$var reg 1 W VALID_Inst $end
$var reg 1 X clk $end
$var reg 1 Y clk_en $end
$var reg 5 Z index_test [4:0] $end
$var reg 1 [ rst $end
$var integer 32 \ i [31:0] $end
$scope module dut $end
$var wire 1 O CDB_Branch_Decision $end
$var wire 5 ] CDB_ROBEN [4:0] $end
$var wire 32 ^ CDB_ROBEN_Write_Data [31:0] $end
$var wire 5 _ Decoded_Rd [4:0] $end
$var wire 12 ` Decoded_opcode [11:0] $end
$var wire 1 T Decoded_prediction $end
$var wire 1 1 EXCEPTION_Flag $end
$var wire 1 / FLUSH_Flag $end
$var wire 1 . FULL_FLAG $end
$var wire 5 a RP1_ROBEN1 [4:0] $end
$var wire 5 b RP1_ROBEN2 [4:0] $end
$var wire 1 - RP1_Ready1 $end
$var wire 1 , RP1_Ready2 $end
$var wire 32 c RP1_Write_Data1 [31:0] $end
$var wire 32 d RP1_Write_Data2 [31:0] $end
$var wire 1 ) Reg_Busy_test $end
$var wire 1 ( Reg_Exception_test $end
$var wire 5 e Reg_Rd_test [4:0] $end
$var wire 1 & Reg_Ready_test $end
$var wire 2 f Reg_Speculation_test [1:0] $end
$var wire 1 $ Reg_Valid_test $end
$var wire 32 g Reg_Write_Data_test [31:0] $end
$var wire 12 h Reg_opcode_test [11:0] $end
$var wire 1 W VALID_Inst $end
$var wire 1 X clk $end
$var wire 5 i index_test [4:0] $end
$var wire 1 [ rst $end
$var parameter 12 j add $end
$var parameter 12 k addi $end
$var parameter 12 l addu $end
$var parameter 12 m and_ $end
$var parameter 12 n andi $end
$var parameter 12 o beq $end
$var parameter 12 p bne $end
$var parameter 12 q hlt_inst $end
$var parameter 12 r j $end
$var parameter 12 s jal $end
$var parameter 12 t jr $end
$var parameter 12 u lw $end
$var parameter 12 v nor_ $end
$var parameter 12 w or_ $end
$var parameter 12 x ori $end
$var parameter 12 y sgt $end
$var parameter 12 z sll $end
$var parameter 12 { slt $end
$var parameter 12 | slti $end
$var parameter 12 } srl $end
$var parameter 12 ~ sub $end
$var parameter 12 !" subu $end
$var parameter 12 "" sw $end
$var parameter 12 #" xor_ $end
$var parameter 12 $" xori $end
$var reg 3 %" Commit_Control_Signals [2:0] $end
$var reg 5 &" Commit_Rd [4:0] $end
$var reg 32 '" Commit_Write_Data [31:0] $end
$var reg 12 (" Commit_opcode [11:0] $end
$var reg 5 )" End_Index [4:0] $end
$var reg 5 *" Start_Index [4:0] $end
$var reg 5 +" i [4:0] $end
$var reg 5 ," k [4:0] $end
$upscope $end
$upscope $end
$enddefinitions $end
$comment Show the parameter values. $end
$dumpall
b1110000000 $"
b100110 #"
b101011000000 ""
b100011 !"
b100010 ~
b10 }
b1010000000 |
b101010 {
b0 z
b101011 y
b1101000000 x
b100101 w
b100111 v
b100011000000 u
b1000 t
b11000000 s
b10000000 r
b111111000000 q
b101000000 p
b100000000 o
b1100000000 n
b100100 m
b100001 l
b1000000000 k
b100000 j
b1110000000 N
b100110 M
b101011000000 L
b100011 K
b100010 J
b10 I
b1010000000 H
b101010 G
b0 F
b101011 E
b1101000000 D
b100101 C
b100111 B
b100011000000 A
b1000 @
b11000000 ?
b10000000 >
b111111000000 =
b101000000 <
b100000000 ;
b1100000000 :
b100100 9
b100001 8
b1000000000 7
b100000 6
$end
#0
$dumpvars
b0 ,"
b0 +"
bx *"
bx )"
bx ("
bx '"
bx &"
bx %"
bx i
bx h
bx g
bx f
bx e
bx d
bx c
bx b
bx a
bx `
bx _
bx ^
bx ]
bx \
0[
bx Z
1Y
0X
xW
bx V
bx U
xT
bx S
bx R
bx Q
bx P
xO
bx 5
bx 4
bx 3
bx 2
x1
bx 0
x/
x.
x-
x,
bx +
bx *
x)
x(
bx '
x&
bx %
x$
bx #
bx "
bx !
$end
#1
b0 5
b0 %"
b0 3
b0 '"
b0 4
b0 &"
b0 2
b0 ("
1X
#2
0X
01
0/
0.
b1 !
b1 *"
b1 0
b1 )"
b10000 +"
1[
#3
b10000 +"
1X
#4
0,
0-
0Y
b10 V
b10 b
b1 U
b1 a
0[
#6
0)
0&
b0 %
b0 f
0(
1$
b0 Z
b0 i
b0 \
#8
b1 Z
b1 i
b1 \
#10
b10 Z
b10 i
b10 \
#12
b11 Z
b11 i
b11 \
#14
b100 Z
b100 i
b100 \
#16
b101 Z
b101 i
b101 \
#18
b110 Z
b110 i
b110 \
#20
b111 Z
b111 i
b111 \
#22
b1000 Z
b1000 i
b1000 \
#24
b1001 Z
b1001 i
b1001 \
#26
b1010 Z
b1010 i
b1010 \
#28
b1011 Z
b1011 i
b1011 \
#30
b1100 Z
b1100 i
b1100 \
#32
b1101 Z
b1101 i
b1101 \
#34
b1110 Z
b1110 i
b1110 \
#36
b1111 Z
b1111 i
b1111 \
#38
0X
0W
0T
b1010 R
b1010 _
b100000 S
b100000 `
1Y
b10000 \
#39
1X
#40
0Y
#42
b0 Z
b0 i
b0 \
#44
b1 Z
b1 i
b1 \
#46
b10 Z
b10 i
b10 \
#48
b11 Z
b11 i
b11 \
#50
b100 Z
b100 i
b100 \
#52
b101 Z
b101 i
b101 \
#54
b110 Z
b110 i
b110 \
#56
b111 Z
b111 i
b111 \
#58
b1000 Z
b1000 i
b1000 \
#60
b1001 Z
b1001 i
b1001 \
#62
b1010 Z
b1010 i
b1010 \
#64
b1011 Z
b1011 i
b1011 \
#66
b1100 Z
b1100 i
b1100 \
#68
b1101 Z
b1101 i
b1101 \
#70
b1110 Z
b1110 i
b1110 \
#72
b1111 Z
b1111 i
b1111 \
#74
0X
1W
1Y
b10000 \
#75
b10 0
b10 )"
1X
#76
0X
b1111 R
b1111 _
#77
b11 0
b11 )"
1X
#78
0Y
0W
#80
b100000 "
b100000 h
b1010 '
b1010 e
1)
b0 Z
b0 i
b0 \
#82
b1111 '
b1111 e
b1 Z
b1 i
b1 \
#84
bx "
bx h
bx '
bx e
0)
b10 Z
b10 i
b10 \
#86
b11 Z
b11 i
b11 \
#88
b100 Z
b100 i
b100 \
#90
b101 Z
b101 i
b101 \
#92
b110 Z
b110 i
b110 \
#94
b111 Z
b111 i
b111 \
#96
b1000 Z
b1000 i
b1000 \
#98
b1001 Z
b1001 i
b1001 \
#100
b1010 Z
b1010 i
b1010 \
#102
b1011 Z
b1011 i
b1011 \
#104
b1100 Z
b1100 i
b1100 \
#106
b1101 Z
b1101 i
b1101 \
#108
b1110 Z
b1110 i
b1110 \
#110
b1111 Z
b1111 i
b1111 \
#112
0X
1W
b1011 R
b1011 _
b100000000 S
b100000000 `
1Y
b10000 \
#113
b100 0
b100 )"
1X
#114
0Y
0W
#116
b100000 "
b100000 h
b1010 '
b1010 e
1)
b0 Z
b0 i
b0 \
#118
b1111 '
b1111 e
b1 Z
b1 i
b1 \
#120
b100000000 "
b100000000 h
b1011 '
b1011 e
b1 %
b1 f
0$
b10 Z
b10 i
b10 \
#122
bx "
bx h
bx '
bx e
0)
b0 %
b0 f
1$
b11 Z
b11 i
b11 \
#124
b100 Z
b100 i
b100 \
#126
b101 Z
b101 i
b101 \
#128
b110 Z
b110 i
b110 \
#130
b111 Z
b111 i
b111 \
#132
b1000 Z
b1000 i
b1000 \
#134
b1001 Z
b1001 i
b1001 \
#136
b1010 Z
b1010 i
b1010 \
#138
b1011 Z
b1011 i
b1011 \
#140
b1100 Z
b1100 i
b1100 \
#142
b1101 Z
b1101 i
b1101 \
#144
b1110 Z
b1110 i
b1110 \
#146
b1111 Z
b1111 i
b1111 \
#148
0X
1W
1T
b1100 R
b1100 _
b101000000 S
b101000000 `
1Y
b10000 \
#149
b101 0
b101 )"
1X
#150
0Y
0W
#152
b100000 "
b100000 h
b1010 '
b1010 e
1)
b0 Z
b0 i
b0 \
#154
b1111 '
b1111 e
b1 Z
b1 i
b1 \
#156
b100000000 "
b100000000 h
b1011 '
b1011 e
b1 %
b1 f
0$
b10 Z
b10 i
b10 \
#158
b101000000 "
b101000000 h
b1100 '
b1100 e
b11 %
b11 f
b11 Z
b11 i
b11 \
#160
bx "
bx h
bx '
bx e
0)
b0 %
b0 f
1$
b100 Z
b100 i
b100 \
#162
b101 Z
b101 i
b101 \
#164
b110 Z
b110 i
b110 \
#166
b111 Z
b111 i
b111 \
#168
b1000 Z
b1000 i
b1000 \
#170
b1001 Z
b1001 i
b1001 \
#172
b1010 Z
b1010 i
b1010 \
#174
b1011 Z
b1011 i
b1011 \
#176
b1100 Z
b1100 i
b1100 \
#178
b1101 Z
b1101 i
b1101 \
#180
b1110 Z
b1110 i
b1110 \
#182
b1111 Z
b1111 i
b1111 \
#184
0X
b1111011 Q
b1111011 ^
b101 P
b101 ]
1Y
b10000 \
#185
1X
#186
0X
#187
1X
#188
0Y
#190
b100000 "
b100000 h
b1010 '
b1010 e
1)
b0 Z
b0 i
b0 \
#192
b1111 '
b1111 e
b1 Z
b1 i
b1 \
#194
b100000000 "
b100000000 h
b1011 '
b1011 e
b1 %
b1 f
0$
b10 Z
b10 i
b10 \
#196
b101000000 "
b101000000 h
b1100 '
b1100 e
b11 %
b11 f
b11 Z
b11 i
b11 \
#198
bx "
bx h
bx '
bx e
0)
b0 %
b0 f
1$
b100 Z
b100 i
b100 \
#200
b101 Z
b101 i
b101 \
#202
b110 Z
b110 i
b110 \
#204
b111 Z
b111 i
b111 \
#206
b1000 Z
b1000 i
b1000 \
#208
b1001 Z
b1001 i
b1001 \
#210
b1010 Z
b1010 i
b1010 \
#212
b1011 Z
b1011 i
b1011 \
#214
b1100 Z
b1100 i
b1100 \
#216
b1101 Z
b1101 i
b1101 \
#218
b1110 Z
b1110 i
b1110 \
#220
b1111 Z
b1111 i
b1111 \
#222
0X
b1 P
b1 ]
1Y
b10000 \
#223
b10 !
b10 *"
b100 5
b100 %"
b1111011 3
b1111011 '"
b1010 4
b1010 &"
b100000 2
b100000 ("
0-
b1111011 +
b1111011 c
1X
#224
0Y
#226
b100000 "
b100000 h
b1010 '
b1010 e
b1111011 #
b1111011 g
b0 Z
b0 i
b0 \
#228
b1111 '
b1111 e
bx #
bx g
1)
b1 Z
b1 i
b1 \
#230
b100000000 "
b100000000 h
b1011 '
b1011 e
b1 %
b1 f
0$
b10 Z
b10 i
b10 \
#232
b101000000 "
b101000000 h
b1100 '
b1100 e
b11 %
b11 f
b11 Z
b11 i
b11 \
#234
bx "
bx h
bx '
bx e
0)
b0 %
b0 f
1$
b100 Z
b100 i
b100 \
#236
b101 Z
b101 i
b101 \
#238
b110 Z
b110 i
b110 \
#240
b111 Z
b111 i
b111 \
#242
b1000 Z
b1000 i
b1000 \
#244
b1001 Z
b1001 i
b1001 \
#246
b1010 Z
b1010 i
b1010 \
#248
b1011 Z
b1011 i
b1011 \
#250
b1100 Z
b1100 i
b1100 \
#252
b1101 Z
b1101 i
b1101 \
#254
b1110 Z
b1110 i
b1110 \
#256
b1111 Z
b1111 i
b1111 \
#258
0X
b111001000 Q
b111001000 ^
b10 P
b10 ]
1Y
b10000 \
#259
b11 !
b11 *"
b100 5
b100 %"
b111001000 3
b111001000 '"
b1111 4
b1111 &"
b100000 2
b100000 ("
0,
b111001000 *
b111001000 d
1X
#260
0Y
b0 P
b0 ]
#262
b100000 "
b100000 h
b1010 '
b1010 e
b1111011 #
b1111011 g
b0 Z
b0 i
b0 \
#264
b1111 '
b1111 e
b111001000 #
b111001000 g
b1 Z
b1 i
b1 \
#266
b100000000 "
b100000000 h
b1011 '
b1011 e
bx #
bx g
1)
b1 %
b1 f
0$
b10 Z
b10 i
b10 \
#268
b101000000 "
b101000000 h
b1100 '
b1100 e
b11 %
b11 f
b11 Z
b11 i
b11 \
#270
bx "
bx h
bx '
bx e
0)
b0 %
b0 f
1$
b100 Z
b100 i
b100 \
#272
b101 Z
b101 i
b101 \
#274
b110 Z
b110 i
b110 \
#276
b111 Z
b111 i
b111 \
#278
b1000 Z
b1000 i
b1000 \
#280
b1001 Z
b1001 i
b1001 \
#282
b1010 Z
b1010 i
b1010 \
#284
b1011 Z
b1011 i
b1011 \
#286
b1100 Z
b1100 i
b1100 \
#288
b1101 Z
b1101 i
b1101 \
#290
b1110 Z
b1110 i
b1110 \
#292
b1111 Z
b1111 i
b1111 \
#294
0X
1Y
b10000 \
#295
b0 5
b0 %"
b0 3
b0 '"
b0 4
b0 &"
b0 2
b0 ("
1X
#296
0Y
#298
b100000 "
b100000 h
b1010 '
b1010 e
b1111011 #
b1111011 g
b0 Z
b0 i
b0 \
#300
b1111 '
b1111 e
b111001000 #
b111001000 g
b1 Z
b1 i
b1 \
#302
b100000000 "
b100000000 h
b1011 '
b1011 e
bx #
bx g
1)
b1 %
b1 f
0$
b10 Z
b10 i
b10 \
#304
b101000000 "
b101000000 h
b1100 '
b1100 e
b11 %
b11 f
b11 Z
b11 i
b11 \
#306
bx "
bx h
bx '
bx e
0)
b0 %
b0 f
1$
b100 Z
b100 i
b100 \
#308
b101 Z
b101 i
b101 \
#310
b110 Z
b110 i
b110 \
#312
b111 Z
b111 i
b111 \
#314
b1000 Z
b1000 i
b1000 \
#316
b1001 Z
b1001 i
b1001 \
#318
b1010 Z
b1010 i
b1010 \
#320
b1011 Z
b1011 i
b1011 \
#322
b1100 Z
b1100 i
b1100 \
#324
b1101 Z
b1101 i
b1101 \
#326
b1110 Z
b1110 i
b1110 \
#328
b1111 Z
b1111 i
b1111 \
#330
0X
1W
0T
b10100 R
b10100 _
b0 S
b0 `
1Y
b10000 \
#331
b110 0
b110 )"
1X
#332
0X
b10110 R
b10110 _
b10 S
b10 `
#333
b111 0
b111 )"
1X
#334
0Y
0W
#336
b100000 "
b100000 h
b1010 '
b1010 e
b1111011 #
b1111011 g
b0 Z
b0 i
b0 \
#338
b1111 '
b1111 e
b111001000 #
b111001000 g
b1 Z
b1 i
b1 \
#340
b100000000 "
b100000000 h
b1011 '
b1011 e
bx #
bx g
1)
b1 %
b1 f
0$
b10 Z
b10 i
b10 \
#342
b101000000 "
b101000000 h
b1100 '
b1100 e
b11 %
b11 f
b11 Z
b11 i
b11 \
#344
b0 "
b0 h
b10100 '
b10100 e
b0 %
b0 f
1$
b100 Z
b100 i
b100 \
#346
b10 "
b10 h
b10110 '
b10110 e
b101 Z
b101 i
b101 \
#348
bx "
bx h
bx '
bx e
0)
b110 Z
b110 i
b110 \
#350
b111 Z
b111 i
b111 \
#352
b1000 Z
b1000 i
b1000 \
#354
b1001 Z
b1001 i
b1001 \
#356
b1010 Z
b1010 i
b1010 \
#358
b1011 Z
b1011 i
b1011 \
#360
b1100 Z
b1100 i
b1100 \
#362
b1101 Z
b1101 i
b1101 \
#364
b1110 Z
b1110 i
b1110 \
#366
b1111 Z
b1111 i
b1111 \
#368
0X
b1111100111 Q
b1111100111 ^
b101 P
b101 ]
1Y
b10000 \
#369
1X
#370
0Y
#372
b100000 "
b100000 h
b1010 '
b1010 e
b1111011 #
b1111011 g
b0 Z
b0 i
b0 \
#374
b1111 '
b1111 e
b111001000 #
b111001000 g
b1 Z
b1 i
b1 \
#376
b100000000 "
b100000000 h
b1011 '
b1011 e
bx #
bx g
1)
b1 %
b1 f
0$
b10 Z
b10 i
b10 \
#378
b101000000 "
b101000000 h
b1100 '
b1100 e
b11 %
b11 f
b11 Z
b11 i
b11 \
#380
b0 "
b0 h
b10100 '
b10100 e
b1111100111 #
b1111100111 g
1&
b0 %
b0 f
1$
b100 Z
b100 i
b100 \
#382
b10 "
b10 h
b10110 '
b10110 e
bx #
bx g
0&
b101 Z
b101 i
b101 \
#384
bx "
bx h
bx '
bx e
0)
b110 Z
b110 i
b110 \
#386
b111 Z
b111 i
b111 \
#388
b1000 Z
b1000 i
b1000 \
#390
b1001 Z
b1001 i
b1001 \
#392
b1010 Z
b1010 i
b1010 \
#394
b1011 Z
b1011 i
b1011 \
#396
b1100 Z
b1100 i
b1100 \
#398
b1101 Z
b1101 i
b1101 \
#400
b1110 Z
b1110 i
b1110 \
#402
b1111 Z
b1111 i
b1111 \
#404
0X
0O
b0 Q
b0 ^
b11 P
b11 ]
1Y
b10000 \
#405
0/
1X
#406
0Y
b0 P
b0 ]
#408
b100000 "
b100000 h
b1010 '
b1010 e
b1111011 #
b1111011 g
b0 Z
b0 i
b0 \
#410
b1111 '
b1111 e
b111001000 #
b111001000 g
b1 Z
b1 i
b1 \
#412
b100000000 "
b100000000 h
b1011 '
b1011 e
b0 #
b0 g
1)
1&
b10 Z
b10 i
b10 \
#414
b101000000 "
b101000000 h
b1100 '
b1100 e
bx #
bx g
0&
b11 %
b11 f
0$
b11 Z
b11 i
b11 \
#416
b0 "
b0 h
b10100 '
b10100 e
b1111100111 #
b1111100111 g
1&
b0 %
b0 f
1$
b100 Z
b100 i
b100 \
#418
b10 "
b10 h
b10110 '
b10110 e
bx #
bx g
0&
b101 Z
b101 i
b101 \
#420
bx "
bx h
bx '
bx e
0)
b110 Z
b110 i
b110 \
#422
b111 Z
b111 i
b111 \
#424
b1000 Z
b1000 i
b1000 \
#426
b1001 Z
b1001 i
b1001 \
#428
b1010 Z
b1010 i
b1010 \
#430
b1011 Z
b1011 i
b1011 \
#432
b1100 Z
b1100 i
b1100 \
#434
b1101 Z
b1101 i
b1101 \
#436
b1110 Z
b1110 i
b1110 \
#438
b1111 Z
b1111 i
b1111 \
#440
0X
1Y
b10000 \
#441
b100 !
b100 *"
b1011 4
b1011 &"
b100000000 2
b100000000 ("
1X
#442
0Y
#444
b100000 "
b100000 h
b1010 '
b1010 e
b1111011 #
b1111011 g
b0 Z
b0 i
b0 \
#446
b1111 '
b1111 e
b111001000 #
b111001000 g
b1 Z
b1 i
b1 \
#448
b100000000 "
b100000000 h
b1011 '
b1011 e
b0 #
b0 g
b10 Z
b10 i
b10 \
#450
b101000000 "
b101000000 h
b1100 '
b1100 e
bx #
bx g
1)
b11 %
b11 f
0$
b11 Z
b11 i
b11 \
#452
b0 "
b0 h
b10100 '
b10100 e
b1111100111 #
b1111100111 g
1&
b0 %
b0 f
1$
b100 Z
b100 i
b100 \
#454
b10 "
b10 h
b10110 '
b10110 e
bx #
bx g
0&
b101 Z
b101 i
b101 \
#456
bx "
bx h
bx '
bx e
0)
b110 Z
b110 i
b110 \
#458
b111 Z
b111 i
b111 \
#460
b1000 Z
b1000 i
b1000 \
#462
b1001 Z
b1001 i
b1001 \
#464
b1010 Z
b1010 i
b1010 \
#466
b1011 Z
b1011 i
b1011 \
#468
b1100 Z
b1100 i
b1100 \
#470
b1101 Z
b1101 i
b1101 \
#472
b1110 Z
b1110 i
b1110 \
#474
b1111 Z
b1111 i
b1111 \
#476
0X
1Y
b10000 \
#477
b0 4
b0 &"
b0 2
b0 ("
1X
#478
0Y
#480
b100000 "
b100000 h
b1010 '
b1010 e
b1111011 #
b1111011 g
b0 Z
b0 i
b0 \
#482
b1111 '
b1111 e
b111001000 #
b111001000 g
b1 Z
b1 i
b1 \
#484
b100000000 "
b100000000 h
b1011 '
b1011 e
b0 #
b0 g
b10 Z
b10 i
b10 \
#486
b101000000 "
b101000000 h
b1100 '
b1100 e
bx #
bx g
1)
b11 %
b11 f
0$
b11 Z
b11 i
b11 \
#488
b0 "
b0 h
b10100 '
b10100 e
b1111100111 #
b1111100111 g
1&
b0 %
b0 f
1$
b100 Z
b100 i
b100 \
#490
b10 "
b10 h
b10110 '
b10110 e
bx #
bx g
0&
b101 Z
b101 i
b101 \
#492
bx "
bx h
bx '
bx e
0)
b110 Z
b110 i
b110 \
#494
b111 Z
b111 i
b111 \
#496
b1000 Z
b1000 i
b1000 \
#498
b1001 Z
b1001 i
b1001 \
#500
b1010 Z
b1010 i
b1010 \
#502
b1011 Z
b1011 i
b1011 \
#504
b1100 Z
b1100 i
b1100 \
#506
b1101 Z
b1101 i
b1101 \
#508
b1110 Z
b1110 i
b1110 \
#510
b1111 Z
b1111 i
b1111 \
#512
0X
1O
b1101111 Q
b1101111 ^
b100 P
b100 ]
1Y
b10000 \
#513
0/
1X
#514
0Y
b0 P
b0 ]
#516
b100000 "
b100000 h
b1010 '
b1010 e
b1111011 #
b1111011 g
b0 Z
b0 i
b0 \
#518
b1111 '
b1111 e
b111001000 #
b111001000 g
b1 Z
b1 i
b1 \
#520
b100000000 "
b100000000 h
b1011 '
b1011 e
b0 #
b0 g
b10 Z
b10 i
b10 \
#522
b101000000 "
b101000000 h
b1100 '
b1100 e
b1101111 #
b1101111 g
1)
1&
b10 %
b10 f
b11 Z
b11 i
b11 \
#524
b0 "
b0 h
b10100 '
b10100 e
b1111100111 #
b1111100111 g
b0 %
b0 f
b100 Z
b100 i
b100 \
#526
b10 "
b10 h
b10110 '
b10110 e
bx #
bx g
0&
b101 Z
b101 i
b101 \
#528
bx "
bx h
bx '
bx e
0)
b110 Z
b110 i
b110 \
#530
b111 Z
b111 i
b111 \
#532
b1000 Z
b1000 i
b1000 \
#534
b1001 Z
b1001 i
b1001 \
#536
b1010 Z
b1010 i
b1010 \
#538
b1011 Z
b1011 i
b1011 \
#540
b1100 Z
b1100 i
b1100 \
#542
b1101 Z
b1101 i
b1101 \
#544
b1110 Z
b1110 i
b1110 \
#546
b1111 Z
b1111 i
b1111 \
#548
0X
1Y
b10000 \
#549
b101 !
b101 *"
b1101111 3
b1101111 '"
b1100 4
b1100 &"
b101000000 2
b101000000 ("
1X
#550
0Y
#552
b100000 "
b100000 h
b1010 '
b1010 e
b1111011 #
b1111011 g
b0 Z
b0 i
b0 \
#554
b1111 '
b1111 e
b111001000 #
b111001000 g
b1 Z
b1 i
b1 \
#556
b100000000 "
b100000000 h
b1011 '
b1011 e
b0 #
b0 g
b10 Z
b10 i
b10 \
#558
b101000000 "
b101000000 h
b1100 '
b1100 e
b1101111 #
b1101111 g
b10 %
b10 f
b11 Z
b11 i
b11 \
#560
b0 "
b0 h
b10100 '
b10100 e
b1111100111 #
b1111100111 g
1)
1&
b0 %
b0 f
b100 Z
b100 i
b100 \
#562
b10 "
b10 h
b10110 '
b10110 e
bx #
bx g
0&
b101 Z
b101 i
b101 \
#564
bx "
bx h
bx '
bx e
0)
b110 Z
b110 i
b110 \
#566
b111 Z
b111 i
b111 \
#568
b1000 Z
b1000 i
b1000 \
#570
b1001 Z
b1001 i
b1001 \
#572
b1010 Z
b1010 i
b1010 \
#574
b1011 Z
b1011 i
b1011 \
#576
b1100 Z
b1100 i
b1100 \
#578
b1101 Z
b1101 i
b1101 \
#580
b1110 Z
b1110 i
b1110 \
#582
b1111 Z
b1111 i
b1111 \
#584
0X
b11011110 Q
b11011110 ^
b110 P
b110 ]
1Y
b10000 \
#585
b110 !
b110 *"
b100 5
b100 %"
b1111100111 3
b1111100111 '"
b10100 4
b10100 &"
b0 2
b0 ("
1X
#586
0Y
b0 P
b0 ]
#588
b100000 "
b100000 h
b1010 '
b1010 e
b1111011 #
b1111011 g
b0 Z
b0 i
b0 \
#590
b1111 '
b1111 e
b111001000 #
b111001000 g
b1 Z
b1 i
b1 \
#592
b100000000 "
b100000000 h
b1011 '
b1011 e
b0 #
b0 g
b10 Z
b10 i
b10 \
#594
b101000000 "
b101000000 h
b1100 '
b1100 e
b1101111 #
b1101111 g
b10 %
b10 f
b11 Z
b11 i
b11 \
#596
b0 "
b0 h
b10100 '
b10100 e
b1111100111 #
b1111100111 g
b0 %
b0 f
b100 Z
b100 i
b100 \
#598
b10 "
b10 h
b10110 '
b10110 e
b11011110 #
b11011110 g
1)
1&
b101 Z
b101 i
b101 \
#600
bx "
bx h
bx '
bx e
bx #
bx g
0)
0&
b110 Z
b110 i
b110 \
#602
b111 Z
b111 i
b111 \
#604
b1000 Z
b1000 i
b1000 \
#606
b1001 Z
b1001 i
b1001 \
#608
b1010 Z
b1010 i
b1010 \
#610
b1011 Z
b1011 i
b1011 \
#612
b1100 Z
b1100 i
b1100 \
#614
b1101 Z
b1101 i
b1101 \
#616
b1110 Z
b1110 i
b1110 \
#618
b1111 Z
b1111 i
b1111 \
#620
0X
1Y
b10000 \
#621
b111 !
b111 *"
b10 2
b10 ("
b100 5
b100 %"
b11011110 3
b11011110 '"
b10110 4
b10110 &"
1X
#622
0Y
#624
b100000 "
b100000 h
b1010 '
b1010 e
b1111011 #
b1111011 g
b0 Z
b0 i
b0 \
#626
b1111 '
b1111 e
b111001000 #
b111001000 g
b1 Z
b1 i
b1 \
#628
b100000000 "
b100000000 h
b1011 '
b1011 e
b0 #
b0 g
b10 Z
b10 i
b10 \
#630
b101000000 "
b101000000 h
b1100 '
b1100 e
b1101111 #
b1101111 g
b10 %
b10 f
b11 Z
b11 i
b11 \
#632
b0 "
b0 h
b10100 '
b10100 e
b1111100111 #
b1111100111 g
b0 %
b0 f
b100 Z
b100 i
b100 \
#634
b10 "
b10 h
b10110 '
b10110 e
b11011110 #
b11011110 g
b101 Z
b101 i
b101 \
#636
bx "
bx h
bx '
bx e
bx #
bx g
b110 Z
b110 i
b110 \
#638
b111 Z
b111 i
b111 \
#640
b1000 Z
b1000 i
b1000 \
#642
b1001 Z
b1001 i
b1001 \
#644
b1010 Z
b1010 i
b1010 \
#646
b1011 Z
b1011 i
b1011 \
#648
b1100 Z
b1100 i
b1100 \
#650
b1101 Z
b1101 i
b1101 \
#652
b1110 Z
b1110 i
b1110 \
#654
b1111 Z
b1111 i
b1111 \
#656
0X
1Y
b10000 \
#657
b0 5
b0 %"
b0 3
b0 '"
b0 4
b0 &"
b0 2
b0 ("
1X
#658
0Y
#660
b100000 "
b100000 h
b1010 '
b1010 e
b1111011 #
b1111011 g
b0 Z
b0 i
b0 \
#662
b1111 '
b1111 e
b111001000 #
b111001000 g
b1 Z
b1 i
b1 \
#664
b100000000 "
b100000000 h
b1011 '
b1011 e
b0 #
b0 g
b10 Z
b10 i
b10 \
#666
b101000000 "
b101000000 h
b1100 '
b1100 e
b1101111 #
b1101111 g
b10 %
b10 f
b11 Z
b11 i
b11 \
#668
b0 "
b0 h
b10100 '
b10100 e
b1111100111 #
b1111100111 g
b0 %
b0 f
b100 Z
b100 i
b100 \
#670
b10 "
b10 h
b10110 '
b10110 e
b11011110 #
b11011110 g
b101 Z
b101 i
b101 \
#672
bx "
bx h
bx '
bx e
bx #
bx g
b110 Z
b110 i
b110 \
#674
b111 Z
b111 i
b111 \
#676
b1000 Z
b1000 i
b1000 \
#678
b1001 Z
b1001 i
b1001 \
#680
b1010 Z
b1010 i
b1010 \
#682
b1011 Z
b1011 i
b1011 \
#684
b1100 Z
b1100 i
b1100 \
#686
b1101 Z
b1101 i
b1101 \
#688
b1110 Z
b1110 i
b1110 \
#690
b1111 Z
b1111 i
b1111 \
#692
0X
1W
b1010 R
b1010 _
b100000 S
b100000 `
1Y
b10000 \
#693
b1000 0
b1000 )"
1X
#694
0X
#695
b1001 0
b1001 )"
1X
#696
0X
#697
b1010 0
b1010 )"
1X
#698
0X
#699
b1011 0
b1011 )"
1X
#700
0X
#701
b1100 0
b1100 )"
1X
#702
0X
#703
b1101 0
b1101 )"
1X
#704
0X
#705
b1110 0
b1110 )"
1X
#706
0X
#707
b1111 0
b1111 )"
1X
#708
0X
#709
b10000 0
b10000 )"
1X
#710
0X
#711
b1 0
b1 )"
1)
b1010 '
b1010 e
b100000 "
b100000 h
1X
#712
0X
#713
b10 0
b10 )"
1X
#714
0X
#715
b11 0
b11 )"
1X
#716
0X
#717
b100 0
b100 )"
1X
#718
0X
#719
b101 0
b101 )"
1X
#720
0Y
#722
b1111011 #
b1111011 g
b0 Z
b0 i
b0 \
#724
b111001000 #
b111001000 g
b1 Z
b1 i
b1 \
#726
b0 #
b0 g
b10 Z
b10 i
b10 \
