SSOOO/Reorder Buffer/testout.vcd
$date
	Tue Dec 24 09:22:41 2024
$end
$version
	Icarus Verilog
$end
$timescale
	1s
$end
$scope module ROB_tb $end
$var wire 4 ! Start_Index [3:0] $end
$var wire 12 " Reg_opcode_test [11:0] $end
$var wire 32 # Reg_Write_Data_test [31:0] $end
$var wire 1 $ Reg_Valid_test $end
$var wire 2 % Reg_Speculation_test [1:0] $end
$var wire 1 & Reg_Ready_test $end
$var wire 5 ' Reg_Rd_test [4:0] $end
$var wire 1 ( Reg_Exception_test $end
$var wire 1 ) Reg_Busy_test $end
$var wire 1 * FULL_FLAG $end
$var wire 1 + FLUSH_Flag $end
$var wire 4 , End_Index [3:0] $end
$var wire 1 - EXCEPTION_Flag $end
$var wire 12 . Commit_opcode [11:0] $end
$var wire 32 / Commit_Write_Data [31:0] $end
$var wire 5 0 Commit_Rd [4:0] $end
$var wire 3 1 Commit_Control_Signals [2:0] $end
$var parameter 12 2 add $end
$var parameter 12 3 addi $end
$var parameter 12 4 addu $end
$var parameter 12 5 and_ $end
$var parameter 12 6 andi $end
$var parameter 12 7 beq $end
$var parameter 12 8 bne $end
$var parameter 12 9 hlt_inst $end
$var parameter 12 : j $end
$var parameter 12 ; jal $end
$var parameter 12 < jr $end
$var parameter 12 = lw $end
$var parameter 12 > nor_ $end
$var parameter 12 ? or_ $end
$var parameter 12 @ ori $end
$var parameter 12 A sgt $end
$var parameter 12 B sll $end
$var parameter 12 C slt $end
$var parameter 12 D slti $end
$var parameter 12 E srl $end
$var parameter 12 F sub $end
$var parameter 12 G subu $end
$var parameter 12 H sw $end
$var parameter 12 I xor_ $end
$var parameter 12 J xori $end
$var reg 1 K CDB_Branch_Decision $end
$var reg 5 L CDB_ROBEN [4:0] $end
$var reg 32 M CDB_ROBEN_Write_Data [31:0] $end
$var reg 5 N Decoded_Rd [4:0] $end
$var reg 12 O Decoded_opcode [11:0] $end
$var reg 1 P Decoded_prediction $end
$var reg 1 Q VALID_Inst $end
$var reg 1 R clk $end
$var reg 1 S clk_en $end
$var reg 5 T index_test [4:0] $end
$var reg 1 U rst $end
$var integer 32 V i [31:0] $end
$scope module dut $end
$var wire 1 K CDB_Branch_Decision $end
$var wire 5 W CDB_ROBEN [4:0] $end
$var wire 32 X CDB_ROBEN_Write_Data [31:0] $end
$var wire 5 Y Decoded_Rd [4:0] $end
$var wire 12 Z Decoded_opcode [11:0] $end
$var wire 1 P Decoded_prediction $end
$var wire 1 - EXCEPTION_Flag $end
$var wire 1 + FLUSH_Flag $end
$var wire 1 * FULL_FLAG $end
$var wire 1 ) Reg_Busy_test $end
$var wire 1 ( Reg_Exception_test $end
$var wire 5 [ Reg_Rd_test [4:0] $end
$var wire 1 & Reg_Ready_test $end
$var wire 2 \ Reg_Speculation_test [1:0] $end
$var wire 1 $ Reg_Valid_test $end
$var wire 32 ] Reg_Write_Data_test [31:0] $end
$var wire 12 ^ Reg_opcode_test [11:0] $end
$var wire 1 Q VALID_Inst $end
$var wire 1 R clk $end
$var wire 5 _ index_test [4:0] $end
$var wire 1 U rst $end
$var parameter 12 ` add $end
$var parameter 12 a addi $end
$var parameter 12 b addu $end
$var parameter 12 c and_ $end
$var parameter 12 d andi $end
$var parameter 12 e beq $end
$var parameter 12 f bne $end
$var parameter 12 g hlt_inst $end
$var parameter 12 h j $end
$var parameter 12 i jal $end
$var parameter 12 j jr $end
$var parameter 12 k lw $end
$var parameter 12 l nor_ $end
$var parameter 12 m or_ $end
$var parameter 12 n ori $end
$var parameter 12 o sgt $end
$var parameter 12 p sll $end
$var parameter 12 q slt $end
$var parameter 12 r slti $end
$var parameter 12 s srl $end
$var parameter 12 t sub $end
$var parameter 12 u subu $end
$var parameter 12 v sw $end
$var parameter 12 w xor_ $end
$var parameter 12 x xori $end
$var reg 3 y Commit_Control_Signals [2:0] $end
$var reg 5 z Commit_Rd [4:0] $end
$var reg 32 { Commit_Write_Data [31:0] $end
$var reg 12 | Commit_opcode [11:0] $end
$var reg 4 } End_Index [3:0] $end
$var reg 4 ~ Start_Index [3:0] $end
$var reg 5 !" i [4:0] $end
$var reg 5 "" k [4:0] $end
$upscope $end
$upscope $end
$enddefinitions $end
$comment Show the parameter values. $end
$dumpall
b1110000000 x
b100110 w
b101011000000 v
b100011 u
b100010 t
b10 s
b1010000000 r
b101010 q
b0 p
b101011 o
b1101000000 n
b100101 m
b100111 l
b100011000000 k
b1000 j
b11000000 i
b10000000 h
b111111000000 g
b101000000 f
b100000000 e
b1100000000 d
b100100 c
b100001 b
b1000000000 a
b100000 `
b1110000000 J
b100110 I
b101011000000 H
b100011 G
b100010 F
b10 E
b1010000000 D
b101010 C
b0 B
b101011 A
b1101000000 @
b100101 ?
b100111 >
b100011000000 =
b1000 <
b11000000 ;
b10000000 :
b111111000000 9
b101000000 8
b100000000 7
b1100000000 6
b100100 5
b100001 4
b1000000000 3
b100000 2
$end
#0
$dumpvars
b0 ""
b0 !"
bx ~
bx }
bx |
bx {
bx z
bx y
bx _
bx ^
bx ]
bx \
bx [
bx Z
bx Y
bx X
bx W
bx V
0U
bx T
1S
0R
xQ
xP
bx O
bx N
bx M
bx L
xK
bx 1
bx 0
bx /
bx .
x-
bx ,
x+
x*
x)
x(
bx '
x&
bx %
x$
bx #
bx "
bx !
$end
#1
b0 1
b0 y
b0 /
b0 {
b0 0
b0 z
b0 .
b0 |
1R
#2
0R
0*
0-
0+
b0 !
b0 ~
b0 ,
b0 }
b10000 !"
1U
#3
b10000 !"
1R
#4
0)
0&
b0 %
b0 \
0(
1$
b0 T
b0 _
b0 V
0S
0U
#6
b1 T
b1 _
b1 V
#8
b10 T
b10 _
b10 V
#10
b11 T
b11 _
b11 V
#12
b100 T
b100 _
b100 V
#14
b101 T
b101 _
b101 V
#16
b110 T
b110 _
b110 V
#18
b111 T
b111 _
b111 V
#20
b1000 T
b1000 _
b1000 V
#22
b1001 T
b1001 _
b1001 V
#24
b1010 T
b1010 _
b1010 V
#26
b1011 T
b1011 _
b1011 V
#28
b1100 T
b1100 _
b1100 V
#30
b1101 T
b1101 _
b1101 V
#32
b1110 T
b1110 _
b1110 V
#34
b1111 T
b1111 _
b1111 V
#36
0R
0Q
0P
b1010 N
b1010 Y
b100000 O
b100000 Z
1S
b10000 V
#37
1R
#38
b0 T
b0 _
b0 V
0S
#40
b1 T
b1 _
b1 V
#42
b10 T
b10 _
b10 V
#44
b11 T
b11 _
b11 V
#46
b100 T
b100 _
b100 V
#48
b101 T
b101 _
b101 V
#50
b110 T
b110 _
b110 V
#52
b111 T
b111 _
b111 V
#54
b1000 T
b1000 _
b1000 V
#56
b1001 T
b1001 _
b1001 V
#58
b1010 T
b1010 _
b1010 V
#60
b1011 T
b1011 _
b1011 V
#62
b1100 T
b1100 _
b1100 V
#64
b1101 T
b1101 _
b1101 V
#66
b1110 T
b1110 _
b1110 V
#68
b1111 T
b1111 _
b1111 V
#70
0R
1Q
1S
b10000 V
#71
b1 ,
b1 }
1R
#72
0R
b1111 N
b1111 Y
#73
b10 ,
b10 }
1R
#74
b100000 "
b100000 ^
b1010 '
b1010 [
1)
b0 T
b0 _
b0 V
0S
0Q
#76
b1111 '
b1111 [
b1 T
b1 _
b1 V
#78
bx "
bx ^
bx '
bx [
0)
b10 T
b10 _
b10 V
#80
b11 T
b11 _
b11 V
#82
b100 T
b100 _
b100 V
#84
b101 T
b101 _
b101 V
#86
b110 T
b110 _
b110 V
#88
b111 T
b111 _
b111 V
#90
b1000 T
b1000 _
b1000 V
#92
b1001 T
b1001 _
b1001 V
#94
b1010 T
b1010 _
b1010 V
#96
b1011 T
b1011 _
b1011 V
#98
b1100 T
b1100 _
b1100 V
#100
b1101 T
b1101 _
b1101 V
#102
b1110 T
b1110 _
b1110 V
#104
b1111 T
b1111 _
b1111 V
#106
0R
1Q
b1011 N
b1011 Y
b100000000 O
b100000000 Z
1S
b10000 V
#107
b11 ,
b11 }
1R
#108
b100000 "
b100000 ^
b1010 '
b1010 [
1)
b0 T
b0 _
b0 V
0S
0Q
#110
b1111 '
b1111 [
b1 T
b1 _
b1 V
#112
b100000000 "
b100000000 ^
b1011 '
b1011 [
b1 %
b1 \
0$
b10 T
b10 _
b10 V
#114
bx "
bx ^
bx '
bx [
0)
b0 %
b0 \
1$
b11 T
b11 _
b11 V
#116
b100 T
b100 _
b100 V
#118
b101 T
b101 _
b101 V
#120
b110 T
b110 _
b110 V
#122
b111 T
b111 _
b111 V
#124
b1000 T
b1000 _
b1000 V
#126
b1001 T
b1001 _
b1001 V
#128
b1010 T
b1010 _
b1010 V
#130
b1011 T
b1011 _
b1011 V
#132
b1100 T
b1100 _
b1100 V
#134
b1101 T
b1101 _
b1101 V
#136
b1110 T
b1110 _
b1110 V
#138
b1111 T
b1111 _
b1111 V
#140
0R
1Q
1P
b1100 N
b1100 Y
b101000000 O
b101000000 Z
1S
b10000 V
#141
b100 ,
b100 }
1R
#142
b100000 "
b100000 ^
b1010 '
b1010 [
1)
b0 T
b0 _
b0 V
0S
0Q
#144
b1111 '
b1111 [
b1 T
b1 _
b1 V
#146
b100000000 "
b100000000 ^
b1011 '
b1011 [
b1 %
b1 \
0$
b10 T
b10 _
b10 V
#148
b101000000 "
b101000000 ^
b1100 '
b1100 [
b11 %
b11 \
b11 T
b11 _
b11 V
#150
bx "
bx ^
bx '
bx [
0)
b0 %
b0 \
1$
b100 T
b100 _
b100 V
#152
b101 T
b101 _
b101 V
#154
b110 T
b110 _
b110 V
#156
b111 T
b111 _
b111 V
#158
b1000 T
b1000 _
b1000 V
#160
b1001 T
b1001 _
b1001 V
#162
b1010 T
b1010 _
b1010 V
#164
b1011 T
b1011 _
b1011 V
#166
b1100 T
b1100 _
b1100 V
#168
b1101 T
b1101 _
b1101 V
#170
b1110 T
b1110 _
b1110 V
#172
b1111 T
b1111 _
b1111 V
#174
0R
b1111011 M
b1111011 X
b101 L
b101 W
1S
b10000 V
#175
1R
#176
0R
#177
1R
#178
b100000 "
b100000 ^
b1010 '
b1010 [
1)
b0 T
b0 _
b0 V
0S
#180
b1111 '
b1111 [
b1 T
b1 _
b1 V
#182
b100000000 "
b100000000 ^
b1011 '
b1011 [
b1 %
b1 \
0$
b10 T
b10 _
b10 V
#184
b101000000 "
b101000000 ^
b1100 '
b1100 [
b11 %
b11 \
b11 T
b11 _
b11 V
#186
bx "
bx ^
bx '
bx [
0)
b0 %
b0 \
1$
b100 T
b100 _
b100 V
#188
b101 T
b101 _
b101 V
#190
b110 T
b110 _
b110 V
#192
b111 T
b111 _
b111 V
#194
b1000 T
b1000 _
b1000 V
#196
b1001 T
b1001 _
b1001 V
#198
b1010 T
b1010 _
b1010 V
#200
b1011 T
b1011 _
b1011 V
#202
b1100 T
b1100 _
b1100 V
#204
b1101 T
b1101 _
b1101 V
#206
b1110 T
b1110 _
b1110 V
#208
b1111 T
b1111 _
b1111 V
#210
0R
b1 L
b1 W
1S
b10000 V
#211
b1 !
b1 ~
b100 1
b100 y
b1111011 /
b1111011 {
b1010 0
b1010 z
b100000 .
b100000 |
1R
#212
b100000 "
b100000 ^
b1010 '
b1010 [
b1111011 #
b1111011 ]
b0 T
b0 _
b0 V
0S
#214
b1111 '
b1111 [
bx #
bx ]
1)
b1 T
b1 _
b1 V
#216
b100000000 "
b100000000 ^
b1011 '
b1011 [
b1 %
b1 \
0$
b10 T
b10 _
b10 V
#218
b101000000 "
b101000000 ^
b1100 '
b1100 [
b11 %
b11 \
b11 T
b11 _
b11 V
#220
bx "
bx ^
bx '
bx [
0)
b0 %
b0 \
1$
b100 T
b100 _
b100 V
#222
b101 T
b101 _
b101 V
#224
b110 T
b110 _
b110 V
#226
b111 T
b111 _
b111 V
#228
b1000 T
b1000 _
b1000 V
#230
b1001 T
b1001 _
b1001 V
#232
b1010 T
b1010 _
b1010 V
#234
b1011 T
b1011 _
b1011 V
#236
b1100 T
b1100 _
b1100 V
#238
b1101 T
b1101 _
b1101 V
#240
b1110 T
b1110 _
b1110 V
#242
b1111 T
b1111 _
b1111 V
#244
0R
b111001000 M
b111001000 X
b10 L
b10 W
1S
b10000 V
#245
b10 !
b10 ~
b100 1
b100 y
b111001000 /
b111001000 {
b1111 0
b1111 z
b100000 .
b100000 |
1R
#246
b100000 "
b100000 ^
b1010 '
b1010 [
b1111011 #
b1111011 ]
b0 T
b0 _
b0 V
0S
b0 L
b0 W
#248
b1111 '
b1111 [
b111001000 #
b111001000 ]
b1 T
b1 _
b1 V
#250
b100000000 "
b100000000 ^
b1011 '
b1011 [
bx #
bx ]
1)
b1 %
b1 \
0$
b10 T
b10 _
b10 V
#252
b101000000 "
b101000000 ^
b1100 '
b1100 [
b11 %
b11 \
b11 T
b11 _
b11 V
#254
bx "
bx ^
bx '
bx [
0)
b0 %
b0 \
1$
b100 T
b100 _
b100 V
#256
b101 T
b101 _
b101 V
#258
b110 T
b110 _
b110 V
#260
b111 T
b111 _
b111 V
#262
b1000 T
b1000 _
b1000 V
#264
b1001 T
b1001 _
b1001 V
#266
b1010 T
b1010 _
b1010 V
#268
b1011 T
b1011 _
b1011 V
#270
b1100 T
b1100 _
b1100 V
#272
b1101 T
b1101 _
b1101 V
#274
b1110 T
b1110 _
b1110 V
#276
b1111 T
b1111 _
b1111 V
#278
0R
1S
b10000 V
#279
b0 1
b0 y
b0 /
b0 {
b0 0
b0 z
b0 .
b0 |
1R
#280
b100000 "
b100000 ^
b1010 '
b1010 [
b1111011 #
b1111011 ]
b0 T
b0 _
b0 V
0S
#282
b1111 '
b1111 [
b111001000 #
b111001000 ]
b1 T
b1 _
b1 V
#284
b100000000 "
b100000000 ^
b1011 '
b1011 [
bx #
bx ]
1)
b1 %
b1 \
0$
b10 T
b10 _
b10 V
#286
b101000000 "
b101000000 ^
b1100 '
b1100 [
b11 %
b11 \
b11 T
b11 _
b11 V
#288
bx "
bx ^
bx '
bx [
0)
b0 %
b0 \
1$
b100 T
b100 _
b100 V
#290
b101 T
b101 _
b101 V
#292
b110 T
b110 _
b110 V
#294
b111 T
b111 _
b111 V
#296
b1000 T
b1000 _
b1000 V
#298
b1001 T
b1001 _
b1001 V
#300
b1010 T
b1010 _
b1010 V
#302
b1011 T
b1011 _
b1011 V
#304
b1100 T
b1100 _
b1100 V
#306
b1101 T
b1101 _
b1101 V
#308
b1110 T
b1110 _
b1110 V
#310
b1111 T
b1111 _
b1111 V
#312
0R
1Q
0P
b10100 N
b10100 Y
b0 O
b0 Z
1S
b10000 V
#313
b101 ,
b101 }
1R
#314
0R
b10110 N
b10110 Y
b10 O
b10 Z
#315
b110 ,
b110 }
1R
#316
b100000 "
b100000 ^
b1010 '
b1010 [
b1111011 #
b1111011 ]
b0 T
b0 _
b0 V
0S
0Q
#318
b1111 '
b1111 [
b111001000 #
b111001000 ]
b1 T
b1 _
b1 V
#320
b100000000 "
b100000000 ^
b1011 '
b1011 [
bx #
bx ]
1)
b1 %
b1 \
0$
b10 T
b10 _
b10 V
#322
b101000000 "
b101000000 ^
b1100 '
b1100 [
b11 %
b11 \
b11 T
b11 _
b11 V
#324
b0 "
b0 ^
b10100 '
b10100 [
b0 %
b0 \
1$
b100 T
b100 _
b100 V
#326
b10 "
b10 ^
b10110 '
b10110 [
b101 T
b101 _
b101 V
#328
bx "
bx ^
bx '
bx [
0)
b110 T
b110 _
b110 V
#330
b111 T
b111 _
b111 V
#332
b1000 T
b1000 _
b1000 V
#334
b1001 T
b1001 _
b1001 V
#336
b1010 T
b1010 _
b1010 V
#338
b1011 T
b1011 _
b1011 V
#340
b1100 T
b1100 _
b1100 V
#342
b1101 T
b1101 _
b1101 V
#344
b1110 T
b1110 _
b1110 V
#346
b1111 T
b1111 _
b1111 V
#348
0R
b1111100111 M
b1111100111 X
b101 L
b101 W
1S
b10000 V
#349
1R
#350
b100000 "
b100000 ^
b1010 '
b1010 [
b1111011 #
b1111011 ]
b0 T
b0 _
b0 V
0S
#352
b1111 '
b1111 [
b111001000 #
b111001000 ]
b1 T
b1 _
b1 V
#354
b100000000 "
b100000000 ^
b1011 '
b1011 [
bx #
bx ]
1)
b1 %
b1 \
0$
b10 T
b10 _
b10 V
#356
b101000000 "
b101000000 ^
b1100 '
b1100 [
b11 %
b11 \
b11 T
b11 _
b11 V
#358
b0 "
b0 ^
b10100 '
b10100 [
b1111100111 #
b1111100111 ]
1&
b0 %
b0 \
1$
b100 T
b100 _
b100 V
#360
b10 "
b10 ^
b10110 '
b10110 [
bx #
bx ]
0&
b101 T
b101 _
b101 V
#362
bx "
bx ^
bx '
bx [
0)
b110 T
b110 _
b110 V
#364
b111 T
b111 _
b111 V
#366
b1000 T
b1000 _
b1000 V
#368
b1001 T
b1001 _
b1001 V
#370
b1010 T
b1010 _
b1010 V
#372
b1011 T
b1011 _
b1011 V
#374
b1100 T
b1100 _
b1100 V
#376
b1101 T
b1101 _
b1101 V
#378
b1110 T
b1110 _
b1110 V
#380
b1111 T
b1111 _
b1111 V
#382
0R
0K
b0 M
b0 X
b11 L
b11 W
1S
b10000 V
#383
0+
1R
#384
b100000 "
b100000 ^
b1010 '
b1010 [
b1111011 #
b1111011 ]
b0 T
b0 _
b0 V
0S
b0 L
b0 W
#386
b1111 '
b1111 [
b111001000 #
b111001000 ]
b1 T
b1 _
b1 V
#388
b100000000 "
b100000000 ^
b1011 '
b1011 [
b0 #
b0 ]
1)
1&
b10 T
b10 _
b10 V
#390
b101000000 "
b101000000 ^
b1100 '
b1100 [
bx #
bx ]
0&
b11 %
b11 \
0$
b11 T
b11 _
b11 V
#392
b0 "
b0 ^
b10100 '
b10100 [
b1111100111 #
b1111100111 ]
1&
b0 %
b0 \
1$
b100 T
b100 _
b100 V
#394
b10 "
b10 ^
b10110 '
b10110 [
bx #
bx ]
0&
b101 T
b101 _
b101 V
#396
bx "
bx ^
bx '
bx [
0)
b110 T
b110 _
b110 V
#398
b111 T
b111 _
b111 V
#400
b1000 T
b1000 _
b1000 V
#402
b1001 T
b1001 _
b1001 V
#404
b1010 T
b1010 _
b1010 V
#406
b1011 T
b1011 _
b1011 V
#408
b1100 T
b1100 _
b1100 V
#410
b1101 T
b1101 _
b1101 V
#412
b1110 T
b1110 _
b1110 V
#414
b1111 T
b1111 _
b1111 V
#416
0R
1S
b10000 V
#417
b11 !
b11 ~
b1011 0
b1011 z
b100000000 .
b100000000 |
1R
#418
b100000 "
b100000 ^
b1010 '
b1010 [
b1111011 #
b1111011 ]
b0 T
b0 _
b0 V
0S
#420
b1111 '
b1111 [
b111001000 #
b111001000 ]
b1 T
b1 _
b1 V
#422
b100000000 "
b100000000 ^
b1011 '
b1011 [
b0 #
b0 ]
b10 T
b10 _
b10 V
#424
b101000000 "
b101000000 ^
b1100 '
b1100 [
bx #
bx ]
1)
b11 %
b11 \
0$
b11 T
b11 _
b11 V
#426
b0 "
b0 ^
b10100 '
b10100 [
b1111100111 #
b1111100111 ]
1&
b0 %
b0 \
1$
b100 T
b100 _
b100 V
#428
b10 "
b10 ^
b10110 '
b10110 [
bx #
bx ]
0&
b101 T
b101 _
b101 V
#430
bx "
bx ^
bx '
bx [
0)
b110 T
b110 _
b110 V
#432
b111 T
b111 _
b111 V
#434
b1000 T
b1000 _
b1000 V
#436
b1001 T
b1001 _
b1001 V
#438
b1010 T
b1010 _
b1010 V
#440
b1011 T
b1011 _
b1011 V
#442
b1100 T
b1100 _
b1100 V
#444
b1101 T
b1101 _
b1101 V
#446
b1110 T
b1110 _
b1110 V
#448
b1111 T
b1111 _
b1111 V
#450
0R
1S
b10000 V
#451
b0 0
b0 z
b0 .
b0 |
1R
#452
b100000 "
b100000 ^
b1010 '
b1010 [
b1111011 #
b1111011 ]
b0 T
b0 _
b0 V
0S
#454
b1111 '
b1111 [
b111001000 #
b111001000 ]
b1 T
b1 _
b1 V
#456
b100000000 "
b100000000 ^
b1011 '
b1011 [
b0 #
b0 ]
b10 T
b10 _
b10 V
#458
b101000000 "
b101000000 ^
b1100 '
b1100 [
bx #
bx ]
1)
b11 %
b11 \
0$
b11 T
b11 _
b11 V
#460
b0 "
b0 ^
b10100 '
b10100 [
b1111100111 #
b1111100111 ]
1&
b0 %
b0 \
1$
b100 T
b100 _
b100 V
#462
b10 "
b10 ^
b10110 '
b10110 [
bx #
bx ]
0&
b101 T
b101 _
b101 V
#464
bx "
bx ^
bx '
bx [
0)
b110 T
b110 _
b110 V
#466
b111 T
b111 _
b111 V
#468
b1000 T
b1000 _
b1000 V
#470
b1001 T
b1001 _
b1001 V
#472
b1010 T
b1010 _
b1010 V
#474
b1011 T
b1011 _
b1011 V
#476
b1100 T
b1100 _
b1100 V
#478
b1101 T
b1101 _
b1101 V
#480
b1110 T
b1110 _
b1110 V
#482
b1111 T
b1111 _
b1111 V
#484
0R
1K
b1101111 M
b1101111 X
b100 L
b100 W
1S
b10000 V
#485
0+
1R
#486
b100000 "
b100000 ^
b1010 '
b1010 [
b1111011 #
b1111011 ]
b0 T
b0 _
b0 V
0S
b0 L
b0 W
#488
b1111 '
b1111 [
b111001000 #
b111001000 ]
b1 T
b1 _
b1 V
#490
b100000000 "
b100000000 ^
b1011 '
b1011 [
b0 #
b0 ]
b10 T
b10 _
b10 V
#492
b101000000 "
b101000000 ^
b1100 '
b1100 [
b1101111 #
b1101111 ]
1)
1&
b10 %
b10 \
b11 T
b11 _
b11 V
#494
b0 "
b0 ^
b10100 '
b10100 [
b1111100111 #
b1111100111 ]
b0 %
b0 \
b100 T
b100 _
b100 V
#496
b10 "
b10 ^
b10110 '
b10110 [
bx #
bx ]
0&
b101 T
b101 _
b101 V
#498
bx "
bx ^
bx '
bx [
0)
b110 T
b110 _
b110 V
#500
b111 T
b111 _
b111 V
#502
b1000 T
b1000 _
b1000 V
#504
b1001 T
b1001 _
b1001 V
#506
b1010 T
b1010 _
b1010 V
#508
b1011 T
b1011 _
b1011 V
#510
b1100 T
b1100 _
b1100 V
#512
b1101 T
b1101 _
b1101 V
#514
b1110 T
b1110 _
b1110 V
#516
b1111 T
b1111 _
b1111 V
#518
0R
1S
b10000 V
#519
b100 !
b100 ~
b1101111 /
b1101111 {
b1100 0
b1100 z
b101000000 .
b101000000 |
1R
#520
b100000 "
b100000 ^
b1010 '
b1010 [
b1111011 #
b1111011 ]
b0 T
b0 _
b0 V
0S
#522
b1111 '
b1111 [
b111001000 #
b111001000 ]
b1 T
b1 _
b1 V
#524
b100000000 "
b100000000 ^
b1011 '
b1011 [
b0 #
b0 ]
b10 T
b10 _
b10 V
#526
b101000000 "
b101000000 ^
b1100 '
b1100 [
b1101111 #
b1101111 ]
b10 %
b10 \
b11 T
b11 _
b11 V
#528
b0 "
b0 ^
b10100 '
b10100 [
b1111100111 #
b1111100111 ]
1)
1&
b0 %
b0 \
b100 T
b100 _
b100 V
#530
b10 "
b10 ^
b10110 '
b10110 [
bx #
bx ]
0&
b101 T
b101 _
b101 V
#532
bx "
bx ^
bx '
bx [
0)
b110 T
b110 _
b110 V
#534
b111 T
b111 _
b111 V
#536
b1000 T
b1000 _
b1000 V
#538
b1001 T
b1001 _
b1001 V
#540
b1010 T
b1010 _
b1010 V
#542
b1011 T
b1011 _
b1011 V
#544
b1100 T
b1100 _
b1100 V
#546
b1101 T
b1101 _
b1101 V
#548
b1110 T
b1110 _
b1110 V
#550
b1111 T
b1111 _
b1111 V
#552
0R
b11011110 M
b11011110 X
b110 L
b110 W
1S
b10000 V
#553
b101 !
b101 ~
b100 1
b100 y
b1111100111 /
b1111100111 {
b10100 0
b10100 z
b0 .
b0 |
1R
#554
b100000 "
b100000 ^
b1010 '
b1010 [
b1111011 #
b1111011 ]
b0 T
b0 _
b0 V
0S
b0 L
b0 W
#556
b1111 '
b1111 [
b111001000 #
b111001000 ]
b1 T
b1 _
b1 V
#558
b100000000 "
b100000000 ^
b1011 '
b1011 [
b0 #
b0 ]
b10 T
b10 _
b10 V
#560
b101000000 "
b101000000 ^
b1100 '
b1100 [
b1101111 #
b1101111 ]
b10 %
b10 \
b11 T
b11 _
b11 V
#562
b0 "
b0 ^
b10100 '
b10100 [
b1111100111 #
b1111100111 ]
b0 %
b0 \
b100 T
b100 _
b100 V
#564
b10 "
b10 ^
b10110 '
b10110 [
b11011110 #
b11011110 ]
1)
1&
b101 T
b101 _
b101 V
#566
bx "
bx ^
bx '
bx [
bx #
bx ]
0)
0&
b110 T
b110 _
b110 V
#568
b111 T
b111 _
b111 V
#570
b1000 T
b1000 _
b1000 V
#572
b1001 T
b1001 _
b1001 V
#574
b1010 T
b1010 _
b1010 V
#576
b1011 T
b1011 _
b1011 V
#578
b1100 T
b1100 _
b1100 V
#580
b1101 T
b1101 _
b1101 V
#582
b1110 T
b1110 _
b1110 V
#584
b1111 T
b1111 _
b1111 V
#586
0R
1S
b10000 V
#587
b110 !
b110 ~
b10 .
b10 |
b100 1
b100 y
b11011110 /
b11011110 {
b10110 0
b10110 z
1R
#588
b100000 "
b100000 ^
b1010 '
b1010 [
b1111011 #
b1111011 ]
b0 T
b0 _
b0 V
0S
#590
b1111 '
b1111 [
b111001000 #
b111001000 ]
b1 T
b1 _
b1 V
#592
b100000000 "
b100000000 ^
b1011 '
b1011 [
b0 #
b0 ]
b10 T
b10 _
b10 V
#594
b101000000 "
b101000000 ^
b1100 '
b1100 [
b1101111 #
b1101111 ]
b10 %
b10 \
b11 T
b11 _
b11 V
#596
b0 "
b0 ^
b10100 '
b10100 [
b1111100111 #
b1111100111 ]
b0 %
b0 \
b100 T
b100 _
b100 V
#598
b10 "
b10 ^
b10110 '
b10110 [
b11011110 #
b11011110 ]
b101 T
b101 _
b101 V
#600
bx "
bx ^
bx '
bx [
bx #
bx ]
b110 T
b110 _
b110 V
#602
b111 T
b111 _
b111 V
#604
b1000 T
b1000 _
b1000 V
#606
b1001 T
b1001 _
b1001 V
#608
b1010 T
b1010 _
b1010 V
#610
b1011 T
b1011 _
b1011 V
#612
b1100 T
b1100 _
b1100 V
#614
b1101 T
b1101 _
b1101 V
#616
b1110 T
b1110 _
b1110 V
#618
b1111 T
b1111 _
b1111 V
#620
0R
1S
b10000 V
#621
b0 1
b0 y
b0 /
b0 {
b0 0
b0 z
b0 .
b0 |
1R
#622
b100000 "
b100000 ^
b1010 '
b1010 [
b1111011 #
b1111011 ]
b0 T
b0 _
b0 V
0S
#624
b1111 '
b1111 [
b111001000 #
b111001000 ]
b1 T
b1 _
b1 V
#626
b100000000 "
b100000000 ^
b1011 '
b1011 [
b0 #
b0 ]
b10 T
b10 _
b10 V
#628
b101000000 "
b101000000 ^
b1100 '
b1100 [
b1101111 #
b1101111 ]
b10 %
b10 \
b11 T
b11 _
b11 V
#630
b0 "
b0 ^
b10100 '
b10100 [
b1111100111 #
b1111100111 ]
b0 %
b0 \
b100 T
b100 _
b100 V
#632
b10 "
b10 ^
b10110 '
b10110 [
b11011110 #
b11011110 ]
b101 T
b101 _
b101 V
#634
bx "
bx ^
bx '
bx [
bx #
bx ]
b110 T
b110 _
b110 V
#636
b111 T
b111 _
b111 V
#638
b1000 T
b1000 _
b1000 V
#640
b1001 T
b1001 _
b1001 V
#642
b1010 T
b1010 _
b1010 V
#644
b1011 T
b1011 _
b1011 V
#646
b1100 T
b1100 _
b1100 V
#648
b1101 T
b1101 _
b1101 V
#650
b1110 T
b1110 _
b1110 V
#652
b1111 T
b1111 _
b1111 V
#654
0R
1Q
b1010 N
b1010 Y
b100000 O
b100000 Z
1S
b10000 V
#655
b111 ,
b111 }
1R
#656
0R
#657
b1000 ,
b1000 }
1R
#658
0R
#659
b1001 ,
b1001 }
1R
#660
0R
#661
b1010 ,
b1010 }
1R
#662
0R
#663
b1011 ,
b1011 }
1R
#664
0R
#665
b1100 ,
b1100 }
1R
#666
0R
#667
b1101 ,
b1101 }
1R
#668
0R
#669
b1110 ,
b1110 }
1R
#670
0R
#671
b1111 ,
b1111 }
1R
#672
0R
#673
b0 ,
b0 }
1)
b1010 '
b1010 [
b100000 "
b100000 ^
1R
#674
0R
#675
b1 ,
b1 }
1R
#676
0R
#677
b10 ,
b10 }
1R
#678
0R
#679
b11 ,
b11 }
1R
#680
0R
#681
b100 ,
b100 }
1R
#682
b1111011 #
b1111011 ]
b0 T
b0 _
b0 V
0S
#684
b111001000 #
b111001000 ]
b1 T
b1 _
b1 V
#686
b0 #
b0 ]
b10 T
b10 _
b10 V
#688
b1101111 #
b1101111 ]
b11 T
b11 _
b11 V
#690
b0 "
b0 ^
b10100 '
b10100 [
b1111100111 #
b1111100111 ]
0)
b100 T
b100 _
b100 V
#692
b10 "
b10 ^
b10110 '
b10110 [
b11011110 #
b11011110 ]
b101 T
b101 _
b101 V
#694
b100000 "
b100000 ^
b1010 '
b1010 [
bx #
bx ]
1)
b110 T
b110 _
b110 V
#696
b111 T
b111 _
b111 V
#698
b1000 T
b1000 _
b1000 V
#700
b1001 T
b1001 _
b1001 V
#702
b1010 T
b1010 _
b1010 V
#704
b1011 T
b1011 _
b1011 V
#706
b1100 T
b1100 _
b1100 V
#708
b1101 T
b1101 _
b1101 V
#710
b1110 T
b1110 _
b1110 V
#712
b1111 T
b1111 _
b1111 V
#714
0R
1S
b10000 V
#715
b101 ,
b101 }
1R
#716
b1111011 #
b1111011 ]
b0 T
b0 _
b0 V
0S
#718
b111001000 #
b111001000 ]
b1 T
b1 _
b1 V
#720
b0 #
b0 ]
b10 T
b10 _
b10 V
#722
b1101111 #
b1101111 ]
b11 T
b11 _
b11 V
#724
b1111100111 #
b1111100111 ]
b100 T
b100 _
b100 V
#726
b10 "
b10 ^
b10110 '
b10110 [
b11011110 #
b11011110 ]
0)
b101 T
b101 _
b101 V
#728
b100000 "
b100000 ^
b1010 '
b1010 [
bx #
bx ]
1)
b110 T
b110 _
b110 V
