SSOOO/OOO_Waveform.vcd
$date
	Mon Dec 30 21:34:14 2024
$end
$version
	Icarus Verilog
$end
$timescale
	1s
$end
$scope module OOO_CPU_Sim $end
$var wire 32 ! cycles_consumed [31:0] $end
$var reg 1 " clk $end
$var reg 1 # rst $end
$scope module cpu $end
$var wire 1 $ FU_Is_Free $end
$var wire 1 % clk $end
$var wire 1 " input_clk $end
$var wire 1 # rst $end
$var wire 1 & hlt $end
$var wire 5 ' RegFile_RP1_Reg2_ROBEN [4:0] $end
$var wire 32 ( RegFile_RP1_Reg2 [31:0] $end
$var wire 5 ) RegFile_RP1_Reg1_ROBEN [4:0] $end
$var wire 32 * RegFile_RP1_Reg1 [31:0] $end
$var wire 12 + RS_FU_opcode [11:0] $end
$var wire 32 , RS_FU_Val2 [31:0] $end
$var wire 32 - RS_FU_Val1 [31:0] $end
$var wire 5 . RS_FU_RS_ID [4:0] $end
$var wire 5 / RS_FU_ROBEN [4:0] $end
$var wire 32 0 RS_FU_Immediate [31:0] $end
$var wire 4 1 RS_FU_ALUOP [3:0] $end
$var wire 1 2 RS_FULL_FLAG $end
$var wire 5 3 ROB_Start_Index [4:0] $end
$var wire 32 4 ROB_RP1_Write_Data2 [31:0] $end
$var wire 32 5 ROB_RP1_Write_Data1 [31:0] $end
$var wire 1 6 ROB_RP1_Ready2 $end
$var wire 1 7 ROB_RP1_Ready1 $end
$var wire 1 8 ROB_FULL_FLAG $end
$var wire 1 9 ROB_FLUSH_Flag $end
$var wire 5 : ROB_End_Index [4:0] $end
$var wire 1 ; ROB_EXCEPTION_Flag $end
$var wire 12 < ROB_Commit_opcode [11:0] $end
$var wire 32 = ROB_Commit_Write_Data [31:0] $end
$var wire 5 > ROB_Commit_Rd [4:0] $end
$var wire 3 ? ROB_Commit_Control_Signals [2:0] $end
$var wire 32 @ PC_out [31:0] $end
$var wire 32 A PC [31:0] $end
$var wire 32 B MEMU_Result [31:0] $end
$var wire 5 C MEMU_ROBEN [4:0] $end
$var wire 4 D LdStB_Start_Index [3:0] $end
$var wire 12 E LdStB_MEMU_opcode [11:0] $end
$var wire 1 F LdStB_MEMU_VALID_Inst $end
$var wire 5 G LdStB_MEMU_Rd [4:0] $end
$var wire 32 H LdStB_MEMU_ROBEN2_VAL [31:0] $end
$var wire 5 I LdStB_MEMU_ROBEN2 [4:0] $end
$var wire 32 J LdStB_MEMU_ROBEN1_VAL [31:0] $end
$var wire 5 K LdStB_MEMU_ROBEN1 [4:0] $end
$var wire 5 L LdStB_MEMU_ROBEN [4:0] $end
$var wire 32 M LdStB_MEMU_Immediate [31:0] $end
$var wire 32 N LdStB_MEMU_EA [31:0] $end
$var wire 4 O LdStB_End_Index [3:0] $end
$var wire 5 P InstQ_shamt [4:0] $end
$var wire 5 Q InstQ_rt [4:0] $end
$var wire 5 R InstQ_rs [4:0] $end
$var wire 5 S InstQ_rd [4:0] $end
$var wire 12 T InstQ_opcode [11:0] $end
$var wire 16 U InstQ_immediate [15:0] $end
$var wire 26 V InstQ_address [25:0] $end
$var wire 1 W InstQ_VALID_Inst $end
$var wire 4 X InstQ_ALUOP [3:0] $end
$var wire 12 Y FU_opcode [11:0] $end
$var wire 32 Z FU_Result [31:0] $end
$var wire 5 [ FU_ROBEN [4:0] $end
$var wire 1 \ FU_Branch_Decision $end
$var wire 32 ] CDB_Write_Data2 [31:0] $end
$var wire 32 ^ CDB_Write_Data1 [31:0] $end
$var wire 5 _ CDB_ROBEN2 [4:0] $end
$var wire 5 ` CDB_ROBEN1 [4:0] $end
$var wire 12 a AU_LdStB_opcode [11:0] $end
$var wire 1 b AU_LdStB_VALID_Inst $end
$var wire 5 c AU_LdStB_Rd [4:0] $end
$var wire 32 d AU_LdStB_ROBEN2_VAL [31:0] $end
$var wire 5 e AU_LdStB_ROBEN2 [4:0] $end
$var wire 32 f AU_LdStB_ROBEN1_VAL [31:0] $end
$var wire 5 g AU_LdStB_ROBEN1 [4:0] $end
$var wire 5 h AU_LdStB_ROBEN [4:0] $end
$var wire 32 i AU_LdStB_Immediate [31:0] $end
$var wire 32 j AU_LdStB_EA [31:0] $end
$var parameter 12 k add $end
$var parameter 12 l addi $end
$var parameter 12 m addu $end
$var parameter 12 n and_ $end
$var parameter 12 o andi $end
$var parameter 12 p beq $end
$var parameter 12 q bne $end
$var parameter 12 r hlt_inst $end
$var parameter 12 s j $end
$var parameter 12 t jal $end
$var parameter 12 u jr $end
$var parameter 12 v lw $end
$var parameter 12 w nor_ $end
$var parameter 12 x or_ $end
$var parameter 12 y ori $end
$var parameter 12 z sgt $end
$var parameter 12 { sll $end
$var parameter 12 | slt $end
$var parameter 12 } slti $end
$var parameter 12 ~ srl $end
$var parameter 12 !" sub $end
$var parameter 12 "" subu $end
$var parameter 12 #" sw $end
$var parameter 12 $" xor_ $end
$var parameter 12 %" xori $end
$var reg 1 &" ROB_HLT $end
$var reg 32 '" cycles_consumed [31:0] $end
$scope module AU $end
$var wire 32 (" AU_LdStB_Immediate [31:0] $end
$var wire 5 )" AU_LdStB_ROBEN [4:0] $end
$var wire 5 *" AU_LdStB_ROBEN1 [4:0] $end
$var wire 32 +" AU_LdStB_ROBEN1_VAL [31:0] $end
$var wire 5 ," AU_LdStB_ROBEN2 [4:0] $end
$var wire 32 -" AU_LdStB_ROBEN2_VAL [31:0] $end
$var wire 5 ." AU_LdStB_Rd [4:0] $end
$var wire 1 b AU_LdStB_VALID_Inst $end
$var wire 12 /" AU_LdStB_opcode [11:0] $end
$var wire 5 0" Decoded_ROBEN [4:0] $end
$var wire 32 1" Immediate [31:0] $end
$var wire 5 2" ROBEN1 [4:0] $end
$var wire 32 3" ROBEN1_VAL [31:0] $end
$var wire 5 4" ROBEN2 [4:0] $end
$var wire 32 5" ROBEN2_VAL [31:0] $end
$var wire 12 6" Decoded_opcode [11:0] $end
$var wire 5 7" Decoded_Rd [4:0] $end
$var wire 32 8" AU_LdStB_EA [31:0] $end
$upscope $end
$scope module alu $end
$var wire 32 9" B [31:0] $end
$var wire 1 $ FU_Is_Free $end
$var wire 1 % clk $end
$var wire 1 # rst $end
$var wire 12 :" opcode [11:0] $end
$var wire 5 ;" ROBEN [4:0] $end
$var wire 4 <" ALUOP [3:0] $end
$var wire 32 =" A [31:0] $end
$var parameter 12 >" add $end
$var parameter 12 ?" addi $end
$var parameter 12 @" addu $end
$var parameter 12 A" and_ $end
$var parameter 12 B" andi $end
$var parameter 12 C" beq $end
$var parameter 12 D" bne $end
$var parameter 12 E" hlt_inst $end
$var parameter 12 F" j $end
$var parameter 12 G" jal $end
$var parameter 12 H" jr $end
$var parameter 12 I" lw $end
$var parameter 12 J" nor_ $end
$var parameter 12 K" or_ $end
$var parameter 12 L" ori $end
$var parameter 12 M" sgt $end
$var parameter 12 N" sll $end
$var parameter 12 O" slt $end
$var parameter 12 P" slti $end
$var parameter 12 Q" srl $end
$var parameter 12 R" sub $end
$var parameter 12 S" subu $end
$var parameter 12 T" sw $end
$var parameter 12 U" xor_ $end
$var parameter 12 V" xori $end
$var reg 1 \ FU_Branch_Decision $end
$var reg 5 W" FU_ROBEN [4:0] $end
$var reg 12 X" FU_opcode [11:0] $end
$var reg 32 Y" FU_res [31:0] $end
$var reg 32 Z" Reg_res [31:0] $end
$upscope $end
$scope module alu_op $end
$var wire 12 [" opcode [11:0] $end
$var parameter 12 \" add $end
$var parameter 12 ]" addi $end
$var parameter 12 ^" addu $end
$var parameter 12 _" and_ $end
$var parameter 12 `" andi $end
$var parameter 12 a" beq $end
$var parameter 12 b" bne $end
$var parameter 12 c" hlt_inst $end
$var parameter 12 d" j $end
$var parameter 12 e" jal $end
$var parameter 12 f" jr $end
$var parameter 12 g" lw $end
$var parameter 12 h" nor_ $end
$var parameter 12 i" or_ $end
$var parameter 12 j" ori $end
$var parameter 12 k" sgt $end
$var parameter 12 l" sll $end
$var parameter 12 m" slt $end
$var parameter 12 n" slti $end
$var parameter 12 o" srl $end
$var parameter 12 p" sub $end
$var parameter 12 q" subu $end
$var parameter 12 r" sw $end
$var parameter 12 s" xor_ $end
$var parameter 12 t" xori $end
$var reg 4 u" ALU_OP [3:0] $end
$upscope $end
$scope module cdb $end
$var wire 5 v" ROBEN1 [4:0] $end
$var wire 5 w" ROBEN3 [4:0] $end
$var wire 5 x" ROBEN4 [4:0] $end
$var wire 32 y" Write_Data1 [31:0] $end
$var wire 32 z" Write_Data3 [31:0] $end
$var wire 32 {" Write_Data4 [31:0] $end
$var wire 5 |" out_ROBEN1 [4:0] $end
$var wire 5 }" out_ROBEN2 [4:0] $end
$var wire 5 ~" out_ROBEN3 [4:0] $end
$var wire 5 !# out_ROBEN4 [4:0] $end
$var wire 32 "# out_Write_Data1 [31:0] $end
$var wire 32 ## out_Write_Data2 [31:0] $end
$var wire 32 $# out_Write_Data3 [31:0] $end
$var wire 32 %# out_Write_Data4 [31:0] $end
$var wire 32 &# Write_Data2 [31:0] $end
$var wire 5 '# ROBEN2 [4:0] $end
$upscope $end
$scope module datamemory $end
$var wire 5 (# ROBEN [4:0] $end
$var wire 1 )# Read_en $end
$var wire 1 *# Write_en $end
$var wire 1 % clk $end
$var wire 32 +# data [31:0] $end
$var wire 32 ,# address [31:0] $end
$var reg 5 -# MEMU_ROBEN [4:0] $end
$var reg 32 .# MEMU_Result [31:0] $end
$var integer 32 /# i [31:0] $end
$upscope $end
$scope module instq $end
$var wire 1 % clk $end
$var wire 32 0# inst [31:0] $end
$var wire 1 # rst $end
$var wire 32 1# PC [31:0] $end
$var reg 1 W VALID_Inst $end
$var reg 26 2# address [25:0] $end
$var reg 16 3# immediate [15:0] $end
$var reg 12 4# opcode [11:0] $end
$var reg 5 5# rd [4:0] $end
$var reg 5 6# rs [4:0] $end
$var reg 5 7# rt [4:0] $end
$var reg 5 8# shamt [4:0] $end
$upscope $end
$scope module ldstbuffer $end
$var wire 5 9# CDB_ROBEN [4:0] $end
$var wire 32 :# CDB_ROBEN_VAL [31:0] $end
$var wire 32 ;# EA [31:0] $end
$var wire 32 <# Immediate [31:0] $end
$var wire 5 =# ROBEN [4:0] $end
$var wire 5 ># ROBEN1 [4:0] $end
$var wire 32 ?# ROBEN1_VAL [31:0] $end
$var wire 5 @# ROBEN2 [4:0] $end
$var wire 32 A# ROBEN2_VAL [31:0] $end
$var wire 5 B# Rd [4:0] $end
$var wire 1 C# Reg_Busy_test $end
$var wire 32 D# Reg_EA_test [31:0] $end
$var wire 32 E# Reg_Immediate_test [31:0] $end
$var wire 32 F# Reg_ROBEN1_VAL_test [31:0] $end
$var wire 5 G# Reg_ROBEN1_test [4:0] $end
$var wire 32 H# Reg_ROBEN2_VAL_test [31:0] $end
$var wire 5 I# Reg_ROBEN2_test [4:0] $end
$var wire 5 J# Reg_ROBEN_test [4:0] $end
$var wire 5 K# Reg_Rd_test [4:0] $end
$var wire 1 L# Reg_Ready_test $end
$var wire 32 M# Reg_Write_Data_test [31:0] $end
$var wire 12 N# Reg_opcode_test [11:0] $end
$var wire 1 b VALID_Inst $end
$var wire 1 % clk $end
$var wire 5 O# index_test [4:0] $end
$var wire 12 P# opcode [11:0] $end
$var wire 1 # rst $end
$var reg 4 Q# End_Index [3:0] $end
$var reg 4 R# Start_Index [3:0] $end
$var reg 5 S# i [4:0] $end
$var reg 5 T# j [4:0] $end
$var reg 5 U# k [4:0] $end
$var reg 32 V# out_EA [31:0] $end
$var reg 32 W# out_Immediate [31:0] $end
$var reg 5 X# out_ROBEN [4:0] $end
$var reg 5 Y# out_ROBEN1 [4:0] $end
$var reg 32 Z# out_ROBEN1_VAL [31:0] $end
$var reg 5 [# out_ROBEN2 [4:0] $end
$var reg 32 \# out_ROBEN2_VAL [31:0] $end
$var reg 5 ]# out_Rd [4:0] $end
$var reg 1 F out_VALID_Inst $end
$var reg 12 ^# out_opcode [11:0] $end
$upscope $end
$scope module pcreg $end
$var wire 32 _# DataIn [31:0] $end
$var wire 1 `# PC_Write $end
$var wire 1 % clk $end
$var wire 1 # rst $end
$var parameter 32 a# initialaddr $end
$var reg 32 b# DataOut [31:0] $end
$upscope $end
$scope module regfile $end
$var wire 5 c# Decoded_WP1_DRindex [4:0] $end
$var wire 5 d# Decoded_WP1_ROBEN [4:0] $end
$var wire 1 e# Decoded_WP1_Wen $end
$var wire 32 f# RP1_Reg1 [31:0] $end
$var wire 32 g# RP1_Reg2 [31:0] $end
$var wire 5 h# RP1_index1 [4:0] $end
$var wire 5 i# RP1_index2 [4:0] $end
$var wire 5 j# WP1_ROBEN [4:0] $end
$var wire 1 k# WP1_Wen $end
$var wire 1 % clk $end
$var wire 5 l# input_WP1_DRindex_test [4:0] $end
$var wire 5 m# output_ROBEN_test [4:0] $end
$var wire 1 # rst $end
$var wire 32 n# WP1_Data [31:0] $end
$var wire 5 o# WP1_DRindex [4:0] $end
$var reg 5 p# RP1_Reg1_ROBEN [4:0] $end
$var reg 5 q# RP1_Reg2_ROBEN [4:0] $end
$var integer 32 r# i [31:0] $end
$var integer 32 s# index [31:0] $end
$var integer 32 t# j [31:0] $end
$scope begin Update_ROB_Entries_Block $end
$upscope $end
$scope begin Update_Registers_Block $end
$upscope $end
$upscope $end
$scope module rob $end
$var wire 32 u# Branch_Target_Addr [31:0] $end
$var wire 1 \ CDB_Branch_Decision $end
$var wire 5 v# CDB_ROBEN1 [4:0] $end
$var wire 32 w# CDB_ROBEN1_Write_Data [31:0] $end
$var wire 5 x# CDB_ROBEN2 [4:0] $end
$var wire 32 y# CDB_ROBEN2_Write_Data [31:0] $end
$var wire 5 z# Decoded_Rd [4:0] $end
$var wire 12 {# Decoded_opcode [11:0] $end
$var wire 1 |# Decoded_prediction $end
$var wire 1 ; EXCEPTION_Flag $end
$var wire 5 }# RP1_ROBEN1 [4:0] $end
$var wire 5 ~# RP1_ROBEN2 [4:0] $end
$var wire 1 7 RP1_Ready1 $end
$var wire 1 6 RP1_Ready2 $end
$var wire 32 !$ RP1_Write_Data1 [31:0] $end
$var wire 32 "$ RP1_Write_Data2 [31:0] $end
$var wire 1 #$ Reg_Busy_test $end
$var wire 1 $$ Reg_Exception_test $end
$var wire 5 %$ Reg_Rd_test [4:0] $end
$var wire 1 &$ Reg_Ready_test $end
$var wire 2 '$ Reg_Speculation_test [1:0] $end
$var wire 1 ($ Reg_Valid_test $end
$var wire 32 )$ Reg_Write_Data_test [31:0] $end
$var wire 12 *$ Reg_opcode_test [11:0] $end
$var wire 1 +$ VALID_Inst $end
$var wire 1 % clk $end
$var wire 5 ,$ index_test [4:0] $end
$var wire 1 # rst $end
$var parameter 12 -$ add $end
$var parameter 12 .$ addi $end
$var parameter 12 /$ addu $end
$var parameter 12 0$ and_ $end
$var parameter 12 1$ andi $end
$var parameter 12 2$ beq $end
$var parameter 12 3$ bne $end
$var parameter 12 4$ hlt_inst $end
$var parameter 12 5$ j $end
$var parameter 12 6$ jal $end
$var parameter 12 7$ jr $end
$var parameter 12 8$ lw $end
$var parameter 12 9$ nor_ $end
$var parameter 12 :$ or_ $end
$var parameter 12 ;$ ori $end
$var parameter 12 <$ sgt $end
$var parameter 12 =$ sll $end
$var parameter 12 >$ slt $end
$var parameter 12 ?$ slti $end
$var parameter 12 @$ srl $end
$var parameter 12 A$ sub $end
$var parameter 12 B$ subu $end
$var parameter 12 C$ sw $end
$var parameter 12 D$ xor_ $end
$var parameter 12 E$ xori $end
$var reg 3 F$ Commit_Control_Signals [2:0] $end
$var reg 5 G$ Commit_Rd [4:0] $end
$var reg 32 H$ Commit_Write_Data [31:0] $end
$var reg 12 I$ Commit_opcode [11:0] $end
$var reg 5 J$ End_Index [4:0] $end
$var reg 1 9 FLUSH_Flag $end
$var reg 1 8 FULL_FLAG $end
$var reg 5 K$ Start_Index [4:0] $end
$var reg 5 L$ i [4:0] $end
$var reg 5 M$ k [4:0] $end
$upscope $end
$scope module rs $end
$var wire 4 N$ ALUOP [3:0] $end
$var wire 4 O$ ALUOP_test [3:0] $end
$var wire 5 P$ CDB_ROBEN1 [4:0] $end
$var wire 32 Q$ CDB_ROBEN1_VAL [31:0] $end
$var wire 5 R$ CDB_ROBEN2 [4:0] $end
$var wire 32 S$ CDB_ROBEN2_VAL [31:0] $end
$var wire 1 2 FULL_FLAG $end
$var wire 1 $ FU_Is_Free $end
$var wire 32 T$ Immediate [31:0] $end
$var wire 32 U$ Immediate_test [31:0] $end
$var wire 5 V$ ROBEN [4:0] $end
$var wire 5 W$ ROBEN1 [4:0] $end
$var wire 32 X$ ROBEN1_VAL [31:0] $end
$var wire 32 Y$ ROBEN1_VAL_test [31:0] $end
$var wire 5 Z$ ROBEN1_test [4:0] $end
$var wire 5 [$ ROBEN2 [4:0] $end
$var wire 32 \$ ROBEN2_VAL [31:0] $end
$var wire 32 ]$ ROBEN2_VAL_test [31:0] $end
$var wire 5 ^$ ROBEN2_test [4:0] $end
$var wire 1 _$ VALID_Inst $end
$var wire 1 `$ busy_test $end
$var wire 1 % clk $end
$var wire 5 a$ input_index_test [4:0] $end
$var wire 12 b$ opcode [11:0] $end
$var wire 12 c$ opcode_test [11:0] $end
$var wire 1 # rst $end
$var reg 5 d$ Next_Free [4:0] $end
$var reg 4 e$ RS_FU_ALUOP [3:0] $end
$var reg 32 f$ RS_FU_Immediate [31:0] $end
$var reg 5 g$ RS_FU_ROBEN [4:0] $end
$var reg 5 h$ RS_FU_RS_ID [4:0] $end
$var reg 32 i$ RS_FU_Val1 [31:0] $end
$var reg 32 j$ RS_FU_Val2 [31:0] $end
$var reg 12 k$ RS_FU_opcode [11:0] $end
$var reg 5 l$ i [4:0] $end
$var reg 5 m$ j [4:0] $end
$var reg 5 n$ k [4:0] $end
$upscope $end
$upscope $end
$upscope $end
$enddefinitions $end
$comment Show the parameter values. $end
$dumpall
b1110000000 E$
b100110 D$
b101011000000 C$
b100011 B$
b100010 A$
b10 @$
b1010000000 ?$
b101010 >$
b0 =$
b101011 <$
b1101000000 ;$
b100101 :$
b100111 9$
b100011000000 8$
b1000 7$
b11000000 6$
b10000000 5$
b111111000000 4$
b101000000 3$
b100000000 2$
b1100000000 1$
b100100 0$
b100001 /$
b1000000000 .$
b100000 -$
b11111111111111111111111111111111 a#
b1110000000 t"
b100110 s"
b101011000000 r"
b100011 q"
b100010 p"
b10 o"
b1010000000 n"
b101010 m"
b0 l"
b101011 k"
b1101000000 j"
b100101 i"
b100111 h"
b100011000000 g"
b1000 f"
b11000000 e"
b10000000 d"
b111111000000 c"
b101000000 b"
b100000000 a"
b1100000000 `"
b100100 _"
b100001 ^"
b1000000000 ]"
b100000 \"
b1110000000 V"
b100110 U"
b101011000000 T"
b100011 S"
b100010 R"
b10 Q"
b1010000000 P"
b101010 O"
b0 N"
b101011 M"
b1101000000 L"
b100101 K"
b100111 J"
b100011000000 I"
b1000 H"
b11000000 G"
b10000000 F"
b111111000000 E"
b101000000 D"
b100000000 C"
b1100000000 B"
b100100 A"
b100001 @"
b1000000000 ?"
b100000 >"
b1110000000 %"
b100110 $"
b101011000000 #"
b100011 ""
b100010 !"
b10 ~
b1010000000 }
b101010 |
b0 {
b101011 z
b1101000000 y
b100101 x
b100111 w
b100011000000 v
b1000 u
b11000000 t
b10000000 s
b111111000000 r
b101000000 q
b100000000 p
b1100000000 o
b100100 n
b100001 m
b1000000000 l
b100000 k
$end
#0
$dumpvars
bx n$
b10000 m$
b0 l$
bx k$
bx j$
bx i$
b0 h$
bx g$
bx f$
bx e$
b0 d$
bx c$
b0 b$
bz a$
x`$
0_$
bx ^$
bx ]$
bx \$
b0 [$
bx Z$
bx Y$
bx X$
bx W$
b10000 V$
bx U$
b0 T$
bx S$
bx R$
b0 Q$
b0 P$
bx O$
b110 N$
b0 M$
b10000 L$
b1 K$
b1 J$
b0 I$
b0 H$
b0 G$
b0 F$
bz ,$
0+$
bx *$
bx )$
x($
bx '$
x&$
bx %$
x$$
x#$
bx "$
bx !$
bx ~#
bx }#
0|#
b0 {#
b0 z#
bx y#
bx x#
b0 w#
b0 v#
b0 u#
b100000 t#
bx s#
b100000 r#
bx q#
bx p#
b0 o#
b0 n#
bx m#
bz l#
0k#
b10000 j#
b0 i#
b0 h#
b0 g#
b0 f#
1e#
b0x d#
b0 c#
b11111111111111111111111111111111 b#
x`#
b0 _#
bx ^#
bx ]#
bx \#
bx [#
bx Z#
bx Y#
bx X#
bx W#
bx V#
b0 U#
b10000 T#
b10000 S#
b0 R#
b0 Q#
b0 P#
bz O#
bx N#
bz M#
xL#
bx K#
bx J#
bx I#
bx H#
bx G#
bx F#
bx E#
bx D#
xC#
b0 B#
bx A#
bx @#
bx ?#
bx >#
b0 =#
b0 <#
bx ;#
b0 :#
b0 9#
b0 8#
b0 7#
b0 6#
b0 5#
b0 4#
b0 3#
b0 2#
b11111111111111111111111111111111 1#
bx 0#
b10000000000 /#
bx .#
bx -#
bx ,#
bx +#
0*#
0)#
b0 (#
bx '#
bx &#
bz %#
bz $#
bx ##
b0 "#
bz !#
bz ~"
bx }"
b0 |"
bz {"
bz z"
b0 y"
bz x"
bz w"
b0 v"
b110 u"
b0 ["
bx Z"
b0 Y"
b0 X"
b0 W"
bx ="
bx <"
bx ;"
bx :"
bx 9"
bx 8"
b0 7"
b0 6"
bx 5"
bx 4"
bx 3"
bx 2"
b0 1"
b0 0"
b0 /"
b0 ."
bx -"
bx ,"
bx +"
bx *"
b0 )"
b0 ("
b0 '"
1&"
bx j
b0 i
b0 h
bx g
bx f
bx e
bx d
b0 c
0b
b0 a
b0 `
bx _
b0 ^
bx ]
0\
b0 [
b0 Z
b0 Y
b110 X
0W
b0 V
b0 U
b0 T
b0 S
b0 R
b0 Q
b0 P
b0 O
bx N
bx M
bx L
bx K
bx J
bx I
bx H
bx G
0F
bx E
b0 D
bx C
bx B
b0 A
b11111111111111111111111111111111 @
b0 ?
b0 >
b0 =
b0 <
0;
b1 :
09
x8
x7
x6
bx 5
bx 4
b1 3
02
bx 1
bx 0
bx /
b0 .
bx -
bx ,
bx +
b0 *
bx )
b0 (
bx '
0&
1%
1$
1#
0"
b0 !
$end
#1
b0 _
b0 }"
b0 x#
b0 R$
b0 C
b0 '#
b0 -#
b1 d#
1`#
b10000 S#
b0 l$
08
0%
1"
#2
b0 e
b0 ,"
b0 @#
b0 4"
06
b0 d
b0 -"
b0 A#
b0 5"
b0 \$
07
b0 f
b0 +"
b0 ?#
b0 j
b0 8"
b0 ;#
b0 3"
b0 g
b0 *"
b0 >#
b0 2"
b0 X$
b0 W$
b0 '
b0 q#
b0 ~#
b0 )
b0 p#
b0 }#
b100000 t#
b100000 r#
b10000 L$
b10000 m$
b10000 T#
1%
0"
#3
b0 l$
b10000 S#
0%
1"
#4
b1 A
b1 _#
b100000000000010000000011111111 0#
b1 u#
b0 @
b0 1#
b0 b#
1+$
0&"
b10000 T#
b10000 m$
1%
0"
0#
#5
b0 Z"
b0 X
b0 u"
b0 N$
1_$
b1 c#
b11111111 T$
b0 9"
b1 z#
b1 !
b1 '"
x\
bx `
bx |"
bx 9#
bx v#
bx P$
bx [
bx W"
bx v"
bx Y
bx X"
bx ^
bx "#
bx :#
bx w#
bx Q$
bx Z
bx Y"
bx y"
b0 0
b0 f$
b0 ,
b0 j$
b0 -
b0 ="
b0 i$
b0 1
b0 <"
b0 e$
b0 /
b0 ;"
b0 g$
b0 +
b0 :"
b0 k$
1W
b10000000011111111 V
b10000000011111111 2#
b11111111 i
b11111111 ("
b11111111 <#
b11111111 j
b11111111 8"
b11111111 ;#
b11111111 1"
b11111111 U
b11111111 3#
b11 P
b11 8#
b1 c
b1 ."
b1 B#
b1 Q
b1 7"
b1 7#
b1 i#
b1000000000 a
b1000000000 /"
b1000000000 P#
b1000000000 T
b1000000000 6"
b1000000000 ["
b1000000000 4#
b1000000000 {#
b1000000000 b$
b10000 n$
0%
1"
#6
b10 A
b10 _#
b100000010000100000000000000001 0#
b10 u#
b1 @
b1 1#
b1 b#
b1 V$
b10 d#
b1 h
b1 )"
b1 =#
b1 0"
b10 :
b10 J$
b10000 m$
b10000 T#
1%
0"
#7
b1 T$
b10 c#
b10 z#
b10000100000000000000001 V
b10000100000000000000001 2#
b1 i
b1 ("
b1 <#
b1 j
b1 8"
b1 ;#
b1 1"
b1 U
b1 3#
b0 P
b0 8#
b10 c
b10 ."
b10 B#
b10 Q
b10 7"
b10 7#
b10 i#
b10 R
b10 6#
b10 h#
0\
b0 `
b0 |"
b0 9#
b0 v#
b0 P$
b0 [
b0 W"
b0 v"
b0 Y
b0 X"
b0 ^
b0 "#
b0 :#
b0 w#
b0 Q$
b0 Z
b0 Y"
b0 y"
b10 !
b10 '"
b10000 l$
b10000 d$
b10000 n$
0%
1"
#8
b11 A
b11 _#
b0 0#
b11 u#
b10 @
b10 1#
b10 b#
b10 V$
b11 d#
b10000 T#
b10000 m$
b10 h
b10 )"
b10 =#
b10 0"
b11 :
b11 J$
1%
0"
#9
b11111111 Z"
b110 X
b110 u"
b110 N$
b0 c#
b0 T$
b11111111 9"
b0 z#
b11 !
b11 '"
b11111111 0
b11111111 f$
b1 /
b1 ;"
b1 g$
b10000 .
b10000 h$
b1000000000 +
b1000000000 :"
b1000000000 k$
b0 V
b0 2#
b0 i
b0 ("
b0 <#
b0 j
b0 8"
b0 ;#
b0 1"
b0 U
b0 3#
b0 c
b0 ."
b0 B#
b0 Q
b0 7"
b0 7#
b0 i#
b0 R
b0 6#
b0 h#
b0 a
b0 /"
b0 P#
b0 T
b0 6"
b0 ["
b0 4#
b0 {#
b0 b$
b10000 n$
b10000 l$
b1111 d$
0%
1"
#10
b100 A
b100 _#
b10100010000011111111111111110 0#
b100 u#
b11 @
b11 1#
b11 b#
b11 V$
b100 d#
b11 h
b11 )"
b11 =#
b11 0"
b100 :
b100 J$
b10000 m$
b10000 T#
b0 .
b0 h$
1%
0"
#11
b1 Z"
b1 A
b1 _#
b11111111111111111111111111111110 T$
b1 c#
0e#
b11111 z#
1|#
b1 9"
b10000011111111111111110 V
b10000011111111111111110 2#
b11111111111111111111111111111110 i
b11111111111111111111111111111110 ("
b11111111111111111111111111111110 <#
b11111111111111111111111111111110 j
b11111111111111111111111111111110 8"
b11111111111111111111111111111110 ;#
b11111111111111111111111111111110 1"
b1111111111111110 U
b1111111111111110 3#
b11111 P
b11111 8#
b11111 S
b11111 5#
b1 c
b1 ."
b1 B#
b1 Q
b1 7"
b1 7#
b1 i#
b10 R
b10 6#
b10 h#
b101000000 a
b101000000 /"
b101000000 P#
b101000000 T
b101000000 6"
b101000000 ["
b101000000 4#
b101000000 {#
b101000000 b$
b1111 .
b1111 h$
b1 0
b1 f$
b10 /
b10 ;"
b10 g$
b1000000000 +
b1000000000 :"
b1000000000 k$
b1 `
b1 |"
b1 9#
b1 v#
b1 P$
b1 [
b1 W"
b1 v"
b1000000000 Y
b1000000000 X"
b11111111 ^
b11111111 "#
b11111111 :#
b11111111 w#
b11111111 Q$
b11111111 Z
b11111111 Y"
b11111111 y"
b100 !
b100 '"
b10000 l$
b10000 d$
b10000 n$
0%
1"
#12
b11111111111111111111111111111111 A
b11111111111111111111111111111111 _#
b0 e
b0 ,"
b0 @#
b0 4"
b0 [$
b10 g
b10 *"
b10 >#
b10 2"
b10 W$
b11111111 4
b11111111 "$
16
b11111111 d
b11111111 -"
b11111111 A#
b11111111 5"
b11111111 \$
b10 5
b10 !$
b10 f
b10 +"
b10 ?#
b0 j
b0 8"
b0 ;#
b10 3"
b10 X$
b100000010000100000000000000001 0#
b10 u#
b1 @
b1 1#
b1 b#
b1 '
b1 q#
b1 ~#
b10 )
b10 p#
b10 }#
b100 V$
b101 d#
b10000 T#
b10000 m$
b100 h
b100 )"
b100 =#
b100 0"
b101 :
b101 J$
b0 .
b0 h$
1%
0"
#13
b0 Z"
b0 X
b0 u"
b0 N$
b10 A
b10 _#
b1 T$
b10 c#
1e#
b0 9"
b10 z#
0|#
b101 !
b101 '"
b10 `
b10 |"
b10 9#
b10 v#
b10 P$
b10 [
b10 W"
b10 v"
b1 ^
b1 "#
b1 :#
b1 w#
b1 Q$
b1 Z
b1 Y"
b1 y"
b110 1
b110 <"
b110 e$
b10000 .
b10000 h$
b0 0
b0 f$
b11 /
b11 ;"
b11 g$
b0 +
b0 :"
b0 k$
b10000100000000000000001 V
b10000100000000000000001 2#
b1 i
b1 ("
b1 <#
b11 j
b11 8"
b11 ;#
b1 1"
b1 U
b1 3#
b0 P
b0 8#
b0 S
b0 5#
b10 c
b10 ."
b10 B#
b10 Q
b10 7"
b10 7#
b10 i#
b1000000000 a
b1000000000 /"
b1000000000 P#
b1000000000 T
b1000000000 6"
b1000000000 ["
b1000000000 4#
b1000000000 {#
b1000000000 b$
b1 e
b1 ,"
b1 @#
b1 4"
b0 [$
b1 j#
1k#
b10000 n$
b10000 l$
b1111 d$
b10 3
b10 K$
06
b100 ?
b100 F$
b11111111 =
b11111111 n#
b11111111 H$
b1 >
b1 o#
b1 G$
b1000000000 <
b1000000000 I$
0%
1"
#14
b11 A
b11 _#
b0 e
b0 ,"
b0 @#
b0 4"
b0 g
b0 *"
b0 >#
b0 2"
b0 W$
b1 d
b1 -"
b1 A#
b1 5"
b1 \$
b1 f
b1 +"
b1 ?#
b10 j
b10 8"
b10 ;#
b1 3"
b1 X$
b1 4
b1 "$
16
b0 0#
b11 u#
b10 @
b10 1#
b10 b#
17
b1 5
b1 !$
b10 '
b10 q#
b10 ~#
b101 V$
b110 d#
b101 h
b101 )"
b101 =#
b101 0"
b110 :
b110 J$
b10000 m$
b10000 T#
b0 .
b0 h$
1%
0"
