SSOOO/SSOOO_Waveform.vcd
$date
	Wed Jan 01 15:34:38 2025
$end
$version
	Icarus Verilog
$end
$timescale
	1s
$end
$scope module OOO_CPU_Sim $end
$var wire 32 ! cycles_consumed [31:0] $end
$var reg 1 " clk $end
$var reg 1 # rst $end
$scope module cpu $end
$var wire 1 $ FU_Is_Free $end
$var wire 1 % clk $end
$var wire 1 " input_clk $end
$var wire 1 # rst $end
$var wire 1 & hlt $end
$var wire 5 ' RegFile_RP1_Reg2_ROBEN [4:0] $end
$var wire 32 ( RegFile_RP1_Reg2 [31:0] $end
$var wire 5 ) RegFile_RP1_Reg1_ROBEN [4:0] $end
$var wire 32 * RegFile_RP1_Reg1 [31:0] $end
$var wire 12 + RS_FU_opcode [11:0] $end
$var wire 32 , RS_FU_Val2 [31:0] $end
$var wire 32 - RS_FU_Val1 [31:0] $end
$var wire 5 . RS_FU_RS_ID [4:0] $end
$var wire 5 / RS_FU_ROBEN [4:0] $end
$var wire 32 0 RS_FU_Immediate [31:0] $end
$var wire 4 1 RS_FU_ALUOP [3:0] $end
$var wire 1 2 RS_FULL_FLAG $end
$var wire 5 3 ROB_Start_Index [4:0] $end
$var wire 1 4 ROB_SPECULATIVE_FLAG $end
$var wire 32 5 ROB_RP1_Write_Data2 [31:0] $end
$var wire 32 6 ROB_RP1_Write_Data1 [31:0] $end
$var wire 1 7 ROB_RP1_Ready2 $end
$var wire 1 8 ROB_RP1_Ready1 $end
$var wire 1 9 ROB_FULL_FLAG $end
$var wire 1 : ROB_FLUSH_Flag $end
$var wire 5 ; ROB_End_Index [4:0] $end
$var wire 1 < ROB_EXCEPTION_Flag $end
$var wire 12 = ROB_Commit_opcode [11:0] $end
$var wire 32 > ROB_Commit_Write_Data [31:0] $end
$var wire 5 ? ROB_Commit_Rd [4:0] $end
$var wire 3 @ ROB_Commit_Control_Signals [2:0] $end
$var wire 32 A PC_out [31:0] $end
$var wire 32 B PC [31:0] $end
$var wire 32 C MEMU_Result [31:0] $end
$var wire 5 D MEMU_ROBEN [4:0] $end
$var wire 4 E LdStB_Start_Index [3:0] $end
$var wire 12 F LdStB_MEMU_opcode [11:0] $end
$var wire 1 G LdStB_MEMU_VALID_Inst $end
$var wire 5 H LdStB_MEMU_Rd [4:0] $end
$var wire 32 I LdStB_MEMU_ROBEN2_VAL [31:0] $end
$var wire 5 J LdStB_MEMU_ROBEN2 [4:0] $end
$var wire 32 K LdStB_MEMU_ROBEN1_VAL [31:0] $end
$var wire 5 L LdStB_MEMU_ROBEN1 [4:0] $end
$var wire 5 M LdStB_MEMU_ROBEN [4:0] $end
$var wire 32 N LdStB_MEMU_Immediate [31:0] $end
$var wire 32 O LdStB_MEMU_EA [31:0] $end
$var wire 4 P LdStB_End_Index [3:0] $end
$var wire 5 Q InstQ_shamt [4:0] $end
$var wire 5 R InstQ_rt [4:0] $end
$var wire 5 S InstQ_rs [4:0] $end
$var wire 5 T InstQ_rd [4:0] $end
$var wire 12 U InstQ_opcode [11:0] $end
$var wire 16 V InstQ_immediate [15:0] $end
$var wire 26 W InstQ_address [25:0] $end
$var wire 1 X InstQ_VALID_Inst $end
$var wire 4 Y InstQ_ALUOP [3:0] $end
$var wire 12 Z FU_opcode [11:0] $end
$var wire 32 [ FU_Result [31:0] $end
$var wire 5 \ FU_ROBEN [4:0] $end
$var wire 1 ] FU_Branch_Decision $end
$var wire 32 ^ CDB_Write_Data2 [31:0] $end
$var wire 32 _ CDB_Write_Data1 [31:0] $end
$var wire 5 ` CDB_ROBEN2 [4:0] $end
$var wire 5 a CDB_ROBEN1 [4:0] $end
$var wire 12 b AU_LdStB_opcode [11:0] $end
$var wire 1 c AU_LdStB_VALID_Inst $end
$var wire 5 d AU_LdStB_Rd [4:0] $end
$var wire 32 e AU_LdStB_ROBEN2_VAL [31:0] $end
$var wire 5 f AU_LdStB_ROBEN2 [4:0] $end
$var wire 32 g AU_LdStB_ROBEN1_VAL [31:0] $end
$var wire 5 h AU_LdStB_ROBEN1 [4:0] $end
$var wire 5 i AU_LdStB_ROBEN [4:0] $end
$var wire 32 j AU_LdStB_Immediate [31:0] $end
$var wire 32 k AU_LdStB_EA [31:0] $end
$var parameter 12 l add $end
$var parameter 12 m addi $end
$var parameter 12 n addu $end
$var parameter 12 o and_ $end
$var parameter 12 p andi $end
$var parameter 12 q beq $end
$var parameter 12 r bne $end
$var parameter 12 s hlt_inst $end
$var parameter 12 t j $end
$var parameter 12 u jal $end
$var parameter 12 v jr $end
$var parameter 12 w lw $end
$var parameter 12 x nor_ $end
$var parameter 12 y or_ $end
$var parameter 12 z ori $end
$var parameter 12 { sgt $end
$var parameter 12 | sll $end
$var parameter 12 } slt $end
$var parameter 12 ~ slti $end
$var parameter 12 !" srl $end
$var parameter 12 "" sub $end
$var parameter 12 #" subu $end
$var parameter 12 $" sw $end
$var parameter 12 %" xor_ $end
$var parameter 12 &" xori $end
$var reg 1 '" ROB_HLT $end
$var reg 32 (" cycles_consumed [31:0] $end
$scope module AU $end
$var wire 32 )" AU_LdStB_Immediate [31:0] $end
$var wire 5 *" AU_LdStB_ROBEN [4:0] $end
$var wire 5 +" AU_LdStB_ROBEN1 [4:0] $end
$var wire 32 ," AU_LdStB_ROBEN1_VAL [31:0] $end
$var wire 5 -" AU_LdStB_ROBEN2 [4:0] $end
$var wire 32 ." AU_LdStB_ROBEN2_VAL [31:0] $end
$var wire 5 /" AU_LdStB_Rd [4:0] $end
$var wire 1 c AU_LdStB_VALID_Inst $end
$var wire 12 0" AU_LdStB_opcode [11:0] $end
$var wire 5 1" Decoded_ROBEN [4:0] $end
$var wire 32 2" Immediate [31:0] $end
$var wire 5 3" ROBEN1 [4:0] $end
$var wire 32 4" ROBEN1_VAL [31:0] $end
$var wire 5 5" ROBEN2 [4:0] $end
$var wire 32 6" ROBEN2_VAL [31:0] $end
$var wire 12 7" Decoded_opcode [11:0] $end
$var wire 5 8" Decoded_Rd [4:0] $end
$var wire 32 9" AU_LdStB_EA [31:0] $end
$upscope $end
$scope module alu $end
$var wire 32 :" A [31:0] $end
$var wire 32 ;" B [31:0] $end
$var wire 1 $ FU_Is_Free $end
$var wire 1 % clk $end
$var wire 1 # rst $end
$var wire 12 <" opcode [11:0] $end
$var wire 5 =" ROBEN [4:0] $end
$var wire 4 >" ALUOP [3:0] $end
$var parameter 12 ?" add $end
$var parameter 12 @" addi $end
$var parameter 12 A" addu $end
$var parameter 12 B" and_ $end
$var parameter 12 C" andi $end
$var parameter 12 D" beq $end
$var parameter 12 E" bne $end
$var parameter 12 F" hlt_inst $end
$var parameter 12 G" j $end
$var parameter 12 H" jal $end
$var parameter 12 I" jr $end
$var parameter 12 J" lw $end
$var parameter 12 K" nor_ $end
$var parameter 12 L" or_ $end
$var parameter 12 M" ori $end
$var parameter 12 N" sgt $end
$var parameter 12 O" sll $end
$var parameter 12 P" slt $end
$var parameter 12 Q" slti $end
$var parameter 12 R" srl $end
$var parameter 12 S" sub $end
$var parameter 12 T" subu $end
$var parameter 12 U" sw $end
$var parameter 12 V" xor_ $end
$var parameter 12 W" xori $end
$var reg 1 ] FU_Branch_Decision $end
$var reg 5 X" FU_ROBEN [4:0] $end
$var reg 12 Y" FU_opcode [11:0] $end
$var reg 32 Z" FU_res [31:0] $end
$var reg 32 [" Reg_res [31:0] $end
$upscope $end
$scope module alu_op $end
$var wire 12 \" opcode [11:0] $end
$var parameter 12 ]" add $end
$var parameter 12 ^" addi $end
$var parameter 12 _" addu $end
$var parameter 12 `" and_ $end
$var parameter 12 a" andi $end
$var parameter 12 b" beq $end
$var parameter 12 c" bne $end
$var parameter 12 d" hlt_inst $end
$var parameter 12 e" j $end
$var parameter 12 f" jal $end
$var parameter 12 g" jr $end
$var parameter 12 h" lw $end
$var parameter 12 i" nor_ $end
$var parameter 12 j" or_ $end
$var parameter 12 k" ori $end
$var parameter 12 l" sgt $end
$var parameter 12 m" sll $end
$var parameter 12 n" slt $end
$var parameter 12 o" slti $end
$var parameter 12 p" srl $end
$var parameter 12 q" sub $end
$var parameter 12 r" subu $end
$var parameter 12 s" sw $end
$var parameter 12 t" xor_ $end
$var parameter 12 u" xori $end
$var reg 4 v" ALU_OP [3:0] $end
$upscope $end
$scope module cdb $end
$var wire 5 w" ROBEN1 [4:0] $end
$var wire 5 x" ROBEN3 [4:0] $end
$var wire 5 y" ROBEN4 [4:0] $end
$var wire 32 z" Write_Data1 [31:0] $end
$var wire 32 {" Write_Data3 [31:0] $end
$var wire 32 |" Write_Data4 [31:0] $end
$var wire 5 }" out_ROBEN1 [4:0] $end
$var wire 5 ~" out_ROBEN2 [4:0] $end
$var wire 5 !# out_ROBEN3 [4:0] $end
$var wire 5 "# out_ROBEN4 [4:0] $end
$var wire 32 ## out_Write_Data1 [31:0] $end
$var wire 32 $# out_Write_Data2 [31:0] $end
$var wire 32 %# out_Write_Data3 [31:0] $end
$var wire 32 &# out_Write_Data4 [31:0] $end
$var wire 32 '# Write_Data2 [31:0] $end
$var wire 5 (# ROBEN2 [4:0] $end
$upscope $end
$scope module datamemory $end
$var wire 5 )# ROBEN [4:0] $end
$var wire 1 *# Read_en $end
$var wire 1 +# Write_en $end
$var wire 1 % clk $end
$var wire 32 ,# data [31:0] $end
$var wire 32 -# address [31:0] $end
$var reg 5 .# MEMU_ROBEN [4:0] $end
$var reg 32 /# MEMU_Result [31:0] $end
$var integer 32 0# i [31:0] $end
$upscope $end
$scope module instq $end
$var wire 1 % clk $end
$var wire 32 1# inst [31:0] $end
$var wire 1 # rst $end
$var wire 32 2# PC [31:0] $end
$var reg 1 X VALID_Inst $end
$var reg 26 3# address [25:0] $end
$var reg 16 4# immediate [15:0] $end
$var reg 12 5# opcode [11:0] $end
$var reg 5 6# rd [4:0] $end
$var reg 5 7# rs [4:0] $end
$var reg 5 8# rt [4:0] $end
$var reg 5 9# shamt [4:0] $end
$var integer 32 :# i [31:0] $end
$upscope $end
$scope module ldstbuffer $end
$var wire 5 ;# CDB_ROBEN1 [4:0] $end
$var wire 32 <# CDB_ROBEN1_VAL [31:0] $end
$var wire 5 =# CDB_ROBEN2 [4:0] $end
$var wire 32 ># CDB_ROBEN2_VAL [31:0] $end
$var wire 32 ?# EA [31:0] $end
$var wire 32 @# Immediate [31:0] $end
$var wire 5 A# ROBEN [4:0] $end
$var wire 5 B# ROBEN1 [4:0] $end
$var wire 32 C# ROBEN1_VAL [31:0] $end
$var wire 5 D# ROBEN2 [4:0] $end
$var wire 32 E# ROBEN2_VAL [31:0] $end
$var wire 5 F# Rd [4:0] $end
$var wire 1 G# Reg_Busy_test $end
$var wire 32 H# Reg_EA_test [31:0] $end
$var wire 32 I# Reg_Immediate_test [31:0] $end
$var wire 32 J# Reg_ROBEN1_VAL_test [31:0] $end
$var wire 5 K# Reg_ROBEN1_test [4:0] $end
$var wire 32 L# Reg_ROBEN2_VAL_test [31:0] $end
$var wire 5 M# Reg_ROBEN2_test [4:0] $end
$var wire 5 N# Reg_ROBEN_test [4:0] $end
$var wire 5 O# Reg_Rd_test [4:0] $end
$var wire 1 P# Reg_Ready_test $end
$var wire 32 Q# Reg_Write_Data_test [31:0] $end
$var wire 12 R# Reg_opcode_test [11:0] $end
$var wire 1 S# VALID_Inst $end
$var wire 1 % clk $end
$var wire 5 T# index_test [4:0] $end
$var wire 12 U# opcode [11:0] $end
$var wire 1 # rst $end
$var wire 5 V# ROB_Start_Index [4:0] $end
$var wire 1 4 ROB_SPECULATIVE_FLAG $end
$var wire 1 : ROB_FLUSH_Flag $end
$var parameter 12 W# add $end
$var parameter 12 X# addi $end
$var parameter 12 Y# addu $end
$var parameter 12 Z# and_ $end
$var parameter 12 [# andi $end
$var parameter 12 \# beq $end
$var parameter 12 ]# bne $end
$var parameter 12 ^# hlt_inst $end
$var parameter 12 _# j $end
$var parameter 12 `# jal $end
$var parameter 12 a# jr $end
$var parameter 12 b# lw $end
$var parameter 12 c# nor_ $end
$var parameter 12 d# or_ $end
$var parameter 12 e# ori $end
$var parameter 12 f# sgt $end
$var parameter 12 g# sll $end
$var parameter 12 h# slt $end
$var parameter 12 i# slti $end
$var parameter 12 j# srl $end
$var parameter 12 k# sub $end
$var parameter 12 l# subu $end
$var parameter 12 m# sw $end
$var parameter 12 n# xor_ $end
$var parameter 12 o# xori $end
$var reg 4 p# End_Index [3:0] $end
$var reg 4 q# Start_Index [3:0] $end
$var reg 5 r# i [4:0] $end
$var reg 5 s# ji [4:0] $end
$var reg 5 t# k [4:0] $end
$var reg 32 u# out_EA [31:0] $end
$var reg 32 v# out_Immediate [31:0] $end
$var reg 5 w# out_ROBEN [4:0] $end
$var reg 5 x# out_ROBEN1 [4:0] $end
$var reg 32 y# out_ROBEN1_VAL [31:0] $end
$var reg 5 z# out_ROBEN2 [4:0] $end
$var reg 32 {# out_ROBEN2_VAL [31:0] $end
$var reg 5 |# out_Rd [4:0] $end
$var reg 1 G out_VALID_Inst $end
$var reg 12 }# out_opcode [11:0] $end
$upscope $end
$scope module pcreg $end
$var wire 32 ~# DataIn [31:0] $end
$var wire 1 !$ PC_Write $end
$var wire 1 % clk $end
$var wire 1 # rst $end
$var parameter 32 "$ initialaddr $end
$var reg 32 #$ DataOut [31:0] $end
$upscope $end
$scope module regfile $end
$var wire 5 $$ Decoded_WP1_DRindex [4:0] $end
$var wire 5 %$ Decoded_WP1_ROBEN [4:0] $end
$var wire 1 &$ Decoded_WP1_Wen $end
$var wire 32 '$ RP1_Reg1 [31:0] $end
$var wire 32 ($ RP1_Reg2 [31:0] $end
$var wire 5 )$ RP1_index1 [4:0] $end
$var wire 5 *$ RP1_index2 [4:0] $end
$var wire 5 +$ WP1_ROBEN [4:0] $end
$var wire 1 ,$ WP1_Wen $end
$var wire 1 % clk $end
$var wire 5 -$ input_WP1_DRindex_test [4:0] $end
$var wire 5 .$ output_ROBEN_test [4:0] $end
$var wire 1 # rst $end
$var wire 32 /$ WP1_Data [31:0] $end
$var wire 5 0$ WP1_DRindex [4:0] $end
$var wire 1 : ROB_FLUSH_Flag $end
$var reg 5 1$ RP1_Reg1_ROBEN [4:0] $end
$var reg 5 2$ RP1_Reg2_ROBEN [4:0] $end
$var integer 32 3$ i [31:0] $end
$var integer 32 4$ index [31:0] $end
$var integer 32 5$ j [31:0] $end
$scope begin Update_ROB_Entries_Block $end
$upscope $end
$scope begin Update_Registers_Block $end
$upscope $end
$upscope $end
$scope module rob $end
$var wire 32 6$ Branch_Target_Addr [31:0] $end
$var wire 1 ] CDB_Branch_Decision $end
$var wire 5 7$ CDB_ROBEN1 [4:0] $end
$var wire 32 8$ CDB_ROBEN1_Write_Data [31:0] $end
$var wire 5 9$ CDB_ROBEN2 [4:0] $end
$var wire 32 :$ CDB_ROBEN2_Write_Data [31:0] $end
$var wire 5 ;$ Decoded_Rd [4:0] $end
$var wire 12 <$ Decoded_opcode [11:0] $end
$var wire 1 =$ Decoded_prediction $end
$var wire 1 < EXCEPTION_Flag $end
$var wire 5 >$ RP1_ROBEN1 [4:0] $end
$var wire 5 ?$ RP1_ROBEN2 [4:0] $end
$var wire 1 8 RP1_Ready1 $end
$var wire 1 7 RP1_Ready2 $end
$var wire 32 @$ RP1_Write_Data1 [31:0] $end
$var wire 32 A$ RP1_Write_Data2 [31:0] $end
$var wire 1 B$ Reg_Busy_test $end
$var wire 1 C$ Reg_Exception_test $end
$var wire 5 D$ Reg_Rd_test [4:0] $end
$var wire 1 E$ Reg_Ready_test $end
$var wire 2 F$ Reg_Speculation_test [1:0] $end
$var wire 1 G$ Reg_Valid_test $end
$var wire 32 H$ Reg_Write_Data_test [31:0] $end
$var wire 12 I$ Reg_opcode_test [11:0] $end
$var wire 1 4 SPECULATIVE_FLAG $end
$var wire 1 J$ VALID_Inst $end
$var wire 1 % clk $end
$var wire 5 K$ index_test [4:0] $end
$var wire 1 # rst $end
$var parameter 12 L$ add $end
$var parameter 12 M$ addi $end
$var parameter 12 N$ addu $end
$var parameter 12 O$ and_ $end
$var parameter 12 P$ andi $end
$var parameter 12 Q$ beq $end
$var parameter 12 R$ bne $end
$var parameter 12 S$ hlt_inst $end
$var parameter 12 T$ j $end
$var parameter 12 U$ jal $end
$var parameter 12 V$ jr $end
$var parameter 12 W$ lw $end
$var parameter 12 X$ nor_ $end
$var parameter 12 Y$ or_ $end
$var parameter 12 Z$ ori $end
$var parameter 12 [$ sgt $end
$var parameter 12 \$ sll $end
$var parameter 12 ]$ slt $end
$var parameter 12 ^$ slti $end
$var parameter 12 _$ srl $end
$var parameter 12 `$ sub $end
$var parameter 12 a$ subu $end
$var parameter 12 b$ sw $end
$var parameter 12 c$ xor_ $end
$var parameter 12 d$ xori $end
$var reg 3 e$ Commit_Control_Signals [2:0] $end
$var reg 5 f$ Commit_Rd [4:0] $end
$var reg 32 g$ Commit_Write_Data [31:0] $end
$var reg 12 h$ Commit_opcode [11:0] $end
$var reg 5 i$ End_Index [4:0] $end
$var reg 1 : FLUSH_Flag $end
$var reg 1 9 FULL_FLAG $end
$var reg 5 j$ Start_Index [4:0] $end
$var reg 5 k$ i [4:0] $end
$var reg 5 l$ k [4:0] $end
$upscope $end
$scope module rs $end
$var wire 4 m$ ALUOP [3:0] $end
$var wire 4 n$ ALUOP_test [3:0] $end
$var wire 5 o$ CDB_ROBEN1 [4:0] $end
$var wire 32 p$ CDB_ROBEN1_VAL [31:0] $end
$var wire 5 q$ CDB_ROBEN2 [4:0] $end
$var wire 32 r$ CDB_ROBEN2_VAL [31:0] $end
$var wire 1 2 FULL_FLAG $end
$var wire 1 $ FU_Is_Free $end
$var wire 32 s$ Immediate [31:0] $end
$var wire 32 t$ Immediate_test [31:0] $end
$var wire 5 u$ ROBEN [4:0] $end
$var wire 5 v$ ROBEN1 [4:0] $end
$var wire 32 w$ ROBEN1_VAL [31:0] $end
$var wire 32 x$ ROBEN1_VAL_test [31:0] $end
$var wire 5 y$ ROBEN1_test [4:0] $end
$var wire 5 z$ ROBEN2 [4:0] $end
$var wire 32 {$ ROBEN2_VAL [31:0] $end
$var wire 32 |$ ROBEN2_VAL_test [31:0] $end
$var wire 5 }$ ROBEN2_test [4:0] $end
$var wire 1 : ROB_FLUSH_Flag $end
$var wire 1 ~$ VALID_Inst $end
$var wire 1 !% busy_test $end
$var wire 1 % clk $end
$var wire 5 "% input_index_test [4:0] $end
$var wire 12 #% opcode [11:0] $end
$var wire 12 $% opcode_test [11:0] $end
$var wire 1 # rst $end
$var reg 5 %% Next_Free [4:0] $end
$var reg 4 &% RS_FU_ALUOP [3:0] $end
$var reg 32 '% RS_FU_Immediate [31:0] $end
$var reg 5 (% RS_FU_ROBEN [4:0] $end
$var reg 5 )% RS_FU_RS_ID [4:0] $end
$var reg 32 *% RS_FU_Val1 [31:0] $end
$var reg 32 +% RS_FU_Val2 [31:0] $end
$var reg 12 ,% RS_FU_opcode [11:0] $end
$var reg 5 -% i [4:0] $end
$var reg 5 .% j [4:0] $end
$var reg 5 /% k [4:0] $end
$upscope $end
$upscope $end
$upscope $end
$enddefinitions $end
$comment Show the parameter values. $end
$dumpall
b1110000000 d$
b100110 c$
b101011000000 b$
b100011 a$
b100010 `$
b10 _$
b1010000000 ^$
b101010 ]$
b0 \$
b101011 [$
b1101000000 Z$
b100101 Y$
b100111 X$
b100011000000 W$
b1000 V$
b11000000 U$
b10000000 T$
b111111000000 S$
b101000000 R$
b100000000 Q$
b1100000000 P$
b100100 O$
b100001 N$
b1000000000 M$
b100000 L$
b11111111111111111111111111111111 "$
b1110000000 o#
b100110 n#
b101011000000 m#
b100011 l#
b100010 k#
b10 j#
b1010000000 i#
b101010 h#
b0 g#
b101011 f#
b1101000000 e#
b100101 d#
b100111 c#
b100011000000 b#
b1000 a#
b11000000 `#
b10000000 _#
b111111000000 ^#
b101000000 ]#
b100000000 \#
b1100000000 [#
b100100 Z#
b100001 Y#
b1000000000 X#
b100000 W#
b1110000000 u"
b100110 t"
b101011000000 s"
b100011 r"
b100010 q"
b10 p"
b1010000000 o"
b101010 n"
b0 m"
b101011 l"
b1101000000 k"
b100101 j"
b100111 i"
b100011000000 h"
b1000 g"
b11000000 f"
b10000000 e"
b111111000000 d"
b101000000 c"
b100000000 b"
b1100000000 a"
b100100 `"
b100001 _"
b1000000000 ^"
b100000 ]"
b1110000000 W"
b100110 V"
b101011000000 U"
b100011 T"
b100010 S"
b10 R"
b1010000000 Q"
b101010 P"
b0 O"
b101011 N"
b1101000000 M"
b100101 L"
b100111 K"
b100011000000 J"
b1000 I"
b11000000 H"
b10000000 G"
b111111000000 F"
b101000000 E"
b100000000 D"
b1100000000 C"
b100100 B"
b100001 A"
b1000000000 @"
b100000 ?"
b1110000000 &"
b100110 %"
b101011000000 $"
b100011 #"
b100010 ""
b10 !"
b1010000000 ~
b101010 }
b0 |
b101011 {
b1101000000 z
b100101 y
b100111 x
b100011000000 w
b1000 v
b11000000 u
b10000000 t
b111111000000 s
b101000000 r
b100000000 q
b1100000000 p
b100100 o
b100001 n
b1000000000 m
b100000 l
$end
#0
$dumpvars
bx /%
b10000 .%
b0 -%
bx ,%
bx +%
bx *%
b0 )%
bx (%
bx '%
bx &%
b0 %%
bx $%
b0 #%
bz "%
x!%
0~$
bx }$
bx |$
bx {$
bx z$
bx y$
bx x$
bx w$
b0 v$
b10000 u$
bx t$
b0 s$
bx r$
bx q$
b0 p$
b0 o$
bx n$
b110 m$
b0 l$
b10000 k$
b1 j$
b1 i$
b0 h$
b0 g$
b0 f$
b0 e$
bz K$
0J$
bx I$
bx H$
xG$
bx F$
xE$
bx D$
xC$
xB$
bx A$
bx @$
bx ?$
bx >$
0=$
b0 <$
b0 ;$
bx :$
bx 9$
b0 8$
b0 7$
b0 6$
b100000 5$
bx 4$
b100000 3$
bx 2$
bx 1$
b0 0$
b0 /$
bx .$
bz -$
0,$
b10000 +$
b0 *$
b0 )$
b0 ($
b0 '$
1&$
b0x %$
b0 $$
b11111111111111111111111111111111 #$
x!$
b0 ~#
bx }#
bx |#
bx {#
bx z#
bx y#
bx x#
bx w#
bx v#
bx u#
b0 t#
b10000 s#
b10000 r#
b0 q#
b0 p#
b1 V#
b0 U#
bz T#
0S#
bx R#
bz Q#
xP#
bx O#
bx N#
bx M#
bx L#
bx K#
bx J#
bx I#
bx H#
xG#
b0 F#
bx E#
bx D#
bx C#
bx B#
b10000 A#
b0 @#
bx ?#
bx >#
bx =#
b0 <#
b0 ;#
b10000000000 :#
b0 9#
b0 8#
b0 7#
b0 6#
b0 5#
b0 4#
b0 3#
b11111111111111111111111111111111 2#
bx 1#
b10000000000 0#
bx /#
bx .#
bx -#
bx ,#
x+#
x*#
bx )#
bx (#
bx '#
bz &#
bz %#
bx $#
b0 ##
bz "#
bz !#
bx ~"
b0 }"
bz |"
bz {"
b0 z"
bz y"
bz x"
b0 w"
b110 v"
b0 \"
bx ["
b0 Z"
b0 Y"
b0 X"
bx >"
bx ="
bx <"
bx ;"
bx :"
bx 9"
b0 8"
b0 7"
bx 6"
bx 5"
bx 4"
bx 3"
b0 2"
b10000 1"
b0 0"
b0 /"
bx ."
bx -"
bx ,"
bx +"
b10000 *"
b0 )"
b0 ("
1'"
bx k
b0 j
b10000 i
bx h
bx g
bx f
bx e
b0 d
0c
b0 b
b0 a
bx `
b0 _
bx ^
0]
b0 \
b0 [
b0 Z
b110 Y
0X
b0 W
b0 V
b0 U
b0 T
b0 S
b0 R
b0 Q
b0 P
bx O
bx N
bx M
bx L
bx K
bx J
bx I
bx H
xG
bx F
b0 E
bx D
bx C
b0 B
b11111111111111111111111111111111 A
b0 @
b0 ?
b0 >
b0 =
0<
b1 ;
0:
x9
x8
x7
bx 6
bx 5
04
b1 3
02
bx 1
bx 0
bx /
b0 .
bx -
bx ,
bx +
b0 *
bx )
b0 (
bx '
0&
1%
1$
1#
0"
b0 !
$end
#1
b1 %$
1!$
b10000 r#
b0 -%
09
0%
1"
#2
b0 f
b0 -"
b0 D#
b0 5"
b0 z$
07
b0 e
b0 ."
b0 E#
b0 6"
b0 {$
08
b0 g
b0 ,"
b0 C#
b0 k
b0 9"
b0 ?#
b0 4"
b0 h
b0 +"
b0 B#
b0 3"
b0 w$
b0 '
b0 2$
b0 ?$
b0 )
b0 1$
b0 >$
b100000 5$
b100000 3$
b10000 k$
b10000 .%
b10000 s#
1%
0"
#3
b0 -%
b10000 r#
0%
1"
#4
b1 B
b1 ~#
b100000000101000000000000001010 1#
b1 6$
b0 A
b0 2#
b0 #$
1J$
0'"
b10000 s#
b10000 .%
1%
0"
0#
#5
b0 ["
b0 Y
b0 v"
b0 m$
b10100 ;$
1~$
b10100 $$
b1010 s$
0+#
0*#
b0 )#
b0 ;"
b0 :"
b1 !
b1 ("
0G
x]
bx Z
bx Y"
bx _
bx ##
bx <#
bx 8$
bx p$
bx [
bx Z"
bx z"
bx a
bx }"
bx ;#
bx 7$
bx o$
bx \
bx X"
bx w"
b0 0
b0 '%
b0 ,
b0 +%
b0 -
b0 *%
b0 1
b0 >"
b0 &%
b0 /
b0 ="
b0 (%
b0 +
b0 <"
b0 ,%
1X
b101000000000000001010 W
b101000000000000001010 3#
b1010 j
b1010 )"
b1010 @#
b1010 k
b1010 9"
b1010 ?#
b1010 2"
b1010 V
b1010 4#
b10100 d
b10100 /"
b10100 F#
b10100 R
b10100 8"
b10100 8#
b10100 *$
b1000000000 b
b1000000000 0"
b1000000000 U#
b1000000000 U
b1000000000 7"
b1000000000 \"
b1000000000 5#
b1000000000 <$
b1000000000 #%
b10000 /%
0%
1"
#6
b10 B
b10 ~#
b1 i
b1 *"
b1 A#
b1 1"
b1 u$
b10 %$
b100000000000010000000000000010 1#
b10 6$
b1 A
b1 2#
b1 #$
b10 ;
b10 i$
b10000 .%
b10000 s#
1%
0"
#7
b10 s$
b1 ;$
b1 $$
b10000000000000010 W
b10000000000000010 3#
b10 j
b10 )"
b10 @#
b10 k
b10 9"
b10 ?#
b10 2"
b10 V
b10 4#
b1 d
b1 /"
b1 F#
b1 R
b1 8"
b1 8#
b1 *$
0]
b0 Z
b0 Y"
b0 _
b0 ##
b0 <#
b0 8$
b0 p$
b0 [
b0 Z"
b0 z"
b0 a
b0 }"
b0 ;#
b0 7$
b0 o$
b0 \
b0 X"
b0 w"
b10 !
b10 ("
b0 `
b0 ~"
b0 =#
b0 9$
b0 q$
b0 D
b0 (#
b0 .#
b10000 -%
b10000 %%
b10000 /%
0%
1"
#8
b11 B
b11 ~#
b10 i
b10 *"
b10 A#
b10 1"
b10 u$
b11 %$
b11 ;
b11 i$
b100000000101101111111111111111 1#
b11 6$
b10 A
b10 2#
b10 #$
b10000 s#
b10000 .%
1%
0"
#9
b1010 ["
b11111111111111111111111111111111 s$
b10110 ;$
b10110 $$
b1010 ;"
b11 !
b11 ("
b1010 0
b1010 '%
b1 /
b1 ="
b1 (%
b10000 .
b10000 )%
b1000000000 +
b1000000000 <"
b1000000000 ,%
b101101111111111111111 W
b101101111111111111111 3#
b11111111111111111111111111111111 j
b11111111111111111111111111111111 )"
b11111111111111111111111111111111 @#
b11111111111111111111111111111111 k
b11111111111111111111111111111111 9"
b11111111111111111111111111111111 ?#
b11111111111111111111111111111111 2"
b1111111111111111 V
b1111111111111111 4#
b11111 Q
b11111 9#
b11111 T
b11111 6#
b10110 d
b10110 /"
b10110 F#
b10110 R
b10110 8"
b10110 8#
b10110 *$
b10000 /%
b10000 -%
b1111 %%
0%
1"
#10
b100 B
b100 ~#
b11 i
b11 *"
b11 A#
b11 1"
b11 u$
b100 %$
b1101001111100000100010 1#
b100 6$
b11 A
b11 2#
b11 #$
b100 ;
b100 i$
b10000 .%
b10000 s#
1%
0"
#11
b10 ["
b1 Y
b1 v"
b1 m$
b11111111111111111111100000100010 s$
b11111 ;$
b11111 $$
b10 ;"
b1101001111100000100010 W
b1101001111100000100010 3#
b11111111111111111111100000100010 j
b11111111111111111111100000100010 )"
b11111111111111111111100000100010 @#
b11111111111111111111100000100010 k
b11111111111111111111100000100010 9"
b11111111111111111111100000100010 ?#
b11111111111111111111100000100010 2"
b1111100000100010 V
b1111100000100010 4#
b0 Q
b0 9#
b10100 d
b10100 /"
b10100 F#
b10100 R
b10100 8"
b10100 8#
b10100 *$
b1 S
b1 7#
b1 )$
b100010 b
b100010 0"
b100010 U#
b100010 U
b100010 7"
b100010 \"
b100010 5#
b100010 <$
b100010 #%
b10 0
b10 '%
b10 /
b10 ="
b10 (%
b1111 .
b1111 )%
b1000000000 +
b1000000000 <"
b1000000000 ,%
b1000000000 Z
b1000000000 Y"
b1010 _
b1010 ##
b1010 <#
b1010 8$
b1010 p$
b1010 [
b1010 Z"
b1010 z"
b1 a
b1 }"
b1 ;#
b1 7$
b1 o$
b1 \
b1 X"
b1 w"
b100 !
b100 ("
b10000 -%
b10000 %%
b10000 /%
0%
1"
#12
b101 B
b101 ~#
b10 v$
b0 f
b0 -"
b0 D#
b0 5"
b0 z$
b10 h
b10 +"
b10 B#
b10 3"
b100 i
b100 *"
b100 A#
b100 1"
b100 u$
b101 %$
b1010 5
b1010 A$
17
b1010 e
b1010 ."
b1010 E#
b1010 6"
b1010 {$
b10 6
b10 @$
b10 g
b10 ,"
b10 C#
b11111111111111111111100000100100 k
b11111111111111111111100000100100 9"
b11111111111111111111100000100100 ?#
b10 4"
b10 w$
b101 ;
b101 i$
b11111000001111100000101010 1#
b101 6$
b100 A
b100 2#
b100 #$
b1 '
b1 2$
b1 ?$
b10 )
b10 1$
b10 >$
b10000 s#
b10000 .%
1%
0"
